WeightClassKg,JapaneseName,Name,Sex,Age,Team,BodyweightKg,Squat1Kg,Squat2Kg,Squat3Kg,Squat4Kg,Bench1Kg,Bench2Kg,Bench3Kg,Bench4Kg,Deadlift1Kg,Deadlift2Kg,Deadlift3Kg,Deadlift4Kg,Best3SquatKg,Best3BenchKg,Best3DeadliftKg,TotalKg,Place,Event,Equipment,Division
52,小縣早知子,,F,40,愛知県 パワーフィットネス,50.5,90,95,97.5,100,65,67.5,70,-72.5,115,120,125.5,-127.5,97.5,70,125.5,292.5,1,SBD,Raw,Open
52,岡村照美,,F,23,愛知県 パワーフィットネス,50.85,65,70,-75,,45,47.5,50,,100,110,115,,70,50,115,235,2,SBD,Raw,Open
52,後藤 緑,,F,19,大阪府 個人,50,-75,75,77.5,,50,55,-57.5,,90,95,100,,77.5,55,100,232.5,3,SBD,Raw,Open
52,岡本考代,,F,41,愛知県 パワーフィットネス,50.65,65,-70,-70,,47.5,50,-52.5,,100,105,-110,,65,50,105,220,4,SBD,Raw,Open
56,木村 初子,Hatsuko Kimura,F,50,神奈川県 ｱｻﾏﾄﾚｰﾆﾝｸﾞｸﾗﾌﾞ,53.9,90,100,-115,,65,70,-72.5,,140,150,155,160,100,70,155,325,1,SBD,Raw,Open
56,奥田和美,,F,37,京都府 バーベルス京都,55.35,95,-100,100,,60,62.5,-65,,125,130,-135,,100,62.5,130,292.5,2,SBD,Raw,Open
56,森塚久美,,F,26,愛知県 パワーフィットネス,54.4,80,85,-90,,55,60,-62.5,,95,100,105,,85,60,105,250,3,SBD,Raw,Open
56,浜口律子,,F,30,三重県 ｼﾞｬﾝｸﾞﾙｼﾞﾑ,,,,,,,,,,,,,,,,,,NS,SBD,Raw,Open
60,佐々木亜紀,,F,35,愛知県 パワーフィットネス,58.6,90,-95,95,,70,75,77.5,-80,130,140,-152.5,,95,77.5,140,312.5,1,SBD,Raw,Open
60,山口貴世,,F,28,大阪府 パワーウェーブ,58.35,80,-85,-85,,42.5,45,-50,,130,-135,-135,,80,45,130,255,2,SBD,Raw,Open
60,田岡眞美,,F,37,三重県 ｼﾞｬﾝｸﾞﾙｼﾞﾑ,58.6,60,-65,-65,,-50,50,52.5,,60,70,-80,,60,52.5,70,182.5,3,SBD,Raw,Open
67.5,河野理恵,,F,29,香川県 高松ﾄﾚｰﾆﾝｸﾞｸﾗﾌﾞ,66.3,-90,90,-100,,70,-75,75,,120,125,130,,90,75,130,295,1,SBD,Raw,Open
52,栗原 昭久,Akihisa Kurihara,M,23,埼玉県 個人,51.45,-140,140,-152.5,,90,100,-105,,-180,180,-203,,140,100,180,420,1,SBD,Raw,Open
52,大城 新順,Shinjun Oshiro,M,58,千葉県 個人,51.9,107.5,112.5,-117.5,,105,-107.5,110,,145,155,-165,,112.5,110,155,377.5,2,SBD,Raw,Open
52,渡辺 千晶,,M,38,愛知県 パワーフィットネス,51.85,110,115,120,,75,-80,-80,,150,160,162.5,,120,75,162.5,357.5,3,SBD,Raw,Open
52,奥田 博之,Hiroyuki Okuda,M,44,京都府 バーベルス京都,51.1,-80,80,87.5,,100,105,-107.5,,110,115,-120,,87.5,105,115,307.5,4,SBD,Raw,Open
56,松浦すぐる,,M,29,大阪府 個人,54.95,150,157.5,-160,,115,125,-130,,180,-207.5,-207.5,,157.5,125,180,462.5,1,SBD,Raw,Open
60,香川清治,,M,28,広島県 個人,59.55,160,170,-175.5,,105,110,112.5,,185,195,-200,,170,112.5,195,477.5,1,SBD,Raw,Open
60,高柳修一郎,,M,31,佐賀県 佐賀ﾄﾚｰﾆﾝｸﾞｾﾝﾀｰ,59.55,155,160,165,,-105,105,-107.5,,190,200,-207.5,,165,105,200,470,2,SBD,Raw,Open
60,牧井文伸,,M,22,埼玉県 個人,59.8,150,155,-157.5,,100,110,115,,180,192.5,195,,155,115,195,465,3,SBD,Raw,Open
60,源田清和,,M,29,富山県 高岡ＴＣ,58.95,160,167.5,170,,105,110,112.5,,170,175,180,,170,112.5,180,462.5,4,SBD,Raw,Open
60,稲熊正清,,M,32,愛知県 サン笠寺,59.5,140,-150,150,,95,102.5,107.5,,170,177.5,,,150,107.5,177.5,435,5,SBD,Raw,Open
60,寺尾俊哉,,M,39,岡山県 ｴｲﾌﾞﾙﾌｨｯﾄﾈｽｸﾗﾌﾞ,59.2,110,120,-125,,90,95,100,,175,185,192.5,,120,100,192.5,412.5,6,SBD,Raw,Open
60,入江将浩,,M,38,広島県 広島市ｽﾎﾟｰﾂ事業団,59.55,-120,120,130,,110,117.5,-122.5,,130,142.5,147.5,,130,117.5,147.5,395,7,SBD,Raw,Open
60,金澤 敬,,M,19,埼玉県 個人,59.7,110,120,-130,,85,95,100,,150,-160,170,,120,100,170,390,8,SBD,Raw,Open
60,田子大輔,,M,19,埼玉県 個人,58.7,100,-110,110,,60,65,-70,,135,140,-145,,110,65,140,315,9,SBD,Raw,Open
60,中西建一,,M,38,三重県 ｼﾞｬﾝｸﾞﾙｼﾞﾑ,59.95,150,-155,-155,,-120,-120,-120,,,,,,150,,,,NS,SBD,Raw,Open
67.5,長尾 秀和,Hidekazu Nagao,M,33,香川県 高松ﾄﾚｰﾆﾝｸﾞｸﾗﾌﾞ,67.1,175,-190,190,,135,-140,-140,,210,-220,-220,,190,135,210,535,1,SBD,Raw,Open
67.5,福井喜武,,M,30,愛知県 パワーフィットネス,67.25,170,180,-185,,115,120,125,,200,-210,-210,,180,125,200,505,2,SBD,Raw,Open
67.5,両角保宏,,M,24,長野県 個人,66,160,165,170,,105,110,112.5,,200,210,212.5,,170,112.5,212.5,495,3,SBD,Raw,Open
67.5,中村 功,,M,48,埼玉県 個人,66.25,170,182.5,185,,112.5,120,-125,,-170,180,190,,185,120,190,495,4,SBD,Raw,Open
67.5,吉村 護,,M,21,神奈川県 個人,66.95,155,165,-170,,-107.5,112.5,117.5,,185,200,-212.5,,165,117.5,200,482.5,5,SBD,Raw,Open
67.5,服部義和,,M,34,愛知県 ﾃﾞﾝｿｰ刈谷ﾊﾟﾜｰｸﾗﾌﾞ,66.8,150,160,-165,,125,132.5,-137.5,,175,185,-192.5,,160,132.5,185,477.5,6,SBD,Raw,Open
67.5,原 吉則,,M,43,香川県 高松ﾄﾚｰﾆﾝｸﾞｸﾗﾌﾞ,66.2,-130,130,140,,80,90,-92.5,,180,200,220,,140,90,220,450,7,SBD,Raw,Open
67.5,三浦文嗣,,M,23,東京都 個人,66.6,140,150,-155,,100,110,-115,,170,180,-190,,150,110,180,440,8,SBD,Raw,Open
67.5,石橋敏幸,,M,25,愛知県 個人,63.2,-130,130,135,,-110,115,120,,160,170,180,,135,120,180,435,9,SBD,Raw,Open
67.5,白井哲治,,M,29,香川県 高松ﾄﾚｰﾆﾝｸﾞｸﾗﾌﾞ,65.5,100,-120,125,,90,100,105,,150,167.5,175,,125,105,175,405,10,SBD,Raw,Open
67.5,西本 仁,,M,43,大阪府 個人,62.55,-105,105,115,,90,95,-100,,135,145,150,,115,95,150,360,11,SBD,Raw,Open
67.5,多田羅裕亮,,M,30,香川県 高松ﾄﾚｰﾆﾝｸﾞｸﾗﾌﾞ,62,90,100,-102.5,,75,80,82.5,,120,130,135,,100,82.5,135,317.5,12,SBD,Raw,Open
67.5,三宅浩夫,,M,42,香川県 高松ﾄﾚｰﾆﾝｸﾞｸﾗﾌﾞ,64.25,85,95,-100,,65,70,72.5,,135,140,145,,95,72.5,145,312.5,13,SBD,Raw,Open
67.5,ｺﾏﾝﾄﾞｰ金澤,,M,32,奈良県 個人,66.25,-135,-135,135,,-100,-100,-100,,,,,,135,,,,DQ,SBD,Raw,Open
67.5,藤本礼之,,M,22,香川県 個人,66.9,110,135,-145,,90,100,-105,,-210,-235.5,-235.5,,135,100,,,DQ,SBD,Raw,Open
67.5,稲塚辰美,,M,28,愛知県 名倉クラブ,,,,,,,,,,,,,,,,,,NS,SBD,Raw,Open
67.5,平良治雄,,M,47,沖縄県 平良ﾄﾚｰﾆﾝｸﾞｼﾞﾑ,,,,,,,,,,,,,,,,,,NS,SBD,Raw,Open
75,富永忠秀,,M,31,愛知県 個人,73.35,200,210,-215,,-145,145,-150,,220,225,235,,210,145,235,590,1,SBD,Raw,Open
75,三戸森三千弘,,M,29,兵庫県 三菱重工業高砂製作所,73,210,215,220,,127.5,132.5,-135,,210,222.5,-232.5,,220,132.5,222.5,575,2,SBD,Raw,Open
75,中島 訓,,M,32,愛知県 パワーフィットネス,72.45,170,180,-190,,140,-145,145,,210,220,230,,180,145,230,555,3,SBD,Raw,Open
75,大城 博,,M,28,沖縄県 奥武山ＷＴＣ,71.9,165,175,185,,125,135,140,,180,200,-215,,185,140,200,525,4,SBD,Raw,Open
75,田中広志,,M,28,熊本県 個人,73.2,185,195,-202.5,,135,140,145,,170,180,-185,,195,145,180,520,5,SBD,Raw,Open
75,関根義文,,M,35,佐賀県 佐賀ﾄﾚｰﾆﾝｸﾞｾﾝﾀｰ,74,170,180,187.5,,115,117.5,-120,,190,-205,-205,,187.5,117.5,190,495,6,SBD,Raw,Open
75,後藤衆久,,M,28,香川県 高松ﾄﾚｰﾆﾝｸﾞｸﾗﾌﾞ,71.55,160,-167.5,167.5,,-110,110,120,,180,190,200,,167.5,120,200,487.5,7,SBD,Raw,Open
75,齋藤 浩,,M,21,愛知県 パワーライン,71.9,155,162.5,-170,,130,135,-142.5,,190,-207.5,-210,,162.5,135,190,487.5,8,SBD,Raw,Open
75,伊藤 健,,M,20,埼玉県 個人,73.2,-140,-140,140,,100,110,-115,,180,200,-215,,140,110,200,450,9,SBD,Raw,Open
75,土井芳男,,M,37,広島県 広島市ｽﾎﾟｰﾂ事業団,74.5,-130,-130,130,,-100,-100,105,,140,150,165,,130,105,165,400,10,SBD,Raw,Open
75,井上英記,,M,31,愛知県 パワーライン,70.45,130,-140,-140,,-100,-100,-100,,,,,,130,,,,DQ,SBD,Raw,Open
75,佐藤 俊彦,Toshihiko Sato,M,61,三重県 個人,,,,,,,,,,,,,,,,,,NS,SBD,Raw,Open
82.5,曽野誠一,,M,42,大阪府 個人,79.35,190,200,205,,120,125,-130,,210,220,230,,205,125,230,560,1,SBD,Raw,Open
82.5,高田末廣,,M,48,静岡県 東部ﾄﾚｰﾆﾝｸﾞｾﾝﾀｰ,80.3,175,-185,185,,130,135,,,225,235,-242.5,,185,135,235,555,2,SBD,Raw,Open
82.5,石尾浩昭,,M,37,香川県 高松ﾄﾚｰﾆﾝｸﾞｸﾗﾌﾞ,81.3,170,180,185,,130,137.5,142.5,,210,217.5,222.5,,185,142.5,222.5,550,3,SBD,Raw,Open
82.5,林 豊,,M,33,神奈川県 個人,79.8,170,180,185,,125,130,-132.5,,220,230,-235,,185,130,230,545,4,SBD,Raw,Open
82.5,寺田英明,,M,31,茨城県 個人,80,-180,180,-190,,112.5,117.5,-120,,230,240,245,,180,117.5,245,542.5,5,SBD,Raw,Open
82.5,西脇喜彦,,M,30,愛知県 サン笠寺,76.4,165,175,182.5,,115,120,-125,,215,235,-250,,182.5,120,235,537.5,6,SBD,Raw,Open
82.5,大坪勇人,,M,27,岩手県 個人,80.65,170,-175,,,137.5,142.5,145,,170,185,-195,,170,145,185,500,7,SBD,Raw,Open
82.5,加藤智彦,,M,24,愛知県 パワーフィットネス,77.2,135,145,-150,,85,90,-95,,200,-210,210,,145,90,210,445,8,SBD,Raw,Open
82.5,山本陽介,,M,22,長野県 個人,81,130,-140,-140,,-110,120,-125,,-170,-170,-170,,130,120,,,DQ,SBD,Raw,Open
82.5,森口尚政,,M,29,滋賀県 個人,78.85,-190,-190,-190,,,,,,,,,,,,,,DQ,SBD,Raw,Open
90,浜田誠司,,M,29,埼玉県 個人,89.55,190,210,-217.5,,175,185,-190,,225,237.5,245,,210,185,245,640,1,SBD,Raw,Open
100,伊藤裕司,,M,35,愛知県 パワーフィットネス,91.2,200,210,-215,,140,145,150,,220,240,250,,210,150,250,610,1,SBD,Raw,Open
110,庄田一幸,,M,36,大阪府 コスモジム,100.15,-200,200,210,,170,180,,,230,240,-245,,210,180,240,630,1,SBD,Raw,Open
110,藤本章夫,,M,52,兵庫県 ﾌｼﾞﾓﾄﾊﾟﾜｰｼﾞﾑ,101.55,200,-210,210,,150,155,157.5,,230,242.5,252.5,,210,157.5,252.5,620,2,SBD,Raw,Open
110,関 幸男,,M,33,埼玉県 ＳＥＫＩ． ＧＹＭ,,,,,,,,,,,,,,,,,,NS,SBD,Raw,Open
125,喜屋武 進,,M,31,沖縄県 奥武山ＷＴＣ,113.15,220,230,-240,,115,122.5,125,,210,225,-235,,230,125,225,580,1,SBD,Raw,Open
125,榎並秀樹,,M,49,三重県 ワールドフィットネス,115.05,-170,170,-200,,130,-150,-160,,220,240,-250,,170,130,240,540,2,SBD,Raw,Open
125,田河勝行,,M,42,熊本県 個人,,,,,,,,,,,,,,,,,,NS,SBD,Raw,Open
