Name,Age,Division,Sex,Equipment,BodyweightKg,WeightClassKg,Squat1Kg,Squat2Kg,Squat3Kg,Squat4Kg,Best3SquatKg,Bench1Kg,Bench2Kg,Bench3Kg,Bench4Kg,Best3BenchKg,Deadlift1Kg,Deadlift2Kg,Deadlift3Kg,Deadlift4Kg,Best3DeadliftKg,TotalKg,Team,Event,Place
Christine Pineo,27,FO,F,Multi-ply,87,90,-110,-110,-110,,,75,-90,-90,,75,90,97.5,-115,,97.5,,GPC,SBD,DQ
Andre Wells,30,MO-R,M,Wraps,81.35,82.5,125,-135,-135,,125,75,85,-100,,85,130,145,165,,165,375,CPF,SBD,2
Gary Bobrovitz,66,M6,M,Multi-ply,59.3,60,160,175,-183,183,175,-132.5,-132.5,-132.5,,,,,,,,,Both,SBD,DQ
Patrick Thera,55,M4,M,Multi-ply,122.5,125,220,230,235,,235,-200,200,-207.5,,200,170,177.5,-185,,177.5,612.5,GPC,SBD,1
Eric Bryce,28,MO,M,Multi-ply,116.1,125,250,272.5,295,,295,175,200,-217.5,,200,285,-295,-300,,285,780,Both,SBD,2
Mike Martin,55,M4,M,Multi-ply,104,110,277.5,300,-317.5,,300,147.5,150,165,,165,260,275,-300,,275,740,GPC,SBD,1
Lee Powell,34,MO,M,Multi-ply,88.8,90,295,315,340,-355,340,,,,,,,,,,,340,GPC,S,1
Ryan Schutte,31,MO,M,Multi-ply,109,110,305,320,335,,335,215,230,-242.5,,230,242.5,252.5,260,,260,825,GPC,SBD,1
Brian Johnston,53,M3,M,Multi-ply,106.8,110,-305,-305,,,,-205,-205,,,,,,,,,,GPC,SBD,DQ
Dave Chouinard,46,M2,M,Multi-ply,98.83,100,310,325,340,,340,-230,230,237.5,,237.5,240,262.5,272.5,,272.5,850,Both,SBD,1
Johnny Phung,33,MO,M,Multi-ply,89.05,90,-335,-335,335,,335,-260,-260,-260,,,,,,,,,GPC,SBD,DQ
Tavis Harris,37,MO,M,Multi-ply,121.5,125,342.5,-370,-370,,342.5,227.5,235,240,,240,272.5,280,-300,,280,862.5,Both,SBD,1
Birchmans Pereira,71,M7,M,Multi-ply,82.9,90,,,,,,,,,,,157.5,182.5,187.5,192.5,187.5,187.5,GPC,D,1
Rob Nikoleychuk,36,MO,M,Multi-ply,98.35,100,,,,,,-210,210,227.5,,227.5,,,,,,227.5,Both,B,1
Aaron Rubin,44,M1,M,Multi-ply,94.95,100,,,,,,-215,-215,-215,,,,,,,,,GPC,B,DQ
Peter Jakobowski,57,M4,M,Multi-ply,104.5,110,,,,,,220,-230,-238,,220,,,,,,220,GPC,B,1
Gary Bobrovitz,66,M6-R,M,Wraps,59.3,60,60,,,,60,-110,,,,,,,,,,,Both,SBD,DQ
Vanessa Fode,25,FO-R,F,Wraps,64.8,67.5,82.5,-87.5,92.5,,92.5,45,50,-55,,50,100,107.5,115,,115,257.5,GPC,SBD,1
Kennedy Tkachuk,22,FJ-R,F,Wraps,60.75,67.5,84,100,-115,,100,-42.5,-50,-50,,,102.5,110,-125,,110,,GPC,SBD,DQ
Michelle Yungswirth,24,FO,F,Multi-ply,61.4,67.5,88,102.5,-117.5,,102.5,45,-50,-50,,45,102.5,107.5,110,,110,257.5,GPC,SBD,1
Kennedy Cherpin,17,FT2,F,Multi-ply,57.6,60,100,110,-120,,110,45,-50,-50,,45,80,87.5,92.5,,92.5,247.5,GPC,SBD,1
Courtney Johnston,36,FO-R,F,Wraps,74.85,75,102.5,115,-125,,115,57.5,60,-68,,60,137.5,145,150,,150,325,Both,SBD,1
Danielle Bolduc,26,FO-R,F,Wraps,80.4,82.5,-107.5,120,-130,,120,60,70,-77.5,,70,142.5,155,-165,,155,345,GPC,SBD,1
Jennie McMasters,40,F1-R,F,Wraps,122.5,90+,110,122.5,-147.5,,122.5,77.5,-87.5,-87.5,,77.5,140,165,-182.5,,165,365,Both,SBD,1
Jessica Kohl,33,FO-R,F,Wraps,79.6,82.5,115,122.5,137.5,,137.5,47.5,55,57.5,,57.5,105,120,137.5,,137.5,332.5,CPF,SBD,2
Heather Robin,41,F1-R,F,Wraps,74.1,75,130,147.5,-165,,147.5,80,85,-87.5,,85,132.5,147.5,-165,,147.5,380,Both,SBD,1
Lisa Park,40,F1-R,F,Raw,50.1,52,,,,,,50,55,-60,,55,80,87.5,92.5,,92.5,147.5,GPC,BD,1
April Robinson,28,FO-R,F,Raw,111.4,90+,,,,,,52.5,57.5,-62.5,,57.5,82.5,87.5,95,,95,152.5,GPC,BD,1
Heather Barnett,46,F2-R,F,Raw,82.35,82.5,,,,,,52.5,57.5,-60,,57.5,100,107.5,-112.5,,107.5,165,Both,BD,1
Monica Johnston,68,F6-R,F,Raw,74.95,75,,,,,,35,37.5,-40.5,,37.5,67.5,77.5,,,77.5,115,Both,BD,1
Melissa Hala,27,FO-R,F,Raw,55.5,56,,,,,,57.5,-60,-60,,57.5,,,,,,57.5,GPC,B,1
Jayden Pederson,20,FJ,F,Raw,55.7,56,,,,,,-70,70,-80,,70,,,,,,70,Both,B,1
Tim Agnew,30,MO-R,M,Wraps,151.1,140+,182.5,225,-237.5,,225,132.5,-155,155,,155,162.5,182.5,202.5,,202.5,582.5,GPC,SBD,2
Darryl Comeault,36,MO-R,M,Wraps,124.9,125,215,222.5,240,,240,125,135,150,,150,215,227.5,-240,,227.5,617.5,Both,SBD,4
Jesse Suran,28,MO-R,M,Wraps,98.9,100,170,-180,187.5,,187.5,115,120,-122.5,,120,220,232.5,-245,,232.5,540,GPC,SBD,3
Austin Faubert,20,MJ-R,M,Wraps,106.8,110,205,227.5,237.5,,237.5,150,160,170,,170,222.5,242.5,250,,250,657.5,Both,SBD,1
Jericho Gibbs,34,MO-R,M,Wraps,97.9,100,230,245,-265,,245,147.5,165,-172.5,,165,225,235,-245,,235,645,GPC,SBD,2
Darren Sokluski,25,MO-R,M,Wraps,109.5,110,-232.5,232.5,-237.5,,232.5,137.5,-147.5,147.5,,147.5,230,247.5,260,,260,640,GPC,SBD,1
Andrew Morkin,31,MO-R,M,Wraps,149.5,140+,237.5,-272.5,-272.5,,237.5,120,145,-160,,145,235,-255,255,,255,637.5,Both,SBD,1
Brian Bailey,47,M2-R,M,Wraps,137.1,140,282.5,305,-332.5,,305,205,-230,-230,,205,255,272.5,282.5,,282.5,792.5,GPC,SBD,1
Warren Sabine,36,MO-R,M,Wraps,99.85,100,240,255,272.5,,272.5,180,190,-195,,190,265,-283,-283,,265,727.5,Both,SBD,1
Robbie Sereda,23,MO-R,M,Wraps,120.1,125,250,270,275,,275,-192.5,192.5,200,,200,270,282.5,-300,,282.5,757.5,CPF,SBD,1
Josh Devoe,30,MO-R,M,Wraps,114.5,125,240,257.5,-272.5,,257.5,-152.5,-165,165,,165,270,290,-300,,290,712.5,Both,SBD,3
James Maddex,40,M1-R,M,Wraps,127.9,140,295,317.5,-331,,317.5,190,200,205,,205,275,285,300,,300,822.5,Both,SBD,1
Cody Seminuk,27,MO-R,M,Wraps,123.4,125,225,247.5,265,,265,145,157.5,-172.5,,157.5,280,292.5,302.5,,302.5,725,Both,SBD,2
Jon Wawro,27,MO-R,M,Wraps,134.1,140,205,225,240,,240,190,-202.5,-202.5,,190,307.5,320,332.5,,332.5,762.5,GPC,SBD,1
Rob Nikoleychuk,36,MO-R,M,Raw,98.65,100,,,,,,190,195,200,,200,,,,,,200,Both,B,1
Michael Peterson,36,MO-R,M,Wraps,66.95,67.5,82.5,92.5,100,,100,60,70,-82.5,,70,117.5,122.5,135,,135,305,GPC,SBD,1
Sara Crespo,19,FT3,F,Multi-ply,59.95,60,120,125,-130,,125,52.5,60,-62.5,,60,125,135,140,145,140,325,Both,SBD,1
Randy Malinowski,43,M1-R,M,Raw,86.1,90,,,,,,,,,,,130,140,-147.5,,140,140,GPC,D,1
Carter Sandberg,16,MT2-R,M,Wraps,75.95,82.5,125,142.5,-167.5,,142.5,65,77.5,-85,,77.5,140,170,190,,190,410,Both,SBD,1
Forest Bihun,24,MO-R,M,Wraps,76.95,82.5,125,137.5,145,,145,65,77.5,-82.5,,77.5,142.5,165,185,,185,407.5,GPC,SBD,1
Jared Nemeth,26,MO-R,M,Raw,76.4,82.5,,,,,,122.5,132.5,147.5,,147.5,160,172.5,182.5,,182.5,330,GPC,BD,1
Benjamin Bihun,22,MJ-R,M,Wraps,93.7,100,125,155,175,,175,125,-145,-145,,125,165,185,190,,190,490,GPC,SBD,1
Birchmans Pereira,71,M7-R,M,Wraps,82.55,90,125,135,142.5,-150,142.5,57.5,62.5,67.5,72.5,67.5,170,177.5,187.5,195,187.5,,GPC,SBD,DQ
Riley Hopkins,21,MJ-R,M,Wraps,97.45,100,125,140,155,,155,107.5,125,-137.5,,125,175,192.5,202.5,,202.5,482.5,GPC,SBD,2
Colin Mullaney,58,M4-R,M,Wraps,89.65,90,180,200,210,,210,140,-155,-155,,140,180,200,-228,,200,550,Both,SBD,1
Aaron LeMoal,19,MT3-R,M,Wraps,58.9,60,147.5,160,-170,-172.5,160,92.5,100,-105,105,100,182.5,190,195,200,195,455,GPC,SBD,1
Tyson McNeil,39,MO-R,M,Wraps,88.25,90,240,-255,255,,255,105,115,122.5,,122.5,232.5,242.5,250,,250,627.5,Both,SBD,2
Douglas Macleod,29,MO-R,M,Wraps,89.35,90,250,265,280,,280,155,165,-175,,165,255,270,-280,,270,715,Both,SBD,1
Ruslan Kravchinsky,41,M1-R,M,Wraps,95.45,100,-280,-280,280,-303,280,145,155,,,155,260,-295,-295,-305,260,695,Both,SBD,1
