Division,WeightClassKg,Place,Name,Team,BodyweightKg,Best3SquatKg,Best3BenchKg,Best3DeadliftKg,TotalKg,Equipment,Event,Sex
Girls,44.23,1,Ashley Martinez,Edinburg Idea College Prep,43.82,136.08,58.97,140.61,335.66,Single-ply,SBD,F
Girls,44.23,2,Jacqueline Pena,Edinburg Idea College Prep,43.73,99.79,36.29,106.59,242.67,Single-ply,SBD,F
Girls,44.23,3,Valery Cano,Edinburg Idea College Prep,42.64,90.72,36.29,102.06,229.06,Single-ply,SBD,F
Girls,44.23,4,Vielka Rivera,Zapata,44.18,79.38,31.75,97.52,208.65,Single-ply,SBD,F
Girls,44.23,5,Alexis Gomez,Edinburg Quest College Prep,43.91,56.7,34.02,81.65,172.37,Single-ply,SBD,F
Girls,44.23,6,Yaritza Gonzalez,Roma,42.64,54.43,24.95,61.23,140.61,Single-ply,SBD,F
Girls,44.23,DQ,Lluvia Ramirez,Edinburg Idea College Prep,42.27,47.63,,,,Single-ply,SBD,F
Girls,47.85,1,Adriana Villafuerte,Edinburg Idea College Prep,46.31,122.47,54.43,124.74,301.64,Single-ply,SBD,F
Girls,47.85,2,Stephany Villarreal,Zapata,47.26,104.33,68.04,115.67,288.03,Single-ply,SBD,F
Girls,47.85,3,Reina de la Paz,Santa Gertrudis Academy,47.81,102.06,56.7,95.25,254.01,Single-ply,SBD,F
Girls,47.85,4,Savannah Sandoval,Santa Gertrudis Academy,44.54,88.45,45.36,104.33,238.14,Single-ply,SBD,F
Girls,47.85,5,Melanie Orocio,Edinburg Idea College Prep,47.81,56.7,31.75,68.04,156.49,Single-ply,SBD,F
Girls,47.85,6,Yiselle Mondragon,Edinburg Idea College Prep,47.54,40.82,22.68,47.63,111.13,Single-ply,SBD,F
Girls,51.94,1,Amber Trevino,Edinburg Quest College Prep,51.8,102.06,65.77,106.59,274.42,Single-ply,SBD,F
Girls,51.94,2,Nikole Lopez,Zapata,51.8,106.59,45.36,111.13,263.08,Single-ply,SBD,F
Girls,51.94,3,Chasity Venecia,Edinburg Idea College Prep,50.62,70.31,29.48,81.65,181.44,Single-ply,SBD,F
Girls,56.02,1,Cristy Gonzalez,Edinburg Idea College Prep,55.43,142.88,74.84,140.61,358.34,Single-ply,SBD,F
Girls,56.02,2,Maryanna Gavilanes,Zapata,55.79,127.01,68.04,136.08,331.12,Single-ply,SBD,F
Girls,56.02,3,Alyzza Ortiz,Edinburg Quest College Prep,55.97,95.25,63.5,108.86,267.62,Single-ply,SBD,F
Girls,56.02,4,Anira Hernandez,Roma,54.7,72.57,34.02,83.91,190.51,Single-ply,SBD,F
Girls,56.02,DQ,Kayla Flores,Roma,56.02,,,,,Single-ply,SBD,F
Girls,56.02,DQ,Ashley Garcia,Zapata,55.79,,,,,Single-ply,SBD,F
Girls,56.02,DQ,Emily Olivarez,Edinburg Quest College Prep,53.16,,,,,Single-ply,SBD,F
Girls,60.1,1,Ruth Avila,Edinburg Quest College Prep,59.87,120.2,52.16,117.93,290.3,Single-ply,SBD,F
Girls,60.1,2,Maria Manzano,Edinburg Idea College Prep,56.06,72.57,27.22,77.11,176.9,Single-ply,SBD,F
Girls,60.1,DQ,Ashley Cuellar,Zapata,59.19,129.27,83.91,,,Single-ply,SBD,F
Girls,60.1,DQ,Chelsey Gutierrez,Zapata,59.87,,,,,Single-ply,SBD,F
Girls,60.1,DQ,Dayla Lopez,Roma,60.1,,,,,Single-ply,SBD,F
Girls,60.1,DQ,Denisse Cantu,Roma,56.88,,,,,Single-ply,SBD,F
Girls,60.1,DQ,Brianna Rios,Edinburg Idea College Prep,56.25,,,,,Single-ply,SBD,F
Girls,67.36,1,Andrea Montes,Zapata,67.04,145.15,74.84,154.22,374.21,Single-ply,SBD,F
Girls,67.36,2,Karina Guzman,Zapata,64.41,129.27,77.11,117.93,324.32,Single-ply,SBD,F
Girls,67.36,3,Ashley Ramirez,Zapata,63.41,111.13,68.04,124.74,303.91,Single-ply,SBD,F
Girls,67.36,4,Desori Garcia,Zapata,60.6,117.93,63.5,115.67,297.1,Single-ply,SBD,F
Girls,67.36,5,Jasmine Torres,Santa Rosa,61.69,115.67,65.77,108.86,290.3,Single-ply,SBD,F
Girls,67.36,6,Naisah Garcia,Santa Rosa,64.95,104.33,49.9,97.52,251.74,Single-ply,SBD,F
Girls,67.36,7,Selina Castillo,Santa Gertrudis Academy,65.23,74.84,45.36,102.06,222.26,Single-ply,SBD,F
Girls,67.36,8,Erin Salinas,Edinburg Idea College Prep,60.24,43.09,22.68,56.7,122.47,Single-ply,SBD,F
Girls,67.36,DQ,Stepanie Montecinos,Edinburg Quest College Prep,64.23,95.25,61.23,,,Single-ply,SBD,F
Girls,67.36,DQ,Haley Marody,Santa Gertrudis Academy,67.13,,,,,Single-ply,SBD,F
Girls,67.36,DQ,Lilly Baird,Santa Gertrudis Academy,67.13,,,,,Single-ply,SBD,F
Girls,75.07,1,Sindy Garcia,Edinburg Idea College Prep,72.67,102.06,88.45,108.86,299.37,Single-ply,SBD,F
Girls,75.07,2,Sasha Garcia,Edinburg Quest College Prep,75.02,102.06,58.97,131.54,292.57,Single-ply,SBD,F
Girls,75.07,3,Jazmin Trevino,Zapata,73.39,111.13,56.7,117.93,285.76,Single-ply,SBD,F
Girls,75.07,4,Makayla Johnson,Santa Gertrudis Academy,74.48,111.13,56.7,108.86,276.69,Single-ply,SBD,F
Girls,75.07,5,Lyneth Chapa,Zapata,68.4,108.86,47.63,104.33,260.82,Single-ply,SBD,F
Girls,75.07,6,Aubrey Benavides,Santa Gertrudis Academy,70.58,104.33,47.63,102.06,254.01,Single-ply,SBD,F
Girls,75.07,DQ,Alisha Galvan,Santa Rosa,69.67,,,,,Single-ply,SBD,F
Girls,75.07,DQ,Kimberly Santos,Zapata,74.12,124.74,,,,Single-ply,SBD,F
Girls,75.07,DQ,Nidia Reyna,Roma,74.93,,,,,Single-ply,SBD,F
Girls,75.07,DQ,Maddie Hernandez,Santa Gertrudis Academy,74.84,,,,,Single-ply,SBD,F
Girls,75.07,DQ,Katelyn Elizondo,Santa Rosa,74.57,120.2,,,,Single-ply,SBD,F
Girls,82.33,1,Priscilla Garza,Edinburg Idea College Prep,82.1,179.17,92.99,138.35,410.5,Single-ply,SBD,F
Girls,82.33,2,Rosita Robles,Zapata,80.83,154.22,70.31,142.88,367.41,Single-ply,SBD,F
Girls,82.33,3,Brianna Lozano,Edinburg Quest College Prep,81.1,108.86,58.97,106.59,274.42,Single-ply,SBD,F
Girls,82.33,4,Laressa Rodrigues,Santa Gertrudis Academy,75.21,68.04,38.56,68.04,174.63,Single-ply,SBD,F
Girls,82.33,DQ,Nicole Menjares,Roma,82.33,,,,,Single-ply,SBD,F
Girls,82.33,DQ,Shanyl Garza,Roma,82.33,,,,,Single-ply,SBD,F
Girls,82.33,DQ,Jasmine Garcia,Lyford,82.1,,,,,Single-ply,SBD,F
Girls,82.33,DQ,Jewelyanna Rivera,La Villa,80.74,129.27,,,,Single-ply,SBD,F
Girls,90.04,1,Victoria Olivarez,Santa Rosa,89.09,145.15,58.97,142.88,347,Single-ply,SBD,F
Girls,90.04,2,Amanda Olivarez,Santa Rosa,87.27,140.61,49.9,113.4,303.91,Single-ply,SBD,F
Girls,90.04,3,Angela Salinas,Roma,85.46,106.59,54.43,104.33,265.35,Single-ply,SBD,F
Girls,90.04,4,Hailey Garcia,Roma,87.09,63.5,34.02,88.45,185.97,Single-ply,SBD,F
Girls,90.04,DQ,Alexandra Hall,Edinburg Quest College Prep,89.99,138.35,81.65,,,Single-ply,SBD,F
Girls,100.02,1,Argentina Garcia,La Villa,97.07,204.12,108.86,158.76,471.74,Single-ply,SBD,F
Girls,100.02,2,Priscilla Tovar,Lyford,93.53,172.37,72.57,163.29,408.23,Single-ply,SBD,F
Girls,100.02,DQ,Maria Betancourt,Edinburg Quest College Prep,93.44,90.72,,,,Single-ply,SBD,F
Girls,100.02,DQ,Marlayna Garcia,Zapata,98.88,,,,,Single-ply,SBD,F
Girls,117.71,1,Melanie Morales,Edinburg Idea College Prep,106.59,183.7,79.38,158.76,421.84,Single-ply,SBD,F
Girls,117.71,2,Autumn Layette,Edinburg Idea College Prep,105.78,92.99,31.75,92.99,217.72,Single-ply,SBD,F
Girls,117.71,DQ,Jeralyn Rivera,Roma,117.71,,,,,Single-ply,SBD,F
Girls,117.71+,1,Monika Morales,Edinburg Idea College Prep,117.84,215.46,99.79,151.95,467.2,Single-ply,SBD,F
Girls,117.71+,2,Bethany Gonzales,Santa Gertrudis Academy,148.14,120.2,52.16,129.27,301.64,Single-ply,SBD,F
Girls,117.71+,DQ,Samantha Crisman,Santa Gertrudis Academy,120.84,136.08,,,,Single-ply,SBD,F
