Division,WeightClassKg,Place,Name,Team,BodyweightKg,Best3SquatKg,Best3BenchKg,Best3DeadliftKg,TotalKg,Equipment,Event,Sex
Boys,51.71,1,Oscar Yanez,Sulphur Springs,50.89,145.15,72.57,145.15,362.87,Single-ply,SBD,M
Boys,51.71,2,Vandon Lassiter,Paris North Lamar,51.17,120.2,68.04,120.2,308.44,Single-ply,SBD,M
Boys,51.71,3,Padron Martinez,Quinlan Ford,51.26,111.13,49.9,129.27,290.3,Single-ply,SBD,M
Boys,51.71,4,Roman Colsten,Commerce,51.71,117.93,54.43,117.93,290.3,Single-ply,SBD,M
Boys,51.71,5,Cody Semler,Sulphur Springs,51.26,113.4,52.16,113.4,278.96,Single-ply,SBD,M
Boys,51.71,6,Justin Campbell,Leonard,51.71,111.13,52.16,108.86,272.16,Single-ply,SBD,M
Boys,51.71,7,Robert Morin,Wills Point,48.08,77.11,47.63,90.72,215.46,Single-ply,SBD,M
Boys,55.79,1,Schon Nichols,Farmersville,54.07,138.35,74.84,158.76,371.95,Single-ply,SBD,M
Boys,55.79,2,Jaden Brown,Paris North Lamar,54.34,145.15,74.84,151.95,371.95,Single-ply,SBD,M
Boys,55.79,3,Jerry Cortez,Farmersville,55.7,136.08,92.99,140.61,369.68,Single-ply,SBD,M
Boys,55.79,4,Alan Landazuri,Quinlan Ford,52.16,124.74,83.91,142.88,351.53,Single-ply,SBD,M
Boys,55.79,5,Jesus Leon,Wolfe City,53.07,136.08,65.77,136.08,337.93,Single-ply,SBD,M
Boys,55.79,6,Luke Elrod,Paris North Lamar,55.16,111.13,74.84,136.08,322.05,Single-ply,SBD,M
Boys,55.79,7,Ben Cagle,Wolfe City,53.52,136.08,79.38,102.06,317.51,Single-ply,SBD,M
Boys,55.79,8,Jeremy Griffin,Quinlan Ford,54.16,108.86,56.7,138.35,303.91,Single-ply,SBD,M
Boys,55.79,9,Xavier Bollin,Leonard,54.98,104.33,74.84,120.2,299.37,Single-ply,SBD,M
Boys,59.87,1,Blayce Lassiter,Paris North Lamar,56.7,183.7,72.57,151.95,408.23,Single-ply,SBD,M
Boys,59.87,2,Josh Barlagne,Leonard,59.87,158.76,95.25,154.22,408.23,Single-ply,SBD,M
Boys,59.87,3,Gavin Clayton,Caddo Mills,59.42,151.95,83.91,138.35,374.21,Single-ply,SBD,M
Boys,59.87,4,Darwin Acosta,Quinlan Ford,58.97,136.08,77.11,151.95,365.14,Single-ply,SBD,M
Boys,59.87,5,Stephen Smith,Wills Point,56.97,117.93,77.11,140.61,335.66,Single-ply,SBD,M
Boys,59.87,6,Matt Atchley,Cumby,57.06,111.13,61.23,127.01,299.37,Single-ply,SBD,M
Boys,67.13,1,Luke Kirkbride,Denison,66.32,210.92,111.13,215.46,537.51,Single-ply,SBD,M
Boys,67.13,2,Austin Helton,Caddo Mills,67.13,199.58,115.67,210.92,526.17,Single-ply,SBD,M
Boys,67.13,3,Christian Garcia,Emory Rains,67.13,201.85,102.06,195.04,498.95,Single-ply,SBD,M
Boys,67.13,4,Hayden Justice,Paris North Lamar,66.86,185.97,113.4,176.9,476.27,Single-ply,SBD,M
Boys,67.13,5,Austin Caldwell,Wills Point,65.86,167.83,111.13,190.51,469.47,Single-ply,SBD,M
Boys,67.13,6,River Chaney,Quitman,66.86,190.51,95.25,181.44,467.2,Single-ply,SBD,M
Boys,67.13,7,Luke Havens,Denison,66.77,174.63,102.06,188.24,464.93,Single-ply,SBD,M
Boys,67.13,8,Hugo Ramirez,Quitman,66.41,174.63,99.79,163.29,437.72,Single-ply,SBD,M
Boys,67.13,9,Ryan Kapil,Wills Point,66.32,158.76,88.45,181.44,428.64,Single-ply,SBD,M
Boys,67.13,10,Korrighan Smith,Commerce,65.32,163.29,95.25,167.83,426.38,Single-ply,SBD,M
Boys,67.13,11,Jose Acosta,Quinlan Ford,66.59,147.42,99.79,172.37,419.57,Single-ply,SBD,M
Boys,67.13,12,Anthony Martinez,Wills Point,66.68,156.49,97.52,165.56,419.57,Single-ply,SBD,M
Boys,67.13,13,Greg Turner,Leonard,64.59,172.37,81.65,161.03,415.04,Single-ply,SBD,M
Boys,67.13,14,Justyn Simmons,Honey Grove,60.06,154.22,88.45,165.56,408.23,Single-ply,SBD,M
Boys,67.13,15,Juan Munoz,Quinlan Ford,65.68,158.76,77.11,156.49,392.36,Single-ply,SBD,M
Boys,67.13,16,Joey McCaskey,Pattonville Prairiland,66.77,138.35,92.99,156.49,387.82,Single-ply,SBD,M
Boys,67.13,17,Abel Moreno,Pattonville Prairiland,62.32,140.61,74.84,147.42,362.87,Single-ply,SBD,M
Boys,67.13,DQ,Austin Booker,Honey Grove,60.33,108.86,108.86,,,Single-ply,SBD,M
Boys,74.84,1,Finlee Rudicile,Farmersville,74.84,217.72,136.08,213.19,566.99,Single-ply,SBD,M
Boys,74.84,2,Travon Smith,Caddo Mills,74.03,215.46,122.47,213.19,551.11,Single-ply,SBD,M
Boys,74.84,3,Bryce Evans,Paris North Lamar,74.84,197.31,106.59,188.24,492.15,Single-ply,SBD,M
Boys,74.84,4,Nolan Knisley,Wills Point,74.84,181.44,108.86,199.58,489.88,Single-ply,SBD,M
Boys,74.84,5,Jesus Mendez,Emory Rains,71.94,190.51,104.33,185.97,480.81,Single-ply,SBD,M
Boys,74.84,6,Zeb Garrett,Paris North Lamar,70.94,170.1,102.06,197.31,469.47,Single-ply,SBD,M
Boys,74.84,7,Jerome Martin,Quinlan Ford,74.66,172.37,90.72,188.24,451.32,Single-ply,SBD,M
Boys,74.84,8,Aaron Carrillo,Quinlan Ford,72.76,170.1,99.79,179.17,449.06,Single-ply,SBD,M
Boys,74.84,9,Connor Straughan,Commerce,73.48,181.44,102.06,163.29,446.79,Single-ply,SBD,M
Boys,74.84,10,Kam Cottle,Farmersville,69.4,170.1,83.91,183.7,437.72,Single-ply,SBD,M
Boys,74.84,11,Conner Smith,Commerce,70.9,156.49,92.99,181.44,430.91,Single-ply,SBD,M
Boys,74.84,12,Dalton Doyle,Leonard,73.57,154.22,95.25,167.83,417.3,Single-ply,SBD,M
Boys,74.84,13,Wyatt Hightower,Quitman,71.12,170.1,90.72,151.95,412.77,Single-ply,SBD,M
Boys,74.84,14,Gavin Watts,Pattonville Prairiland,67.68,165.56,70.31,163.29,399.16,Single-ply,SBD,M
Boys,74.84,15,Aidan Hicks,Pattonville Prairiland,74.57,158.76,83.91,154.22,396.89,Single-ply,SBD,M
Boys,74.84,16,Camden Fuller,Sulphur Springs,69.49,142.88,86.18,149.69,378.75,Single-ply,SBD,M
Boys,74.84,17,Alec Hedges,Quinlan Boles,70.22,147.42,70.31,149.69,367.41,Single-ply,SBD,M
Boys,74.84,DQ,Collin McGuire,Cooper,74.48,142.88,,,,Single-ply,SBD,M
Boys,82.1,1,Carson Bridges,Sulphur Springs,79.11,231.33,120.2,231.33,582.87,Single-ply,SBD,M
Boys,82.1,2,Keyshawn Wallace,Cooper,77.66,210.92,120.2,161.03,492.15,Single-ply,SBD,M
Boys,82.1,3,Colton Gable,Emory Rains,78.11,188.24,102.06,176.9,467.2,Single-ply,SBD,M
Boys,82.1,4,John Wheeler,Leonard,80.29,156.49,111.13,170.1,437.72,Single-ply,SBD,M
Boys,82.1,5,Kaiden Roden,Quinlan Ford,81.19,151.95,102.06,174.63,428.64,Single-ply,SBD,M
Boys,82.1,6,Pablo Peralta,Pattonville Prairiland,80.1,151.95,86.18,181.44,419.57,Single-ply,SBD,M
Boys,82.1,7,Ryan Carillo,Sulphur Springs,79.02,165.56,111.13,140.61,417.3,Single-ply,SBD,M
Boys,82.1,8,Granger Ervin,Pattonville Prairiland,78.47,151.95,81.65,176.9,410.5,Single-ply,SBD,M
Boys,82.1,9,Trevor Gilbert #2,Quitman,80.83,172.37,70.31,163.29,405.97,Single-ply,SBD,M
Boys,82.1,10,Henry Serrano,Commerce,79.74,147.42,97.52,158.76,403.7,Single-ply,SBD,M
Boys,82.1,11,Cody Cribs,Quinlan Boles,78.56,127.01,92.99,136.08,356.07,Single-ply,SBD,M
Boys,82.1,DQ,Colby Lindsey,Cumby,79.2,,,,,Single-ply,SBD,M
Boys,82.1,DQ,Cogan Grabowski,Farmersville,80.2,,,,,Single-ply,SBD,M
Boys,89.81,1,Armando Aguilar,Caddo Mills,88.72,254.01,142.88,229.06,625.96,Single-ply,SBD,M
Boys,89.81,2,Brett Harrington,Caddo Mills,87.72,235.87,140.61,244.94,621.42,Single-ply,SBD,M
Boys,89.81,3,George Greenway,Sulphur Springs,87.54,247.21,124.74,226.8,598.74,Single-ply,SBD,M
Boys,89.81,4,Jaxon Rudicile,Farmersville,84.73,208.65,154.22,208.65,571.53,Single-ply,SBD,M
Boys,89.81,5,Caden Davis,Sulphur Springs,83.28,208.65,136.08,192.78,537.51,Single-ply,SBD,M
Boys,89.81,6,Coby Barnes,Wolfe City,83.91,217.72,122.47,185.97,526.17,Single-ply,SBD,M
Boys,89.81,7,Jamar Person,Honey Grove,89.36,192.78,97.52,210.92,501.22,Single-ply,SBD,M
Boys,89.81,8,Jorge López,Quinlan Ford,86.27,190.51,113.4,190.51,494.42,Single-ply,SBD,M
Boys,89.81,9,DJ Brown,Leonard,82.55,179.17,106.59,190.51,476.27,Single-ply,SBD,M
Boys,89.81,10,Dakota Butrill,Denison,83.1,181.44,99.79,176.9,458.13,Single-ply,SBD,M
Boys,89.81,11,Chance Knight,Commerce,88.9,192.78,92.99,170.1,455.86,Single-ply,SBD,M
Boys,89.81,12,Nate Harris,Leonard,83.19,161.03,102.06,181.44,444.52,Single-ply,SBD,M
Boys,89.81,13,Hayden Thomas,Pattonville Prairiland,82.74,156.49,106.59,172.37,435.45,Single-ply,SBD,M
Boys,89.81,14,Remington Brown,Paris North Lamar,86.27,115.67,65.77,136.08,317.51,Single-ply,SBD,M
Boys,89.81,DQ,Leroy Bolden,Farmersville,87.27,308.44,161.03,,,Single-ply,SBD,M
Boys,89.81,DQ,José Cortés,Pattonville Prairiland,89.81,204.12,,,,Single-ply,SBD,M
Boys,89.81,DQ,Calton Nene,Cumby,86.91,181.44,,,,Single-ply,SBD,M
Boys,89.81,DQ,Jake Turner,Commerce,87.54,147.42,,,,Single-ply,SBD,M
Boys,99.79,1,Colt Cooper,Caddo Mills,93.17,258.55,151.95,235.87,646.37,Single-ply,SBD,M
Boys,99.79,2,Nate Allen,Honey Grove,95.16,244.94,117.93,217.72,580.6,Single-ply,SBD,M
Boys,99.79,3,Jeremy Peek,Quitman,92.53,208.65,124.74,206.38,539.77,Single-ply,SBD,M
Boys,99.79,4,Sean Newark,Caddo Mills,97.98,217.72,124.74,183.7,526.17,Single-ply,SBD,M
Boys,99.79,5,Omahri Davis,Commerce,91.63,185.97,102.06,210.92,498.95,Single-ply,SBD,M
Boys,99.79,6,Carter Renfro,Paris North Lamar,90.72,192.78,106.59,197.31,496.68,Single-ply,SBD,M
Boys,99.79,7,Mason Doyle,Denison,99.61,185.97,99.79,204.12,489.88,Single-ply,SBD,M
Boys,99.79,8,Chad Manard,Sulphur Springs,96.16,188.24,97.52,179.17,464.93,Single-ply,SBD,M
Boys,99.79,9,Bradley Futch,Sulphur Springs,96.98,174.63,108.86,158.76,442.25,Single-ply,SBD,M
Boys,99.79,10,Fabian Martinez,Wolfe City,92.8,185.97,111.13,136.08,433.18,Single-ply,SBD,M
Boys,99.79,11,Canyon Cooksey,Wolfe City,95.89,181.44,88.45,158.76,428.64,Single-ply,SBD,M
Boys,99.79,12,Kale Perkins,Leonard,93.89,167.83,90.72,167.83,426.38,Single-ply,SBD,M
Boys,99.79,13,Deacon Hicks,Quitman,99.61,165.56,104.33,145.15,415.04,Single-ply,SBD,M
Boys,99.79,14,Bill Watson,Leonard,92.08,161.03,74.84,161.03,396.89,Single-ply,SBD,M
Boys,99.79,15,Maverick Brown,Paris North Lamar,91.53,136.08,88.45,136.08,360.61,Single-ply,SBD,M
Boys,99.79,DQ,Ayden Price,Honey Grove,98.61,201.85,,,,Single-ply,SBD,M
Boys,99.79,DQ,Casey Breece,Honey Grove,96.8,244.94,,,,Single-ply,SBD,M
Boys,109.77,1,Drew Williams,Denison,109.68,265.35,165.56,226.8,657.71,Single-ply,SBD,M
Boys,109.77,2,Jacob McCain,Caddo Mills,108.59,272.16,151.95,229.06,653.17,Single-ply,SBD,M
Boys,109.77,3,Jacob Batson,Farmersville,108.5,249.48,131.54,244.94,625.96,Single-ply,SBD,M
Boys,109.77,4,Anthony Peak,Commerce,106.78,226.8,136.08,195.04,557.92,Single-ply,SBD,M
Boys,109.77,5,Jacob Hall,Caddo Mills,102.51,204.12,111.13,174.63,489.88,Single-ply,SBD,M
Boys,109.77,DQ,Corey Savell,Quitman,102.24,108.86,,,,Single-ply,SBD,M
Boys,109.77,DQ,Steven Jonaitis,Sulphur Springs,102.6,192.78,,,,Single-ply,SBD,M
Boys,124.74,1,Jose Conejo,Denison,113.76,272.16,149.69,226.8,648.64,Single-ply,SBD,M
Boys,124.74,2,Hunter Carter,Quinlan Ford,120.11,244.94,142.88,240.4,628.23,Single-ply,SBD,M
Boys,124.74,3,Kyle Brooks,Denison,120.2,254.01,142.88,226.8,623.69,Single-ply,SBD,M
Boys,124.74,4,Jacob Gonzales,Wills Point,118.39,249.48,136.08,235.87,621.42,Single-ply,SBD,M
Boys,124.74,5,Kamron Rogers,Leonard,119.93,272.16,138.35,208.65,619.15,Single-ply,SBD,M
Boys,124.74,6,Wes Brooks,Denison,120.2,233.6,136.08,215.46,585.13,Single-ply,SBD,M
Boys,124.74,7,Justin Blalock,Quitman,111.49,226.8,117.93,210.92,555.65,Single-ply,SBD,M
Boys,124.74,8,Michael Tittle,Caddo Mills,119.84,226.8,120.2,181.44,528.44,Single-ply,SBD,M
Boys,124.74,9,Parker Mahan,Wolfe City,113.94,215.46,104.33,176.9,496.68,Single-ply,SBD,M
Boys,124.74,10,Max Figueroa,Wolfe City,111.86,158.76,97.52,133.81,390.09,Single-ply,SBD,M
Boys,124.74,DQ,Juan Martinez,Wills Point,111.22,272.16,136.08,,,Single-ply,SBD,M
Boys,124.74,DQ,Anthony Cork,Commerce,123.83,249.48,151.95,,,Single-ply,SBD,M
Boys,124.74,DQ,Jayston Jones,Commerce,115.21,124.74,,,,Single-ply,SBD,M
Boys,124.74,DQ,Bryce Hollinshead,Paris North Lamar,114.49,124.74,,,,Single-ply,SBD,M
Boys,124.74+,1,Matt Kelly,Caddo Mills,135.08,385.55,188.24,258.55,832.34,Single-ply,SBD,M
Boys,124.74+,2,Bryce Lowrey,Leonard,125.28,240.4,158.76,199.58,598.74,Single-ply,SBD,M
Boys,124.74+,3,Cole Schwausch,Caddo Mills,137.98,231.33,145.15,201.85,578.33,Single-ply,SBD,M
Boys,124.74+,4,Gabe Sandoval,Farmersville,137.8,226.8,120.2,215.46,562.45,Single-ply,SBD,M
Boys,124.74+,5,Colby McAdams,Leonard,142.61,219.99,142.88,199.58,562.45,Single-ply,SBD,M
Boys,124.74+,6,Colton Mitchell,Denison,127.19,226.8,124.74,192.78,544.31,Single-ply,SBD,M
Boys,124.74+,7,Alfredo Olivade,Sulphur Springs,143.06,199.58,104.33,226.8,530.7,Single-ply,SBD,M
Boys,124.74+,8,Nathan Tomerlin,Wills Point,137.44,192.78,97.52,201.85,492.15,Single-ply,SBD,M
Boys,124.74+,9,Chris Mayes,Wills Point,145.97,204.12,92.99,158.76,455.86,Single-ply,SBD,M
Boys,124.74+,10,Garrett Felsberg,Paris North Lamar,133.99,185.97,104.33,142.88,433.18,Single-ply,SBD,M
Boys,124.74+,DQ,Jakeb Jonaitis,Sulphur Springs,169.46,283.5,142.88,,,Single-ply,SBD,M
Boys,124.74+,DQ,Luke Hohenburger,Paris North Lamar,127.28,192.78,92.99,,,Single-ply,SBD,M
Boys,124.74+,DQ,Elijah Matthews,Cumby,138.62,,,,,Single-ply,SBD,M
