Division,WeightClassKg,Place,Name,Team,BodyweightKg,Best3SquatKg,Best3BenchKg,Best3DeadliftKg,TotalKg,Equipment,Event,Sex
Boys,51.71,1,Trevor Greer,Woodville,49.71,149.69,77.11,136.08,362.87,Single-ply,SBD,M
Boys,51.71,2,Carter Baker,Buna,50.35,131.54,81.65,124.74,337.93,Single-ply,SBD,M
Boys,51.71,3,Aryan Bhakta,Boling,50.89,129.27,72.57,131.54,333.39,Single-ply,SBD,M
Boys,51.71,4,Rudy Becerra,Boling,50.98,127.01,70.31,127.01,324.32,Single-ply,SBD,M
Boys,51.71,5,Hunter Wilkinson,Buna,51.71,111.13,74.84,133.81,319.78,Single-ply,SBD,M
Boys,51.71,6,Andrew Dirba,East Bernard,51.35,117.93,54.43,129.27,301.64,Single-ply,SBD,M
Boys,51.71,7,Elisha Garcia,Palacios,48.63,102.06,54.43,104.33,260.82,Single-ply,SBD,M
Boys,51.71,8,Gunner Stanley,Deweyville,51.71,102.06,49.9,108.86,260.82,Single-ply,SBD,M
Boys,51.71,9,Trey Steffens,East Bernard,50.89,102.06,52.16,102.06,256.28,Single-ply,SBD,M
Boys,51.71,10,Charles Boettcher,East Bernard,47.54,90.72,43.09,113.4,247.21,Single-ply,SBD,M
Boys,51.71,11,Kole Joiner,La Marque,48.72,77.11,47.63,113.4,238.14,Single-ply,SBD,M
Boys,55.79,1,Kevin Manning,Boling,54.34,176.9,92.99,158.76,428.64,Single-ply,SBD,M
Boys,55.79,2,Tyler Greer,Woodville,54.43,158.76,86.18,156.49,401.43,Single-ply,SBD,M
Boys,55.79,3,Marco Sanchez,Hitchcock,55.7,149.69,79.38,161.03,390.09,Single-ply,SBD,M
Boys,55.79,4,Cole Brogger,Vanderbilt Industrial,55.7,140.61,72.57,151.95,365.14,Single-ply,SBD,M
Boys,55.79,5,Bryce Hazelwood,Saratoga West Hardin,54.07,142.88,86.18,133.81,362.87,Single-ply,SBD,M
Boys,55.79,6,Marc Walters,El Maton Tidehaven,55.43,127.01,58.97,158.76,344.73,Single-ply,SBD,M
Boys,55.79,7,Austin Draper,East Bernard,54.98,129.27,68.04,138.35,335.66,Single-ply,SBD,M
Boys,55.79,8,Tyrin Brito,Ganado,55.25,131.54,54.43,138.35,324.32,Single-ply,SBD,M
Boys,55.79,9,Damien Garza,Van Vleck,55.79,127.01,61.23,136.08,324.32,Single-ply,SBD,M
Boys,55.79,10,Mykal Vera,Corrigan-Camden,53.52,122.47,72.57,120.2,315.25,Single-ply,SBD,M
Boys,55.79,11,Coy Pellerin,Buna,54.43,86.18,58.97,108.86,254.01,Single-ply,SBD,M
Boys,55.79,12,Colton Spell,Buna,55.79,99.79,63.5,90.72,254.01,Single-ply,SBD,M
Boys,59.87,1,Moises Amaro,Palacios,57.52,183.7,99.79,183.7,467.2,Single-ply,SBD,M
Boys,59.87,2,Rj Morrison,El Maton Tidehaven,58.79,170.1,95.25,170.1,435.45,Single-ply,SBD,M
Boys,59.87,3,Isaac Garza,Ganado,59.87,147.42,104.33,170.1,421.84,Single-ply,SBD,M
Boys,59.87,4,Miguel Sanchez,Palacios,59.15,142.88,81.65,163.29,387.82,Single-ply,SBD,M
Boys,59.87,5,Ke'Tavion Hadnot,Newton,56.34,149.69,79.38,147.42,376.48,Single-ply,SBD,M
Boys,59.87,6,Dewayne Stevens,Buna,59.15,127.01,86.18,149.69,362.87,Single-ply,SBD,M
Boys,59.87,7,Kameron Matthews,East Bernard,58.79,136.08,79.38,142.88,358.34,Single-ply,SBD,M
Boys,59.87,8,Jastin Arbing,Boling,56.97,131.54,72.57,140.61,344.73,Single-ply,SBD,M
Boys,59.87,9,Justin Stanley,Kountze,58.69,120.2,68.04,145.15,333.39,Single-ply,SBD,M
Boys,59.87,10,Gavin Buxton,Deweyville,59.15,122.47,74.84,133.81,331.12,Single-ply,SBD,M
Boys,59.87,NS,John Burnett,Saratoga West Hardin,,,,,,Single-ply,SBD,M
Boys,59.87,DQ,Jordan Foxworth,Woodville,57.79,145.15,90.72,,,Single-ply,SBD,M
Boys,67.13,1,Emmanuel Walker,Corrigan-Camden,65.41,217.72,104.33,229.06,551.11,Single-ply,SBD,M
Boys,67.13,2,Russell Pickney,La Marque,66.59,181.44,97.52,226.8,505.76,Single-ply,SBD,M
Boys,67.13,3,Christian Kellum,Newton,65.59,149.69,92.99,208.65,451.32,Single-ply,SBD,M
Boys,67.13,4,Lane Labauve,Danbury,66.5,172.37,92.99,185.97,451.32,Single-ply,SBD,M
Boys,67.13,5,Cade Pellerin,Buna,65.32,156.49,113.4,179.17,449.06,Single-ply,SBD,M
Boys,67.13,6,Aden Thedford,Vanderbilt Industrial,66.32,158.76,92.99,181.44,433.18,Single-ply,SBD,M
Boys,67.13,7,Niklas Schatz,East Bernard,65.68,163.29,79.38,172.37,415.04,Single-ply,SBD,M
Boys,67.13,8,Tony Solano,Warren,64.32,161.03,70.31,181.44,412.77,Single-ply,SBD,M
Boys,67.13,9,Elmer Perez,El Maton Tidehaven,66.13,149.69,77.11,181.44,408.23,Single-ply,SBD,M
Boys,67.13,10,Ely Whisenant,Kountze,64.23,147.42,83.91,140.61,371.95,Single-ply,SBD,M
Boys,67.13,11,Enrique Alvarez,Hitchcock,64.41,142.88,56.7,147.42,347,Single-ply,SBD,M
Boys,67.13,DQ,Zane Wheat,Winnie East Chambers,66.22,,,,,Single-ply,SBD,M
Boys,67.13,DQ,Jayden Landry,Anahuac,65.41,158.76,,,,Single-ply,SBD,M
Boys,74.84,1,Matthew Anderson,Saratoga West Hardin,72.12,229.06,124.74,226.8,580.6,Single-ply,SBD,M
Boys,74.84,2,Jacob Galvez,El Maton Tidehaven,74.39,226.8,149.69,183.7,560.19,Single-ply,SBD,M
Boys,74.84,3,Tre Evans,Edna,72.3,197.31,129.27,217.72,544.31,Single-ply,SBD,M
Boys,74.84,4,Morgan Segovia,Palacios,74.39,213.19,122.47,195.04,530.7,Single-ply,SBD,M
Boys,74.84,5,Michael Smith,Buna,74.03,206.38,120.2,197.31,523.9,Single-ply,SBD,M
Boys,74.84,6,Stephen Morales,Hitchcock,71.94,183.7,97.52,183.7,464.93,Single-ply,SBD,M
Boys,74.84,7,Kobi Poage,Corrigan-Camden,70.67,170.1,104.33,183.7,458.13,Single-ply,SBD,M
Boys,74.84,8,Keaton McDonald,East Bernard,71.49,149.69,102.06,176.9,428.64,Single-ply,SBD,M
Boys,74.84,9,Anthony Ramirez,Anahuac,69.4,142.88,79.38,199.58,421.84,Single-ply,SBD,M
Boys,82.1,1,Ty'Rique Smith-Gants,Anahuac,81.92,233.6,133.81,238.14,605.55,Single-ply,SBD,M
Boys,82.1,2,Kristian Paulette,Newton,81.92,213.19,136.08,233.6,582.87,Single-ply,SBD,M
Boys,82.1,3,Jared Hatcher,Buna,79.11,213.19,127.01,213.19,553.38,Single-ply,SBD,M
Boys,82.1,4,Kyle Mikes,East Bernard,80.65,176.9,142.88,213.19,532.97,Single-ply,SBD,M
Boys,82.1,5,Ben Schepf,Winnie East Chambers,80.01,215.46,102.06,204.12,521.63,Single-ply,SBD,M
Boys,82.1,6,Tyler Lindley,Coldspring-Oakhurst,81.83,208.65,106.59,199.58,514.83,Single-ply,SBD,M
Boys,82.1,7,Adam Nguyen,Palacios,78.38,201.85,108.86,201.85,512.56,Single-ply,SBD,M
Boys,82.1,8,Hunter Goudeau,East Bernard,79.47,190.51,99.79,208.65,498.95,Single-ply,SBD,M
Boys,82.1,9,Micah Bumgarner,Hitchcock,75.75,181.44,117.93,190.51,489.88,Single-ply,SBD,M
Boys,82.1,10,Devon Hadnot,Warren,81.56,167.83,104.33,181.44,453.59,Single-ply,SBD,M
Boys,82.1,11,Chris Moulton,Anahuac,79.38,161.03,111.13,179.17,451.32,Single-ply,SBD,M
Boys,82.1,12,Mark Davis,Buna,80.29,176.9,115.67,158.76,451.32,Single-ply,SBD,M
Boys,82.1,13,Kaden Anderson,Kountze,80.65,158.76,113.4,163.29,435.45,Single-ply,SBD,M
Boys,82.1,DQ,Logan Hill,Anahuac,80.2,,,,,Single-ply,SBD,M
Boys,89.81,1,Alan Casper,Corrigan-Camden,83.73,233.6,111.13,238.14,582.87,Single-ply,SBD,M
Boys,89.81,2,Darren Muirhead,Coldspring-Oakhurst,89.81,226.8,129.27,215.46,571.53,Single-ply,SBD,M
Boys,89.81,3,Brad Barry,Kountze,88.36,188.24,131.54,219.99,539.77,Single-ply,SBD,M
Boys,89.81,4,Kelvon York-Norman,Hitchcock,89.09,219.99,124.74,176.9,521.63,Single-ply,SBD,M
Boys,89.81,5,Caleb Monroe,Coldspring-Oakhurst,89.81,185.97,115.67,195.04,496.68,Single-ply,SBD,M
Boys,89.81,6,Aaron Mata,Ganado,87.09,192.78,92.99,199.58,485.34,Single-ply,SBD,M
Boys,89.81,7,Isiah Hart,Winnie East Chambers,85.82,183.7,106.59,192.78,483.08,Single-ply,SBD,M
Boys,89.81,DQ,Darwin Barlow,Newton,87.14,,,,,Single-ply,SBD,M
Boys,89.81,DQ,Ben Sandoval,East Bernard,84.64,195.04,108.86,,,Single-ply,SBD,M
Boys,99.79,1,Jeff Williams,El Maton Tidehaven,95.71,260.82,192.78,260.82,714.41,Single-ply,SBD,M
Boys,99.79,2,Marcus Fabela,Buna,98.61,254.01,149.69,231.33,635.03,Single-ply,SBD,M
Boys,99.79,3,Jose Haro,Boling,92.08,195.04,133.81,240.4,569.26,Single-ply,SBD,M
Boys,99.79,4,Kade Elliott,Corrigan-Camden,90.26,199.58,104.33,204.12,508.02,Single-ply,SBD,M
Boys,99.79,5,Makoyee Franks,Newton,90.45,188.24,102.06,213.19,503.49,Single-ply,SBD,M
Boys,99.79,6,Jack Jordan,Coldspring-Oakhurst,93.53,183.7,97.52,183.7,464.93,Single-ply,SBD,M
Boys,99.79,7,Preston Price,Saratoga West Hardin,95.44,181.44,90.72,172.37,444.52,Single-ply,SBD,M
Boys,99.79,8,Shannon Tesch,Vanderbilt Industrial,92.71,167.83,99.79,165.56,433.18,Single-ply,SBD,M
Boys,99.79,9,Nino Jimenez,Saratoga West Hardin,93.8,167.83,83.91,156.49,408.23,Single-ply,SBD,M
Boys,99.79,DQ,Dalton Ashcraft,Van Vleck,96.16,217.72,,,,Single-ply,SBD,M
Boys,99.79,DQ,Riley Orn,Coldspring-Oakhurst,93.44,,,,,Single-ply,SBD,M
Boys,109.77,1,Xavian Hampton,Hitchcock,109.32,290.3,167.83,278.96,737.09,Single-ply,SBD,M
Boys,109.77,2,Evander Williams,Newton,106.23,260.82,131.54,263.08,655.44,Single-ply,SBD,M
Boys,109.77,3,Charles Tabares,Van Vleck,108.95,222.26,156.49,249.48,628.23,Single-ply,SBD,M
Boys,109.77,4,Destin Schuler,East Bernard,104.6,226.8,106.59,215.46,548.85,Single-ply,SBD,M
Boys,109.77,5,Raul Criado,Boling,103.96,204.12,147.42,195.04,546.58,Single-ply,SBD,M
Boys,109.77,6,Avante Burnham,Newton,107.86,204.12,129.27,208.65,542.04,Single-ply,SBD,M
Boys,109.77,7,Dylan Lucier,Warren,106.41,185.97,120.2,204.12,510.29,Single-ply,SBD,M
Boys,109.77,8,Trent Reyes,Boling,103.69,179.17,106.59,179.17,464.93,Single-ply,SBD,M
Boys,109.77,9,Ethan Carr,Palacios,103.69,185.97,97.52,167.83,451.32,Single-ply,SBD,M
Boys,109.77,DQ,Jerimiah Juarez,Warren,105.6,190.51,106.59,,,Single-ply,SBD,M
Boys,109.77,DQ,Vincent Rankin,Coldspring-Oakhurst,106.05,,,,,Single-ply,SBD,M
Boys,109.77,DQ,Miguel Hernandez,Ganado,109.77,,,,,Single-ply,SBD,M
Boys,124.74,1,Robert Martinez,Louise,124.19,283.5,151.95,247.21,682.66,Single-ply,SBD,M
Boys,124.74,2,Kyler Loftin,Warren,112.49,269.89,142.88,229.06,641.83,Single-ply,SBD,M
Boys,124.74,3,Jaedon Hinchliffe,Palacios,116.12,226.8,145.15,254.01,625.96,Single-ply,SBD,M
Boys,124.74,4,Jason Shane,Hull-Daisetta,124.74,256.28,156.49,204.12,616.89,Single-ply,SBD,M
Boys,124.74,5,Patrick Davis,Newton,111.13,260.82,131.54,222.26,614.62,Single-ply,SBD,M
Boys,124.74,6,Kagan Childree,Winnie East Chambers,123.74,247.21,136.08,219.99,603.28,Single-ply,SBD,M
Boys,124.74,7,Colton Williams,Saratoga West Hardin,116.57,276.69,120.2,204.12,601.01,Single-ply,SBD,M
Boys,124.74,8,Tristan Cuevas,Corrigan-Camden,120.56,204.12,120.2,170.1,494.42,Single-ply,SBD,M
Boys,124.74,9,Keagan Carillo,El Maton Tidehaven,122.92,192.78,102.06,181.44,476.27,Single-ply,SBD,M
Boys,124.74,10,Christian Shores,Danbury,118.39,161.03,122.47,172.37,455.86,Single-ply,SBD,M
Boys,124.74,DQ,Wade Walsh,Woodville,111.13,197.31,140.61,,,Single-ply,SBD,M
Boys,124.74,DQ,D'Quincy Wise,Woodville,117.57,170.1,108.86,,,Single-ply,SBD,M
Boys,124.74+,1,Andrew Platt,Buna,139.43,306.17,172.37,222.26,700.8,Single-ply,SBD,M
Boys,124.74+,2,Alex Smith,Anahuac,142.97,238.14,158.76,238.14,635.03,Single-ply,SBD,M
Boys,124.74+,3,Ryan Birchum,El Maton Tidehaven,167.01,254.01,145.15,226.8,625.96,Single-ply,SBD,M
Boys,124.74+,4,Yavin Shankle,Newton,142.79,235.87,129.27,226.8,591.94,Single-ply,SBD,M
Boys,124.74+,5,Fred Kyukendoll,Boling,166.01,226.8,127.01,204.12,557.92,Single-ply,SBD,M
Boys,124.74+,6,Mauricio Brito,Ganado,128.55,229.06,97.52,172.37,498.95,Single-ply,SBD,M
Boys,124.74+,7,JR Shauer,East Bernard,135.53,183.7,136.08,176.9,496.68,Single-ply,SBD,M
Boys,124.74+,8,DaWayne Haynes,Palacios,135.44,183.7,92.99,158.76,435.45,Single-ply,SBD,M
Boys,124.74+,DQ,Jacob Hall,Hull-Daisetta,137.94,233.6,,,,Single-ply,SBD,M
Boys,124.74+,DQ,Cade Gray,Woodville,135.53,208.65,,,,Single-ply,SBD,M
Boys,124.74+,DQ,Nathan Henson,Deweyville,132.54,226.8,,,,Single-ply,SBD,M
