Division,WeightClassKg,Place,Name,Team,BodyweightKg,Best3SquatKg,Best3BenchKg,Best3DeadliftKg,TotalKg,Equipment,Event,Sex
Boys,51.71,1,Jim Williams,Conroe The Woodlands,51.71,72.57,45.36,74.84,192.78,Single-ply,SBD,M
Boys,51.71,2,Ryan Kerr,Conroe Woodlands College Park,40.23,54.43,27.22,54.43,136.08,Single-ply,SBD,M
Boys,55.79,1,Kevin O'Neal,Conroe The Woodlands,55.2,106.59,72.57,117.93,297.1,Single-ply,SBD,M
Boys,59.87,1,J Essix,Conroe Woodlands College Park,56.56,104.33,61.23,115.67,281.23,Single-ply,SBD,M
Boys,59.87,2,John-Bradley Green,Conroe Woodlands College Park,56.52,108.86,54.43,108.86,272.16,Single-ply,SBD,M
Boys,67.13,1,Dan London,Conroe The Woodlands,65.95,131.54,88.45,154.22,374.21,Single-ply,SBD,M
Boys,67.13,2,Craig Collins,Conroe The Woodlands,66.18,133.81,81.65,142.88,358.34,Single-ply,SBD,M
Boys,67.13,3,Dillon Blackwell,Conroe Woodlands College Park,62.01,92.99,56.7,113.4,263.08,Single-ply,SBD,M
Boys,82.1,1,Collin Covington,Conroe The Woodlands,74.89,149.69,97.52,188.24,435.45,Single-ply,SBD,M
Boys,74.84,2,Matt Gray,Conroe,72.44,165.56,113.4,154.22,433.18,Single-ply,SBD,M
Boys,74.84,3,Brandon Kinney,Conroe,71.08,149.69,83.91,174.63,408.23,Single-ply,SBD,M
Boys,82.1,1,Bett Boswell,Conroe Woodlands College Park,81.1,192.78,131.54,210.92,535.24,Single-ply,SBD,M
Boys,82.1,2,Eric Martin,Conroe,77.61,149.69,92.99,190.51,433.18,Single-ply,SBD,M
Boys,82.1,3,Andrew Danheim,Conroe The Woodlands,78.61,158.76,97.52,156.49,412.77,Single-ply,SBD,M
Boys,82.1,4,Austen Reeves,Conroe The Woodlands,76.2,133.81,74.84,154.22,362.87,Single-ply,SBD,M
Boys,89.81,1,Erick Barcenas,Conroe,86.77,188.24,129.27,165.56,483.08,Single-ply,SBD,M
Boys,89.81,2,Patrick Bender,Conroe,83.51,154.22,108.86,165.56,428.64,Single-ply,SBD,M
Boys,89.81,3,Jason Paul,Conroe Woodlands College Park,83.78,149.69,90.72,163.29,403.7,Single-ply,SBD,M
Boys,89.81,4,Colin Fuchigami,Conroe The Woodlands,85.14,131.54,77.11,147.42,356.07,Single-ply,SBD,M
Boys,99.79,1,Jacob Blake,Conroe,95.07,195.04,133.81,176.9,505.76,Single-ply,SBD,M
Boys,99.79,2,Chad Campagna,Conroe,95.71,188.24,133.81,170.1,492.15,Single-ply,SBD,M
Boys,99.79,3,Patrick McCloud,Conroe The Woodlands,95.25,188.24,104.33,197.31,489.88,Single-ply,SBD,M
Boys,109.77,1,Sam Heaton,Conroe Woodlands College Park,100.06,215.46,102.06,219.99,537.51,Single-ply,SBD,M
Boys,109.77,2,Frankie Garcia,Conroe Woodlands College Park,105.91,197.31,108.86,192.78,498.95,Single-ply,SBD,M
Boys,109.77,3,Dean Scroggins,Conroe Woodlands College Park,108.5,183.7,92.99,183.7,460.4,Single-ply,SBD,M
Boys,109.77,4,Zach Roberts,Conroe Woodlands College Park,101.56,156.49,92.99,163.29,412.77,Single-ply,SBD,M
Boys,124.74,1,Josh Weingrad,Conroe Woodlands College Park,115.08,206.38,136.08,206.38,548.85,Single-ply,SBD,M
Boys,124.74,2,Dimitri Forsythe,Conroe,117.75,206.38,124.74,210.92,542.04,Single-ply,SBD,M
Boys,124.74,3,Steve Stone,Conroe,110.86,208.65,124.74,183.7,517.1,Single-ply,SBD,M
Boys,124.74,4,Grant Bonnette,Conroe The Woodlands,111.18,183.7,106.59,165.56,455.86,Single-ply,SBD,M
Boys,124.74,5,Ivan Meistchovich,Conroe Woodlands College Park,122.29,161.03,102.06,172.37,435.45,Single-ply,SBD,M
Boys,124.74,6,Josh Rogers,Conroe,119.39,158.76,113.4,158.76,430.91,Single-ply,SBD,M
Boys,124.74,7,Bradley Carley,Conroe Woodlands College Park,121.61,151.95,97.52,163.29,412.77,Single-ply,SBD,M
Boys,124.74,8,Jonathan Hall,Conroe,114.03,161.03,92.99,136.08,390.09,Single-ply,SBD,M
Boys,124.74,9,Michael DeJournett,Conroe Woodlands College Park,114.17,138.35,92.99,149.69,381.02,Single-ply,SBD,M
Boys,124.74,10,Tim Silva,Conroe The Woodlands,119.16,138.35,81.65,145.15,365.14,Single-ply,SBD,M
Boys,124.74+,1,Mark Poteat,Conroe The Woodlands,155.58,208.65,113.4,195.04,517.1,Single-ply,SBD,M
Boys,124.74+,2,Travis Bass,Conroe,136.94,185.97,117.93,192.78,496.68,Single-ply,SBD,M
