Division,WeightClassKg,Place,Name,Team,BodyweightKg,Best3SquatKg,Best3BenchKg,Best3DeadliftKg,TotalKg,Equipment,Event,Sex
Girls,44.23,1,Austyn Hance,Azle,43.27,92.99,38.56,83.91,215.46,Single-ply,SBD,F
Girls,44.23,2,Sage Thompson,Lometa,44.18,74.84,49.9,90.72,215.46,Single-ply,SBD,F
Girls,44.23,3,Katie Hollon,Early,44,72.57,34.02,90.72,197.31,Single-ply,SBD,F
Girls,44.23,4,Alexa Guadiana,Azle,42,56.7,38.56,81.65,176.9,Single-ply,SBD,F
Girls,44.23,5,Elyssia Sotelo,Stephenville,41.73,36.29,20.41,45.36,102.06,Single-ply,SBD,F
Girls,47.85,1,Tatiana Contreras,Springtown,46.08,124.74,58.97,133.81,317.51,Single-ply,SBD,F
Girls,47.85,2,Blaine Gluck,Stephenville,45.81,124.74,52.16,124.74,301.64,Single-ply,SBD,F
Girls,47.85,3,Caitlyn Coleman,Springtown,47.36,113.4,49.9,92.99,256.28,Single-ply,SBD,F
Girls,47.85,4,Britney Yannello,Springtown,46.54,92.99,40.82,113.4,247.21,Single-ply,SBD,F
Girls,47.85,5,Kiley Boatman,Azle,47.81,86.18,47.63,99.79,233.6,Single-ply,SBD,F
Girls,47.85,6,Rachel Bailey,Hawley,46.18,90.72,43.09,97.52,231.33,Single-ply,SBD,F
Girls,47.85,7,Jimena Vazquez,Dublin,46.9,77.11,49.9,99.79,226.8,Single-ply,SBD,F
Girls,47.85,8,Diandra Tejada,Stephenville,47.17,83.91,47.63,95.25,226.8,Single-ply,SBD,F
Girls,47.85,9,Libby Mosley,Jacksboro,46.9,83.91,38.56,83.91,206.38,Single-ply,SBD,F
Girls,47.85,10,Angel Green,Granbury,47.08,74.84,43.09,81.65,199.58,Single-ply,SBD,F
Girls,47.85,11,Savannah Simmerly,Lometa,45.27,77.11,38.56,74.84,190.51,Single-ply,SBD,F
Girls,47.85,12,Carsyn Knestrick,Lingleville,45.63,68.04,31.75,90.72,190.51,Single-ply,SBD,F
Girls,47.85,DQ,Alexis Gustavsen,Hico,47.72,79.38,47.63,,,Single-ply,SBD,F
Girls,51.94,1,Lauren Osborne,Springtown,51.71,106.59,65.77,108.86,281.23,Single-ply,SBD,F
Girls,51.94,2,Bailee Padilla,Azle,51.35,97.52,56.7,117.93,272.16,Single-ply,SBD,F
Girls,51.94,3,Rachel Stephens,Springtown,49.99,104.33,43.09,111.13,258.55,Single-ply,SBD,F
Girls,51.94,4,Emilee Brown,Granbury,50.44,95.25,52.16,108.86,256.28,Single-ply,SBD,F
Girls,51.94,5,Amiah Rodriguez,Stephenville,51.71,99.79,45.36,102.06,247.21,Single-ply,SBD,F
Girls,51.94,6,Areli Silva,Granbury,51.44,95.25,52.16,95.25,242.67,Single-ply,SBD,F
Girls,51.94,7,Luisa Rodriguez,Granbury,51.17,88.45,49.9,92.99,231.33,Single-ply,SBD,F
Girls,51.94,8,Channah Moore,Dublin,49.26,72.57,45.36,92.99,210.92,Single-ply,SBD,F
Girls,51.94,9,Sami Thompson,Lometa,50.08,65.77,36.29,74.84,176.9,Single-ply,SBD,F
Girls,51.94,10,Daisy Leija,Stephenville,48.99,65.77,29.48,72.57,167.83,Single-ply,SBD,F
Girls,51.94,DQ,Shayli Mitchell,Jacksboro,48.26,,,,,Single-ply,SBD,F
Girls,56.02,1,Trew Gaston,Springtown,54.88,154.22,90.72,147.42,392.36,Single-ply,SBD,F
Girls,56.02,2,Samantha Wann,Springtown,53.43,149.69,86.18,145.15,381.02,Single-ply,SBD,F
Girls,56.02,3,Myra Castro,Springtown,55.79,124.74,68.04,131.54,324.32,Single-ply,SBD,F
Girls,56.02,4,Nikayla Waller,Lometa,55.97,106.59,61.23,131.54,299.37,Single-ply,SBD,F
Girls,56.02,5,Hope Boswell,Early,55.34,106.59,56.7,117.93,281.23,Single-ply,SBD,F
Girls,56.02,6,Morgan Squires,Godley,54.52,108.86,45.36,122.47,276.69,Single-ply,SBD,F
Girls,56.02,7,Kelli Tucker,Perrin-Whitt,53.34,99.79,47.63,124.74,272.16,Single-ply,SBD,F
Girls,56.02,8,Ellington Owen,Azle,55.52,106.59,47.63,108.86,263.08,Single-ply,SBD,F
Girls,56.02,9,Emma Brown,Tolar,52.25,92.99,52.16,102.06,247.21,Single-ply,SBD,F
Girls,56.02,10,Jayde Burkett,Millsap,54.43,95.25,36.29,108.86,240.4,Single-ply,SBD,F
Girls,56.02,11,Maddie Brenner,Millsap,55.97,83.91,45.36,92.99,222.26,Single-ply,SBD,F
Girls,56.02,12,Cassidy Jensen,Granbury,54.79,77.11,40.82,86.18,204.12,Single-ply,SBD,F
Girls,56.02,13,Katie Ebeling,Stephenville,55.34,65.77,24.95,77.11,167.83,Single-ply,SBD,F
Girls,56.02,DQ,Chloe Coates,Stephenville,52.62,,,,,Single-ply,SBD,F
Girls,56.02,DQ,Cici Suniga,Sidney,55.34,,,,,Single-ply,SBD,F
Girls,60.1,1,Rachel Hellam,Springtown,59.33,149.69,79.38,136.08,365.14,Single-ply,SBD,F
Girls,60.1,2,Morgan Kent,Dublin,59.87,163.29,77.11,120.2,360.61,Single-ply,SBD,F
Girls,60.1,3,Alri Lindeque,Sidney,59.87,120.2,49.9,131.54,301.64,Single-ply,SBD,F
Girls,60.1,4,Monai Owens,Azle,59.15,117.93,61.23,120.2,299.37,Single-ply,SBD,F
Girls,60.1,5,Mikah Grisham,Hawley,59.42,113.4,77.11,106.59,297.1,Single-ply,SBD,F
Girls,60.1,6,Ariawna Burt,Stephenville,58.06,124.74,61.23,108.86,294.84,Single-ply,SBD,F
Girls,60.1,7,Jessica Leija,Stephenville,59.42,113.4,56.7,115.67,285.76,Single-ply,SBD,F
Girls,60.1,8,Bryten Ballenger,Dublin,59.42,92.99,63.5,127.01,283.5,Single-ply,SBD,F
Girls,60.1,9,Mendy Tucker,Azle,59.96,106.59,56.7,120.2,283.5,Single-ply,SBD,F
Girls,60.1,10,Chloe Cook,Azle,58.33,104.33,63.5,113.4,281.23,Single-ply,SBD,F
Girls,60.1,11,Bekah Smithson,Early,58.06,111.13,52.16,111.13,274.42,Single-ply,SBD,F
Girls,60.1,12,Sadie Clingman,Granbury,59.69,92.99,58.97,115.67,267.62,Single-ply,SBD,F
Girls,60.1,13,Tania Nava,Lingleville,57.61,97.52,49.9,97.52,244.94,Single-ply,SBD,F
Girls,60.1,14,Jordyn Dabelstein,Millsap,60.06,86.18,34.02,77.11,197.31,Single-ply,SBD,F
Girls,67.36,1,Kenzie Poindexter,Early,67.31,142.88,72.57,149.69,365.14,Single-ply,SBD,F
Girls,67.36,2,Alerah Turpin,Millsap,65.41,145.15,70.31,138.35,353.8,Single-ply,SBD,F
Girls,67.36,3,Emily Guerrero,Comanche,63.87,136.08,68.04,136.08,340.19,Single-ply,SBD,F
Girls,67.36,4,Ana Maldonado,Lingleville,67.31,142.88,61.23,136.08,340.19,Single-ply,SBD,F
Girls,67.36,5,Cierra Miller,Springtown,65.77,138.35,74.84,124.74,337.93,Single-ply,SBD,F
Girls,67.36,6,Angela Pando,Springtown,67.22,124.74,68.04,136.08,328.85,Single-ply,SBD,F
Girls,67.36,7,Madison Tamjidi,Azle,66.32,117.93,68.04,129.27,315.25,Single-ply,SBD,F
Girls,67.36,8,Erin Hall,Springtown,62.69,127.01,61.23,122.47,310.71,Single-ply,SBD,F
Girls,67.36,9,Kylee Carey,Hawley,64.05,124.74,70.31,104.33,299.37,Single-ply,SBD,F
Girls,67.36,10,Taiya Galvan,Godley,63.41,115.67,52.16,122.47,290.3,Single-ply,SBD,F
Girls,67.36,11,Jamie Allgood,Ranger,61.96,111.13,49.9,122.47,283.5,Single-ply,SBD,F
Girls,67.36,12,Aliayah Melchor,Olney,63.41,111.13,49.9,108.86,269.89,Single-ply,SBD,F
Girls,67.36,13,Alliyah Rios,Comanche,63.32,104.33,45.36,117.93,267.62,Single-ply,SBD,F
Girls,67.36,14,Brittany Proctor,Granbury,67.31,102.06,49.9,113.4,265.35,Single-ply,SBD,F
Girls,67.36,15,Taylor Cotton,Millsap,60.33,97.52,36.29,108.86,242.67,Single-ply,SBD,F
Girls,67.36,16,Angelina Burciaga,Godley,64.68,83.91,40.82,95.25,219.99,Single-ply,SBD,F
Girls,67.36,17,Sydney Stephenson,Granbury,62.6,68.04,40.82,81.65,190.51,Single-ply,SBD,F
Girls,67.36,18,Dominique Rico,Hico,66.77,,43.09,117.93,161.03,Single-ply,BD,F
Girls,67.36,DQ,Taybor Eastep,Iowa Park,62.14,117.93,,,,Single-ply,SBD,F
Girls,67.36,DQ,Victoria Fincannon,Hico,65.41,,,,,Single-ply,SBD,F
Girls,75.07,1,Madelynn Vining,Springtown,73.94,161.03,92.99,138.35,392.36,Single-ply,SBD,F
Girls,75.07,2,Hannah Phelps,Hico,72.21,140.61,79.38,133.81,353.8,Single-ply,SBD,F
Girls,75.07,3,Reyna Alcantar,Azle,72.03,140.61,70.31,133.81,344.73,Single-ply,SBD,F
Girls,75.07,4,Debra Lester,Azle,70.76,133.81,77.11,124.74,335.66,Single-ply,SBD,F
Girls,75.07,5,Brie Michelli,Azle,71.21,133.81,63.5,122.47,319.78,Single-ply,SBD,F
Girls,75.07,6,Sarah Elder,Hawley,71.94,127.01,63.5,124.74,315.25,Single-ply,SBD,F
Girls,75.07,7,Kenzie Mayes,Stephenville,73.48,122.47,68.04,115.67,306.17,Single-ply,SBD,F
Girls,75.07,8,Zaida Lopez,Lingleville,71.67,104.33,72.57,117.93,294.84,Single-ply,SBD,F
Girls,75.07,9,Lea Wagner,Godley,68.86,117.93,52.16,120.2,290.3,Single-ply,SBD,F
Girls,75.07,10,Esmeralda Alonso,Stephenville,72.57,113.4,49.9,124.74,288.03,Single-ply,SBD,F
Girls,75.07,11,Kate Thompson,Ranger,68.95,106.59,45.36,108.86,260.82,Single-ply,SBD,F
Girls,75.07,12,Shyanne Tower,Lometa,70.76,92.99,49.9,106.59,249.48,Single-ply,SBD,F
Girls,75.07,13,Taylor Williams,Stephenville,74.84,65.77,38.56,83.91,188.24,Single-ply,SBD,F
Girls,75.07,DQ,Makayla Fletcher,Hico,69.85,,,,,Single-ply,SBD,F
Girls,82.33,1,Cydney Morgan,Hico,81.47,158.76,77.11,149.69,385.55,Single-ply,SBD,F
Girls,82.33,2,Mallory Gunter,Stephenville,81.65,145.15,86.18,136.08,367.41,Single-ply,SBD,F
Girls,82.33,3,Arianna Rosati,Stephenville,80.74,111.13,70.31,138.35,319.78,Single-ply,SBD,F
Girls,82.33,4,Michaela Cary,Granbury,79.92,117.93,58.97,136.08,312.98,Single-ply,SBD,F
Girls,82.33,5,Viviana Sandoval,Granbury,79.2,113.4,52.16,120.2,285.76,Single-ply,SBD,F
Girls,82.33,6,Callie Estes,Dublin,76.38,92.99,63.5,127.01,283.5,Single-ply,SBD,F
Girls,82.33,7,Ranishia Pickett,Hico,76.75,117.93,40.82,117.93,276.69,Single-ply,SBD,F
Girls,82.33,8,Becca Burney,Millsap,79.11,111.13,49.9,113.4,274.42,Single-ply,SBD,F
Girls,82.33,9,Lacie Foster,Godley,80.29,131.54,47.63,92.99,272.16,Single-ply,SBD,F
Girls,82.33,10,Flor Moncada,Stephenville,80.74,106.59,52.16,104.33,263.08,Single-ply,SBD,F
Girls,82.33,11,Addison Stout,Dublin,82.19,92.99,54.43,113.4,260.82,Single-ply,SBD,F
Girls,82.33,12,Kaylee Kelcy,Lingleville,81.1,102.06,45.36,102.06,249.48,Single-ply,SBD,F
Girls,82.33,13,Sierra Tower,Lometa,76.75,90.72,52.16,104.33,247.21,Single-ply,SBD,F
Girls,82.33,14,Emilee Beam,Dublin,81.83,92.99,52.16,102.06,247.21,Single-ply,SBD,F
Girls,82.33,15,Caris Howell,Stephenville,76.2,92.99,38.56,83.91,215.46,Single-ply,SBD,F
Girls,82.33,16,Jaden Vandenburg,Lingleville,78.47,79.38,34.02,92.99,206.38,Single-ply,SBD,F
Girls,82.33,DQ,Shea Newton,Hawley,80.1,,,,,Single-ply,SBD,F
Girls,90.04,1,Jessica Ebeling,Stephenville,87.09,181.44,81.65,165.56,428.64,Single-ply,SBD,F
Girls,90.04,2,Terra Reed,Coleman,88.99,124.74,63.5,129.27,317.51,Single-ply,SBD,F
Girls,90.04,3,Celeste Alvarez,Dublin,88.81,122.47,56.7,122.47,301.64,Single-ply,SBD,F
Girls,90.04,4,Holly Hodges,Granbury,83.1,102.06,61.23,124.74,288.03,Single-ply,SBD,F
Girls,90.04,5,Lilli Gonzales,Jacksboro,88.09,113.4,45.36,113.4,272.16,Single-ply,SBD,F
Girls,90.04,6,Shelby Valadez,Granbury,83.1,97.52,54.43,108.86,260.82,Single-ply,SBD,F
Girls,90.04,7,Hannah Miller,Lingleville,85.55,92.99,47.63,104.33,244.94,Single-ply,SBD,F
Girls,90.04,DQ,Mari Sanchez,Hico,89.63,,,,,Single-ply,SBD,F
Girls,90.04,DQ,Jollie Mays,Stephenville,88.45,117.93,,,,Single-ply,SBD,F
Girls,100.02,1,Jazmine Kuper,Springtown,99.16,217.72,149.69,163.29,530.7,Single-ply,SBD,F
Girls,100.02,2,Carmela Guevara,Tolar,91.53,181.44,86.18,161.03,428.64,Single-ply,SBD,F
Girls,100.02,3,Hailey Hambrice,Godley,96.52,154.22,63.5,149.69,367.41,Single-ply,SBD,F
Girls,100.02,4,Aubreyanna Ziegler,Stephenville,92.99,142.88,68.04,149.69,360.61,Single-ply,SBD,F
Girls,100.02,5,Norma Hernandez,Stephenville,99.34,149.69,83.91,124.74,358.34,Single-ply,SBD,F
Girls,100.02,6,Addison DeBerry,Godley,90.99,124.74,56.7,136.08,317.51,Single-ply,SBD,F
Girls,100.02,7,Leslie Juarez,Lingleville,97.61,124.74,68.04,124.74,317.51,Single-ply,SBD,F
Girls,100.02,8,Haley Huchowski,Azle,90.36,115.67,61.23,129.27,306.17,Single-ply,SBD,F
Girls,117.71,1,Blake Jarvis,Springtown,116.39,183.7,90.72,151.95,426.38,Single-ply,SBD,F
Girls,117.71,2,Brianna Hill,Hamilton,108.14,158.76,65.77,142.88,367.41,Single-ply,SBD,F
Girls,117.71,3,Ashley Beauchamp,Coleman,102.42,129.27,61.23,136.08,326.59,Single-ply,SBD,F
Girls,117.71,4,Aubrey Kellar,Lingleville,103.24,113.4,68.04,113.4,294.84,Single-ply,SBD,F
Girls,117.71,5,Alisha Parks,Coleman,105.69,122.47,58.97,108.86,290.3,Single-ply,SBD,F
Girls,117.71,6,Daisy Garza,Coleman,100.52,108.86,54.43,115.67,278.96,Single-ply,SBD,F
Girls,117.71,7,Andrea Hinkle,Perrin-Whitt,114.4,108.86,54.43,74.84,238.14,Single-ply,SBD,F
Girls,117.71,8,Amber Jackson,Stephenville,106.59,61.23,49.9,92.99,204.12,Single-ply,SBD,F
Girls,117.71+,1,Khelsie Martinez,Azle,119.39,163.29,77.11,142.88,383.29,Single-ply,SBD,F
Girls,117.71+,2,Lorraine Herd,Hamilton,135.9,154.22,70.31,142.88,367.41,Single-ply,SBD,F
