Place,Name,State,WeightClassKg,BodyweightKg,Age,Best3SquatKg,Best3BenchKg,Best3DeadliftKg,TotalKg,Sex,Division,Equipment,Squat4Kg,Deadlift4Kg,Bench4Kg,Event
1,Stacia-Al Mahoe,HI,44,43.9,19,105.5,72.5,150.5,328.5,F,Teen 13-19,Raw,,,,SBD
1,Samyra Abweh,NM,48,47.5,17,90,77.5,135,302.5,F,Teen 13-19,Raw,,,,SBD
1,Anika Mejia,HI,48,46.4,21,107.5,42.5,130,280,F,Juniors 20-23,Raw,,,,SBD
2,Michelle Rodriguez,CA,48,45.45,20,80,57.5,117.5,255,F,Juniors 20-23,Raw,,,,SBD
1,Michelle Quizon,NV,52,51.95,20,95,60,132.5,287.5,F,Juniors 20-23,Raw,,,,SBD
2,Cynthia Mercado,CA,52,50.7,22,87.5,47.5,122.5,257.5,F,Juniors 20-23,Raw,,,,SBD
1,Criselda Fajardo,CA,56,55.7,22,157.5,75,185,417.5,F,Juniors 20-23,Raw,160,,,SBD
2,Melissa Sterling,TX,56,55.95,23,120,60,150,330,F,Juniors 20-23,Raw,,,,SBD
3,Elizabeth Quezada,NV,56,55.8,23,105,65,140,310,F,Juniors 20-23,Raw,,,,SBD
4,Rebekah Shirley,KS,56,55.5,21,115,47.5,137.5,300,F,Juniors 20-23,Raw,,,,SBD
1,Nicole Daaong,HI,60,59.8,20,122.5,72.5,152.5,347.5,F,Juniors 20-23,Raw,,,,SBD
2,Jean Liu,CA,60,60,22,110,67.5,165,342.5,F,Juniors 20-23,Raw,,,,SBD
3,Laura Bertsch,CA,60,57.4,23,127.5,67.5,142.5,337.5,F,Juniors 20-23,Raw,,,,SBD
DQ,Amber Abweh,CA,60,59.75,20,122.5,-77.5,182.5,,F,Juniors 20-23,Raw,,,,SBD
1,Tayah Basped,CA,67.5,63,15,130,57.5,170,357.5,F,Teen 13-19,Raw,,,,SBD
2,Lilyann Napitupulu,CA,67.5,61.8,19,132.5,55,145,332.5,F,Teen 13-19,Raw,,,,SBD
1,Michelle Mullenix,AZ,67.5,66.8,21,145,77.5,167.5,390,F,Juniors 20-23,Raw,,,,SBD
2,Jessy Howard,CA,67.5,67.5,20,142.5,80,167.5,390,F,Juniors 20-23,Raw,,,,SBD
3,Cel Ngo,NV,67.5,67.1,20,120,62.5,142.5,325,F,Juniors 20-23,Raw,,,,SBD
4,Rainee Khabagnote,CA,67.5,66.6,21,117.5,52.5,147.5,317.5,F,Juniors 20-23,Raw,,,,SBD
1,Meagan Deppe,NC,75,72.75,19,140,70,150,360,F,Teen 13-19,Raw,145,,,SBD
1,Brianna Harris,OK,75,73.1,23,160,85,170,415,F,Juniors 20-23,Raw,,,,SBD
2,Jessica Cubias,CA,75,74.9,21,160,70,170,400,F,Juniors 20-23,Raw,,,,SBD
3,Amanda Vogt,TX,75,69.7,23,130,65,147.5,342.5,F,Juniors 20-23,Raw,,,,SBD
1,Bradina Anae,HI,90+,171.25,15,190,125,215,530,F,Teen 13-19,Raw,,227.5,,SBD
1,Stacia-Al Mahoe,HI,44,43.9,19,105.5,72.5,150.5,328.5,F,Open,Raw,,,,SBD
1,Samyra Abweh,NM,48,47.5,17,90,77.5,135,302.5,F,Open,Raw,,,,SBD
2,Jessica Okimura,HI,48,47.55,24,110,65,127.5,302.5,F,Open,Raw,,,,SBD
3,Anika Mejia,HI,48,46.4,21,107.5,42.5,130,280,F,Open,Raw,,,,SBD
4,Michelle Rodriguez,CA,48,45.45,20,80,57.5,117.5,255,F,Open,Raw,,,,SBD
5,Gayla Channell,WV,48,47.5,55,80,50,125,255,F,Open,Raw,,,,SBD
1,Dawn Molina,FL,52,49.1,36,110,65,145,320,F,Open,Raw,,,,SBD
2,Kathyrine Tumada,CA,52,51.45,25,112.5,55,145,312.5,F,Open,Raw,,,,SBD
3,Whitley Coe,OK,52,51.5,24,107.5,62.5,127.5,297.5,F,Open,Raw,,,,SBD
4,Rachel Wood,MO,52,50.7,25,102.5,55,135,292.5,F,Open,Raw,,,,SBD
5,Sarai Dominguez,CA,52,51.9,27,105,57.5,122.5,285,F,Open,Raw,,,,SBD
6,Michelle Orgeta,CA,52,48.2,25,100,50,127.5,277.5,F,Open,Raw,,,,SBD
1,Criselda Fajardo,CA,56,55.7,22,157.5,75,185,417.5,F,Open,Raw,160,,,SBD
2,Donna Bareng,HI,56,53.9,34,122.5,80,137.5,340,F,Open,Raw,,,,SBD
3,Nicole Lamartine,WY,56,54.35,40,120.5,67.5,145,333,F,Open,Raw,,,,SBD
4,Melissa Sterling,TX,56,55.95,23,120,60,150,330,F,Open,Raw,,,,SBD
5,Lindsay Small,CA,56,55.3,30,120,67.5,137.5,325,F,Open,Raw,,,,SBD
6,Rosario Espinoza,AZ,56,52.5,30,110,65,127.5,302.5,F,Open,Raw,,,,SBD
7,Elizabeth Quezada,NV,56,55.8,23,105,65,140,310,F,Open,Raw,,,,SBD
1,Isabella Christi,CA,60,58.85,41,127.5,70,152.5,350,F,Open,Raw,,,,SBD
DQ,Amber Abweh,CA,60,59.75,20,122.5,-77.5,182.5,,F,Open,Raw,,,,SBD
1,Chuquese Huffman,CA,67.5,65.35,28,137.5,92.5,182.5,412.5,F,Open,Raw,,,,SBD
2,Salina Vega,CO,67.5,66.3,36,140,90,165,395,F,Open,Raw,,,,SBD
3,Michelle Mullenix,AZ,67.5,66.8,21,145,77.5,167.5,390,F,Open,Raw,,,,SBD
4,Jessy Howard,CA,67.5,67.5,20,142.5,80,167.5,390,F,Open,Raw,,,,SBD
5,Brenna Bulach,CA,67.5,66.65,31,132.5,72.5,175,380,F,Open,Raw,,,,SBD
6,Nicole Perez,AZ,67.5,65.8,29,130,77.5,170,377.5,F,Open,Raw,,,,SBD
7,Shawn Trevino,CA,67.5,67.3,26,127.5,72.5,160,360,F,Open,Raw,,,,SBD
8,Jean Burgland,AZ,67.5,63.8,53,127.5,77.5,145,350,F,Open,Raw,,,,SBD
9,Nicole Herbig,CA,67.5,66.3,26,127.5,62.5,145,335,F,Open,Raw,,,,SBD
DQ,Noelia Corona-Terry,TX,67.5,66.4,33,-175,102.5,175,,F,Open,Raw,,,,SBD
1,Carrie Grissinger,MO,75,74.7,37,175,95,205,475,F,Open,Raw,,,,SBD
2,Brianna Harris,OK,75,73.1,23,160,85,170,415,F,Open,Raw,,,,SBD
3,Chrissy Filla,MO,75,74.85,28,155,87.5,170,412.5,F,Open,Raw,,,,SBD
4,Jennifer Wills,CA,75,72.65,51,115,76,167.5,358.5,F,Open,Raw,,,,SBD
DQ,Marie Lemkul,CA,75,73.7,44,117.5,-72.5,165,,F,Open,Raw,,,,SBD
1,Leonetta Richardson,HI,82.5,82.2,38,172.5,132.5,222.5,527.5,F,Open,Raw,,,,SBD
2,Randi Lee,HI,82.5,81.45,29,152.5,92.5,187.5,432.5,F,Open,Raw,,,,SBD
1,Grace Tacuyan-Witt,NV,90+,106.4,38,167.5,87.5,187.5,442.5,F,Open,Raw,,,,SBD
1,Gayla Channell,WV,48,47.5,55,80,50,125,255,F,Masters 55-59,Raw,,,,SBD
1,Nicole Lamartine,WY,56,54.35,40,120.5,67.5,145,333,F,Masters 40-44,Raw,,,,SBD
1,Isabella Christi,CA,60,58.85,41,127.5,70,152.5,350,F,Masters 40-44,Raw,,,,SBD
1,Sandy Scott,CA,60,58.6,73,,45,,45,F,Masters 70-74,Raw,,,,B
1,Chai Brazil,CA,67.5,65.75,41,122.5,65,160,347.5,F,Masters 40-44,Raw,,,,SBD
1,Jean Burgland,AZ,67.5,63.8,53,127.5,77.5,145,350,F,Masters 50-54,Raw,128,,,SBD
DQ,Marie Lemkul,CA,75,73.7,44,117.5,-72.5,165,,F,Masters 40-44,Raw,,,,SBD
1,Jennifer Wills,CA,75,72.65,51,115,76,167.5,358.5,F,Masters 50-54,Raw,,170,,SBD
1,Seyonn Chin,CA,56,55,22,157.5,120,200,477.5,M,Juniors 20-23,Raw,,,,SBD
2,Alan Le,CA,56,55.7,23,147.5,90,197.5,435,M,Juniors 20-23,Raw,,,,SBD
3,Joshua Mari,CA,56,56,20,135,92.5,200,427.5,M,Juniors 20-23,Raw,,,,SBD
1,Rex Fontanoza,CA,60,59.95,23,170,110,227.5,507.5,M,Juniors 20-23,Raw,,,,SBD
1,Gerald Dionio,CA,67.5,65.7,21,222.5,156,260,638.5,M,Juniors 20-23,Raw,,,,SBD
2,Samuel Yoon,CA,67.5,67.45,22,180,115,227.5,522.5,M,Juniors 20-23,Raw,,,,SBD
1,Jonathan Tanudra,CA,75,74.8,18,192.5,122.5,237.5,552.5,M,Teen 13-19,Raw,,,,SBD
2,Emilio Evans-Grijalva,NV,75,72.35,19,157.5,110,220,487.5,M,Teen 13-19,Raw,,,,SBD
1,Garrick Dzoan,CA,75,72.7,20,217.5,115,280,612.5,M,Juniors 20-23,Raw,,290,,SBD
2,Alex Nguyen,CA,75,74.7,23,212.5,145,245,602.5,M,Juniors 20-23,Raw,,,,SBD
3,Jimmy Villanueva,CA,75,74.35,20,210,137.5,247.5,595,M,Juniors 20-23,Raw,,,,SBD
4,Joe Francisco #1,CA,75,74.65,23,207.5,125,252.5,585,M,Juniors 20-23,Raw,,,,SBD
5,Cory Faz,MO,75,74.15,23,200,132.5,232.5,565,M,Juniors 20-23,Raw,,,,SBD
6,Allan Eslao,CA,75,73,23,212.5,112.5,222.5,547.5,M,Juniors 20-23,Raw,,,,SBD
1,Ryan Tran,CA,82.5,82.5,17,227.5,130,262.5,620,M,Teen 13-19,Raw,,265,,SBD
1,Premar Namnama,HI,82.5,81.6,22,237.5,175,270,682.5,M,Juniors 20-23,Raw,,,,SBD
2,Charles Pierce,AZ,82.5,80.6,21,227.5,135,272.5,635,M,Juniors 20-23,Raw,,,,SBD
1,Matthew Mendoza,CA,90,86.7,19,237.5,140,255,632.5,M,Teen 13-19,Raw,,,,SBD
2,Zack Bartell,CA,90,89.7,19,200,170,250,620,M,Teen 13-19,Raw,,,,SBD
3,Zac Bledsoe,OK,90,86.2,19,200,120,235,555,M,Teen 13-19,Raw,,,,SBD
DQ,Kristian Campanella,NV,90,89.3,19,202.5,-142.5,255,,M,Teen 13-19,Raw,,,,SBD
1,Daniel Wade #1,MO,90,89.5,23,240,170,305,715,M,Juniors 20-23,Raw,,,,SBD
2,Brandon Belisario,WA,90,88.9,21,260,150,272.5,682.5,M,Juniors 20-23,Raw,,,,SBD
3,James Wierzba,CO,90,86.6,23,215,152.5,260,627.5,M,Juniors 20-23,Raw,,,,SBD
DQ,Brennon Peterson,UT,90,90,23,-192.5,,,,M,Juniors 20-23,Raw,,,,SBD
1,Kyle Alexander #1,CA,100,99.1,19,285,155,302.5,742.5,M,Teen 13-19,Raw,,,,SBD
DQ,Mark Zamora,TX,100,97.9,23,245,-182.5,300,,M,Juniors 20-23,Raw,,,,SBD
1,Zachary Carr,PA,110,108.8,18,277.5,167.5,265,710,M,Teen 13-19,Raw,,,,SBD
1,Roberto Villalta,Canada,110,109.4,23,250,210,285,745,M,Juniors 20-23,Raw,,,,SBD
2,Mason Merilles,CA,110,108,20,257.5,175,295,727.5,M,Juniors 20-23,Raw,,,,SBD
3,Joseph Spracklen,CA,110,109.85,21,237.5,187.5,302.5,727.5,M,Juniors 20-23,Raw,,,,SBD
4,Collin Curtiss,NV,110,109.9,22,240,187.5,272.5,700,M,Juniors 20-23,Raw,,,,SBD
5,Nadeem Hamidy,CA,110,105,20,260,160,267.5,687.5,M,Juniors 20-23,Raw,,,,SBD
6,Anthony Nocera,CA,110,108.7,21,255,150,277.5,682.5,M,Juniors 20-23,Raw,,,,SBD
1,Emmanuel Bravo,CA,140+,170.4,21,320,225,307.5,852.5,M,Juniors 20-23,Raw,,,,SBD
2,Joe Mass,CA,140+,164.75,23,305,192.5,325,822.5,M,Juniors 20-23,Raw,,,,SBD
1,Richard Navarra,HI,56,56,24,160,120,192.5,472.5,M,Open,Raw,,,,SBD
1,Gerald Dionio,CA,67.5,65.7,21,222.5,156,260,638.5,M,Open,Raw,,,,SBD
2,Jonathon Bareng,HI,67.5,66.5,32,200,157.5,250,607.5,M,Open,Raw,,,,SBD
3,Carlos Avalos,TX,67.5,66.35,24,202.5,132.5,250,585,M,Open,Raw,,,,SBD
4,John Watkins,HI,67.5,66.35,29,177.5,147.5,237.5,562.5,M,Open,Raw,,,,SBD
5,Daniel Carpenter,FL,67.5,66.7,36,192.5,122.5,242.5,557.5,M,Open,Raw,,,,SBD
6,Scott Layman,CA,67.5,64.95,45,200,140,205,545,M,Open,Raw,,,,SBD
7,Dexter Dionio,CA,67.5,66.8,28,182.5,132.5,222.5,537.5,M,Open,Raw,,,,SBD
1,Taras Chavarha,CA,75,74.9,24,230,152.5,250,632.5,M,Open,Raw,,,,SBD
2,Josh Moore,CA,75,73.9,24,207.5,165,237.5,610,M,Open,Raw,,,,SBD
3,Jimmy Villanueva,CA,75,74.35,20,210,137.5,247.5,595,M,Open,Raw,,,,SBD
4,Elias Sanchez,TX,75,74.3,26,190,120,230,540,M,Open,Raw,,,,SBD
1,Bruce Randall,NV,82.5,82.2,27,250,185,287.5,722.5,M,Open,Raw,,,,SBD
2,Carlos Daniel Llosa,Brazil,82.5,82.5,27,255,165,280,700,M,Open,Raw,,,,SBD
3,Premar Namnama,HI,82.5,81.6,22,237.5,175,270,682.5,M,Open,Raw,,,,SBD
4,Michael Horton,MO,82.5,81.7,26,252.5,155,265,672.5,M,Open,Raw,,,,SBD
5,Michael Lear,UT,82.5,82,32,240,140,292.5,672.5,M,Open,Raw,,,,SBD
DQ,Coy Schneider,TX,82.5,82.2,30,-250,,,,M,Open,Raw,,,,SBD
1,Kawika David Henderson,AZ,90,90,29,242.5,175,280,697.5,M,Open,Raw,,,,SBD
2,Sal Trejo,CA,90,88.3,27,235,147.5,300,682.5,M,Open,Raw,,,,SBD
3,Brandon Belisario,WA,90,88.9,21,260,150,272.5,682.5,M,Open,Raw,,,,SBD
4,Gilbert Lial,CA,90,89.7,25,250,165,265,680,M,Open,Raw,,,,SBD
5,Antoine Bonner,OK,90,88.8,28,237.5,145,277.5,660,M,Open,Raw,,,,SBD
6,Daniel Zhitomirsky,MO,90,88.7,24,240,150,257.5,647.5,M,Open,Raw,,,,SBD
7,John Layne,WV,90,89,43,80,175,125,380,M,Open,Raw,,,,SBD
1,Andrew Mower,UT,100,99.5,35,272.5,195,280,747.5,M,Open,Raw,,,,SBD
2,Kyle Alexander #1,CA,100,99.1,19,285,155,302.5,742.5,M,Open,Raw,,,,SBD
3,Gary Grissinger,MO,100,99.5,53,215,165,315,695,M,Open,Raw,,,,SBD
4,John King,WY,100,98.8,45,245,190,227.5,662.5,M,Open,Raw,,,,SBD
5,Jason Sadora,NV,100,91.5,29,220,157.5,280,657.5,M,Open,Raw,,,,SBD
DQ,Mark Zamora,TX,100,97.9,23,245,-182.5,300,,M,Open,Raw,,,,SBD
DQ,Daniel Ajeigbe,CA,100,98.9,29,227.5,-182.5,,,M,Open,Raw,,,,SBD
1,Chris Gordert,CA,110,107.9,25,285,190,325,800,M,Open,Raw,,,,SBD
2,Zach Streva,CO,110,105,31,280,200,295,775,M,Open,Raw,,,,SBD
3,Tony Montgomery,CA,110,107.3,29,280,200,295,775,M,Open,Raw,,,,SBD
4,Roberto Villalta,Canada,110,109.4,23,250,210,285,745,M,Open,Raw,,,,SBD
5,Jeff Luffman,HI,110,109.7,40,255,182.5,302.5,740,M,Open,Raw,,,,SBD
7,Donny Tudahl,CA,110,106.1,24,270,190,275,735,M,Open,Raw,,,,SBD
6,Mason Merilles,CA,110,108,20,257.5,175,295,727.5,M,Open,Raw,,,,SBD
DQ,Andy Rohner,CA,110,107.8,27,285,-190,,,M,Open,Raw,,,,SBD
DQ,Seth Fluharty,OH,110,108,28,-275,,,,M,Open,Raw,,,,SBD
1,Armando Carreon,TX,125,120.9,27,327.5,215,305,847.5,M,Open,Raw,,,,SBD
2,Elijah Najera,CA,125,119,25,297.5,220,305,822.5,M,Open,Raw,,,,SBD
3,John Mazza,UT,125,113.2,34,272.5,205,312.5,790,M,Open,Raw,,,,SBD
4,Rick Simmons,CA,125,124.2,37,290,200,287.5,777.5,M,Open,Raw,,,,SBD
5,Joshua Cleveland,LA,125,120.65,25,290,170,290,750,M,Open,Raw,,,,SBD
6,Chris Colon,NV,125,121.8,26,250,182.5,295,727.5,M,Open,Raw,,,,SBD
DQ,Tom Emelander,TX,125,124.5,32,125,75,-347.5,,M,Open,Raw,,,,SBD
1,Rob Hall,TX,140,133,26,322.5,245,347.5,915,M,Open,Raw,,,,SBD
2,Jeff Younker,TX,140,137.3,28,292.5,227.5,332.5,852.5,M,Open,Raw,,,,SBD
3,Tyler Ward,CA,140,139.6,26,297.5,172.5,320,790,M,Open,Raw,,,,SBD
4,Gino Catugda,CA,140,133.2,24,287.5,200,292.5,780,M,Open,Raw,,,,SBD
1,Jake Johns,CA,140+,150.3,28,372.5,252.5,372.5,997.5,M,Open,Raw,,,,SBD
2,Michael Carter,CA,140+,194.6,34,365,225,317.5,907.5,M,Open,Raw,,,,SBD
3,Emmanuel Bravo,CA,140+,170.4,21,320,225,307.5,852.5,M,Open,Raw,,,,SBD
1,Scott Layman,CA,67.5,64.95,45,200,140,205,545,M,Masters 45-49,Raw,,,,SBD
1,Tom Urani,MO,67.5,66.7,67,45,97.5,60,202.5,M,Masters 65-69,Raw,,,,SBD
1,Alan Levine,OR,82.5,80.1,66,130,107.5,187.5,425,M,Masters 65-69,Raw,,,,SBD
1,John Layne,WV,90,89,43,80,175,125,380,M,Masters 40-44,Raw,,,,SBD
1,Daniel Mahan,CA,90,89.3,49,240.5,135,260,635.5,M,Masters 45-49,Raw,,,,SBD
1,Doug Groskopf,CO,90,89.5,54,205,130,245,580,M,Masters 50-54,Raw,,,,SBD
1,Dave Beaulieu,CA,90,88.9,57,175,120,220,515,M,Masters 55-59,Raw,,,,SBD
1,Howard Myers,CA,90,89.8,70,170,102.5,250,522.5,M,Masters 70-74,Raw,,,,SBD
1,Davon Brazil,CA,100,99.5,40,247.5,190,302.5,740,M,Masters 40-44,Raw,,,,SBD
1,Chris Flores,CA,100,96.4,45,215,185,272.5,672.5,M,Masters 45-49,Raw,,,,SBD
2,John King,WY,100,98.8,45,245,190,227.5,662.5,M,Masters 45-49,Raw,,,,SBD
1,Gary Grissinger,MO,100,99.5,53,215,165,315,695,M,Masters 50-54,Raw,,,,SBD
DQ,Tony Mares,UT,100,96.9,52,-190,155,250,,M,Masters 50-54,Raw,,,,SBD
1,JP Sullivan,AZ,100,98.4,57,185,150,257.5,592.5,M,Masters 55-59,Raw,,265,,SBD
1,Tim Anderson,CA,100,93.3,61,183,140,227.5,550.5,M,Masters 60-64,Raw,185,,,SBD
2,Steve Calamars,TX,100,97.2,60,160,150,230,540,M,Masters 60-64,Raw,,,155,SBD
1,Kyle Hardy,NM,100,93.7,67,,125,,125,M,Masters 65-69,Raw,,,,B
1,Jeff Luffman,HI,110,109.7,40,255,182.5,302.5,740,M,Masters 40-44,Raw,,,,SBD
1,Gregory Cotterell,CA,110,103.3,55,182.5,147.5,250,580,M,Masters 55-59,Raw,,,,SBD
1,Fred Martinez,CA,125,122.8,50,207.5,195,295,697.5,M,Masters 50-54,Raw,,,,SBD
1,Gerry Torres,CA,125,118.4,58,210,160,232.5,602.5,M,Masters 55-59,Raw,,,,SBD
1,Kimberly Raber,SC,44,43.8,15,95,40,117.5,252.5,F,Teen 13-19,Wraps,,,,SBD
1,Megan Hayden,SC,67.5,65.8,17,110,52.5,137.5,300,F,Teen 13-19,Wraps,,,,SBD
1,Victoria Vanderbeck,SC,67.5,66.7,22,125,67.5,165,357.5,F,Juniors 20-23,Wraps,,,,SBD
1,Kimberly Kim,TX,52,51.6,25,132.5,75,142.5,350,F,Open,Wraps,,,,SBD
DQ,Sonia Rosembaum,TX,60,59.9,26,-165,,,,F,Open,Wraps,,,,SBD
1,Perla Apodaca,TX,67.5,64.45,24,150,77.5,182.5,410,F,Open,Wraps,,,,SBD
2,Crystal Schiller,TX,67.5,66.5,26,137.5,87.5,145,370,F,Open,Wraps,,,,SBD
DQ,Quincey Pearce,UT,67.5,66.2,39,-135,77.5,145,,F,Open,Wraps,,,,SBD
1,Tracy L. Jones,KY,75,68.8,35,150,65,175,390,F,Open,Wraps,,,,SBD
1,Nicki I'Anson,CA,82.5,80.7,49,187.5,60,205,452.5,F,Open,Wraps,,,,SBD
2,Sophia Hussary,AZ,82.5,81.9,38,145,80,187.5,412.5,F,Open,Wraps,,,,SBD
1,Sammi Johnson,CA,90,87.5,28,205,110,225,540,F,Open,Wraps,,,,SBD
1,Thalia Soto,CA,90+,98,15,210,85,180,475,F,Open,Wraps,,185,88,SBD
DQ,Jean Vosburg,NM,48,45.8,56,-80,-40,92.5,,F,Masters 55-59,Wraps,,,,SBD
1,Maggie Haywood,CA,60,58.1,71,65,35,87.5,187.5,F,Masters 70-74,Wraps,,,,SBD
1,Nicki I'Anson,CA,82.5,80.7,49,187.5,60,205,452.5,F,Masters 45-49,Wraps,,,,SBD
1,Chevy Shumaker,AZ,67.5,64.4,16,157.5,95,195,447.5,M,Teen 13-19,Wraps,,198,,SBD
1,Kevin Torres,CA,75,74.1,21,282.5,182.5,287.5,752.5,M,Juniors 20-23,Wraps,,,,SBD
1,Blake Bailey,UT,82.5,78.9,17,215.5,117.5,225,558,M,Teen 13-19,Wraps,,,,SBD
1,Romohree Howard,CA,90,85.9,17,255,145,282.5,682.5,M,Teen 13-19,Wraps,,,,SBD
2,Carlos Ferreyra,CA,90,89.9,19,250,160,255,665,M,Teen 13-19,Wraps,,,,SBD
3,Jordan Whitman,NV,90,87.6,19,245,157.5,250,652.5,M,Teen 13-19,Wraps,,,,SBD
4,Derek Reed,KS,90,88.5,19,230,147.5,260,637.5,M,Teen 13-19,Wraps,,,,SBD
1,Jason Britt,ID,90,83,22,297.5,160,290,747.5,M,Juniors 20-23,Wraps,,,,SBD
2,Ruben Ramirez,WA,90,89.5,21,272.5,142.5,272.5,687.5,M,Juniors 20-23,Wraps,,,,SBD
1,Alexander Williams,CA,100,99.8,22,270,177.5,287.5,735,M,Juniors 20-23,Wraps,,,,SBD
2,Gary Beerbower,CA,100,99,23,250,182.5,280,712.5,M,Juniors 20-23,Wraps,,,,SBD
3,Roche McCoy,CA,100,99.5,20,237.5,167.5,251,656,M,Juniors 20-23,Wraps,,,,SBD
1,Cole Hale,CA,110,109.2,23,260,150,280,690,M,Juniors 20-23,Wraps,,,,SBD
2,Hunter Rossman,NV,110,101.1,20,220,142.5,275,637.5,M,Juniors 20-23,Wraps,,,,SBD
1,Josiah Price,OR,56,55.4,52,137.5,105,165,407.5,M,Open,Wraps,,,,SBD
1,Jonathan Garcia,FL,60,59.7,27,220,150,217.5,587.5,M,Open,Wraps,,,,SBD
2,Jesse Lanuevo,CA,60,59.8,26,152.5,100,212.5,465,M,Open,Wraps,,,,SBD
1,Kevin Torres,CA,75,74.1,21,282.5,182.5,287.5,752.5,M,Open,Wraps,,,,SBD
2,Xavier Romero,CT,75,74,20,247.5,120,265,632.5,M,Open,Wraps,,,,SBD
1,Maliek Derstine,PA,82.5,82.2,27,340,237.5,307.5,885,M,Open,Wraps,,,,SBD
2,Lazaro Cruzata,TX,82.5,82,28,237.5,167.5,257.5,662.5,M,Open,Wraps,,,,SBD
3,Scotty Hatlevig,AZ,82.5,80.3,41,227.5,155,262.5,645,M,Open,Wraps,,,,SBD
DQ,Micah Marino,IL,82.5,80.2,25,-265,-160,330,,M,Open,Wraps,,,,SBD
1,Jason Britt,ID,90,83,22,297.5,160,290,747.5,M,Open,Wraps,,,,SBD
2,Diego Corr,CA,90,89.6,37,242.5,172.5,277.5,692.5,M,Open,Wraps,,,,SBD
3,Michael Azoy,CA,90,88.8,30,242.5,190,237.5,670,M,Open,Wraps,,,,SBD
4,Tony Rodgers,CA,90,89.9,26,227.5,175,220,622.5,M,Open,Wraps,,,,SBD
DQ,Roy Glenn,CA,90,85.3,25,-282.5,165,285,,M,Open,Wraps,,,,SBD
DQ,Joshua Wheeler,AZ,90,87.2,30,247.5,-175,277.5,,M,Open,Wraps,,,,SBD
1,Roche McCoy,CA,100,99.5,20,237.5,167.5,251,656,M,Open,Wraps,,,,SBD
DQ,Michael Armendariz,TX,100,94.7,24,317.5,175,-340,,M,Open,Wraps,,,,SBD
1,Hugo Quinteiro,Brazil,110,108.8,32,265,180,330,775,M,Open,Wraps,,,,SBD
2,Ismael Hernandez,TX,110,105.2,36,292.5,190,272.5,755,M,Open,Wraps,,,,SBD
3,Cole Hale,CA,110,109.2,23,260,150,280,690,M,Open,Wraps,,,,SBD
1,Steve Gentili,CA,125,122.15,30,300,247.5,362.5,910,M,Open,Wraps,,,,SBD
2,Justin Clifford,UT,125,122.5,29,272.5,150,320,742.5,M,Open,Wraps,,,,SBD
DQ,Nicholas Rowland,AZ,125,121.8,27,-292.5,215,327.5,,M,Open,Wraps,,,,SBD
1,Edward McKinnis,TX,140,135.5,26,365,235,355,955,M,Open,Wraps,,,,SBD
1,Josiah Price,OR,56,55.4,52,137.5,105,165,407.5,M,Masters 50-54,Wraps,,,,SBD
1,Joseph McMahan,CA,67.5,66.1,56,140,135,170,445,M,Masters 55-59,Wraps,,,,SBD
1,Scotty Hatlevig,AZ,82.5,80.3,41,227.5,155,262.5,645,M,Masters 40-44,Wraps,,,,SBD
1,Roy Taylor,CA,82.5,81.3,75,100,62.5,157.5,320,M,Masters 75-79,Wraps,,,,SBD
1,John Hare,OR,90,88.3,54,215,170,250,635,M,Masters 50-54,Wraps,,,,SBD
1,Parry Markle,ID,90,89.4,56,205,160.5,237.5,603,M,Masters 55-59,Wraps,,,,SBD
1,Victor Calia,NV,100,98.45,52,260,152.5,285,697.5,M,Masters 50-54,Wraps,,,,SBD
1,Greg Baxter,CA,100,97.75,60,240,127.5,277.5,645,M,Masters 60-64,Wraps,,,,SBD
1,Steve Rankin,CA,110,106.1,57,215,180,240,635,M,Masters 55-59,Wraps,,247.5,,SBD
1,Thomas Matlock,AZ,110,108.9,63,165,92.5,205,462.5,M,Masters 60-64,Wraps,,,,SBD
1,Edward Zimmerman,MO,125,117.4,56,262.5,160,217.5,640,M,Masters 55-59,Wraps,,,,SBD
1,Robert McCullagh,CA,125,121.3,68,187.5,125,170,482.5,M,Masters 65-69,Wraps,,,127.5,SBD
1,Amanda Lopez,TX,52,50.4,19,140,77.5,132.5,350,F,Teen 13-19,Single-ply,,,,SBD
2,Yvette Flores,TX,52,51.9,16,122.5,67.5,112.5,302.5,F,Teen 13-19,Single-ply,,,,SBD
1,Maria Martinez,TX,56,55.3,15,115,55,115,285,F,Teen 13-19,Single-ply,,,,SBD
DQ,Sydney Martinez,TX,56,52.4,17,95,-55,,,F,Teen 13-19,Single-ply,,,,SBD
1,Kristina Kanemoto,CA,56,55.6,23,137.5,72.5,147.5,357.5,F,Juniors 20-23,Single-ply,,155,,SBD
1,Noemi Olivera,TX,60,59.25,19,97.5,67.5,102.5,267.5,F,Teen 13-19,Single-ply,,,,SBD
1,Abbigail Garza,TX,67.5,65.1,18,147.5,77.5,142.5,367.5,F,Teen 13-19,Single-ply,,,,SBD
DQ,Daisy Tellez,TX,90+,169.4,16,160,-100,,,F,Teen 13-19,Single-ply,,,,SBD
1,Kristina Kanemoto,CA,56,55.6,23,137.5,72.5,147.5,357.5,F,Open,Single-ply,,155,,SBD
1,Bobbi Walden,OK,60,58.1,24,120,70,122.5,312.5,F,Open,Single-ply,,,,SBD
1,Bernice Fuss,Canada,75,70.05,58,160,140,182.5,482.5,F,Open,Single-ply,,188.5,,SBD
1,Stephanie Stephens,NV,82.5,75.55,35,170,110,172.5,452.5,F,Open,Single-ply,,,,SBD
1,Karen Parnow,CA,67.5,67.3,57,130,80,135,345,F,Masters 55-59,Single-ply,,,,SBD
1,Bernice Fuss,Canada,75,70.05,58,160,140,182.5,482.5,F,Masters 55-59,Single-ply,,188.5,,SBD
1,Betsy Spann,CA,82.5,77,58,132.5,85,147.5,365,F,Masters 55-59,Single-ply,,,,SBD
1,Rajjat Chauhan,WA,67.5,63.9,18,205,97.5,207.5,510,M,Teen 13-19,Single-ply,,,,SBD
1,Randy Cohen,FL,90,88.7,22,285,203,262.5,750.5,M,Juniors 20-23,Single-ply,,,,SBD
1,Zach Hallford,UT,100,97,19,295,192.5,237.5,725,M,Teen 13-19,Single-ply,,,,SBD
1,Shawn Buckley,CA,90,89.9,33,343,215,312.5,870.5,M,Open,Single-ply,,325.5,,SBD
2,Seth Lee,CO,90,87.3,43,292.5,215,285,792.5,M,Open,Single-ply,,,,SBD
3,Russell Clark,CA,90,89.6,54,282.5,197.5,295,775,M,Open,Single-ply,,,,SBD
4,Keith Kanemoto,CA,90,86.7,56,272.5,200,245,717.5,M,Open,Single-ply,,,,SBD
1,Rinaldo Visser,Netherlands,100,99.5,33,280,230,310,820,M,Open,Single-ply,,,,SBD
2,George Pessell,CA,100,95.9,56,272.5,200,250,722.5,M,Open,Single-ply,,,,SBD
1,Isaac Boling,AZ,110,107.3,28,337.5,237.5,287.5,862.5,M,Open,Single-ply,,,,SBD
1,Kamuela Wassman,HI,140,135.4,27,307.5,232.5,320,860,M,Open,Single-ply,,,,SBD
1,Matt Olsen,UT,140+,164.5,26,410,265,310,985,M,Open,Single-ply,,,,SBD
1,Joe Walden,KS,75,74.55,59,185,120,217.5,522.5,M,Masters 55-59,Single-ply,,,122.5,SBD
1,Mark Cucinella,CO,75,73.6,65,190,142.5,217.5,550,M,Masters 65-69,Single-ply,,,,SBD
1,Tom Miller #1,CA,75,73.3,74,110,40,167.5,317.5,M,Masters 70-74,Single-ply,,,,SBD
DQ,Arthur Fu,CA,82.5,79.3,63,-205,-155,215,,M,Masters 60-64,Single-ply,,,,SBD
1,Seth Lee,CO,90,87.3,43,292.5,215,285,792.5,M,Masters 40-44,Single-ply,,,,SBD
1,Russell Clark,CA,90,89.6,54,282.5,197.5,295,775,M,Masters 50-54,Single-ply,,,,SBD
1,Keith Kanemoto,CA,90,86.7,56,272.5,200,245,717.5,M,Masters 55-59,Single-ply,,,,SBD
1,George Pessell,CA,100,95.9,56,272.5,200,250,722.5,M,Masters 55-59,Single-ply,,,,SBD
1,Roy Eriksen,NV,100,95.9,72,192.5,147.5,200,540,M,Masters 70-74,Single-ply,,,,SBD
1,Bill Moody,CO,110,108.8,57,270,170,282.5,722.5,M,Masters 55-59,Single-ply,,,,SBD
2,Jason Julian,CO,110,108.25,55,242.5,225,227.5,695,M,Masters 55-59,Single-ply,,,,SBD
1,Ron Pagal,CA,110,101.2,69,172.5,160,182.5,515,M,Masters 65-69,Single-ply,,,,SBD
DQ,Philip DeLa Rosa,TX,125,123.2,53,245,50,-202.5,,M,Masters 50-54,Single-ply,,,,SBD
DQ,Dan Whitt,AR,125,113.6,70,-155,,,,M,Masters 70-74,Single-ply,,,,SBD
