Division,WeightClassKg,Place,Name,Team,BodyweightKg,Best3SquatKg,Best3BenchKg,Best3DeadliftKg,TotalKg,Equipment,Event,Sex
Boys,51.71,1,Joshua Estrada,Gonzales,51.71,124.74,70.31,142.88,337.93,Single-ply,SBD,M
Boys,51.71,2,Drew Haas,Hallettsville,50.71,120.2,56.7,124.74,301.64,Single-ply,SBD,M
Boys,51.71,3,Luis Rios,Geronimo Navarro,46.81,99.79,68.04,117.93,285.76,Single-ply,SBD,M
Boys,51.71,4,Dalton Couch,Gonzales,50.8,92.99,56.7,131.54,281.23,Single-ply,SBD,M
Boys,51.71,5,Tyler Howell,Gonzales,50.8,68.04,40.82,90.72,199.58,Single-ply,SBD,M
Boys,55.79,1,Mario Leos,Seguin,54.7,147.42,97.52,185.97,430.91,Single-ply,SBD,M
Boys,59.87,2,Jordan Glueck,Columbus,55.97,154.22,74.84,161.03,390.09,Single-ply,SBD,M
Boys,55.79,3,Dylan Torres,Runge,52.71,122.47,65.77,142.88,331.12,Single-ply,SBD,M
Boys,55.79,4,Corey Barnes,Runge,54.52,113.4,49.9,142.88,306.17,Single-ply,SBD,M
Boys,55.79,5,Caleb Schendel,Yorktown,55.79,113.4,65.77,120.2,299.37,Single-ply,SBD,M
Boys,55.79,6,Dillan Drabek,Schulenburg,55.16,102.06,56.7,117.93,276.69,Single-ply,SBD,M
Boys,59.87,7,Oliver Oliveras,Lockhart,55.97,120.2,61.23,,181.44,Single-ply,SB,M
Boys,67.13,1,Pedro Carreon,Geronimo Navarro,59.96,161.03,102.06,181.44,444.52,Single-ply,SBD,M
Boys,59.87,2,Daniel Zamora,Seguin,59.87,149.69,92.99,183.7,426.38,Single-ply,SBD,M
Boys,59.87,3,Chris Jackson,Lockhart,59.6,156.49,92.99,167.83,417.3,Single-ply,SBD,M
Boys,59.87,4,Gabe Casares,Gonzales,59.42,147.42,86.18,154.22,387.82,Single-ply,SBD,M
Boys,59.87,5,Tyler Houghton,Caldwell,56.61,129.27,79.38,120.2,328.85,Single-ply,SBD,M
Boys,59.87,6,Jesus Lara,Columbus,59.15,115.67,70.31,133.81,319.78,Single-ply,SBD,M
Boys,59.87,DQ,Willie Ihlenfeldt,Caldwell,56.79,147.42,,,,Single-ply,SBD,M
Boys,74.84,1,Kaleb Walker,Columbus,67.31,215.46,131.54,215.46,562.45,Single-ply,SBD,M
Boys,67.13,2,Chase Dolezal,Hallettsville,61.23,188.24,97.52,192.78,478.54,Single-ply,SBD,M
Boys,67.13,3,Alejandro Hernandez,Gonzales,66.68,158.76,95.25,181.44,435.45,Single-ply,SBD,M
Boys,67.13,4,Chris Ruff,Geronimo Navarro,66.04,147.42,92.99,156.49,396.89,Single-ply,SBD,M
Boys,67.13,5,Mark Cansino,Hallettsville,66.41,133.81,70.31,142.88,347,Single-ply,SBD,M
Boys,67.13,6,Justin Vasquez,Runge,66.86,113.4,68.04,149.69,331.12,Single-ply,SBD,M
Boys,67.13,NS,Justin Reeves,Hallettsville,,,,,,Single-ply,SBD,M
Boys,74.84,1,Jordan Benford,Columbus,73.48,181.44,120.2,195.04,496.68,Single-ply,SBD,M
Boys,74.84,2,Zach Lopez,Gonzales,74.39,185.97,102.06,183.7,471.74,Single-ply,SBD,M
Boys,74.84,3,Tyler Cardenas,Schulenburg,74.53,167.83,115.67,170.1,453.59,Single-ply,SBD,M
Boys,74.84,4,DJ Gonzales,Gonzales,72.12,172.37,77.11,172.37,421.84,Single-ply,SBD,M
Boys,74.84,5,Cohl Stremmel,Yorktown,73.94,165.56,106.59,147.42,419.57,Single-ply,SBD,M
Boys,74.84,6,Dalton Manning,Schulenburg,69.58,156.49,108.86,147.42,412.77,Single-ply,SBD,M
Boys,74.84,7,Lane Strieber,Yorktown,74.84,165.56,81.65,165.56,412.77,Single-ply,SBD,M
Boys,74.84,8,Jacob Rodriguez,Geronimo Navarro,70.49,149.69,92.99,167.83,410.5,Single-ply,SBD,M
Boys,74.84,9,Eddie Gonzales,Gonzales,74.39,170.1,79.38,158.76,408.23,Single-ply,SBD,M
Boys,74.84,10,Jay Leal,Geronimo Navarro,69.76,149.69,79.38,176.9,405.97,Single-ply,SBD,M
Boys,74.84,11,Cody Williams,Caldwell,74.66,140.61,92.99,147.42,381.02,Single-ply,SBD,M
Boys,74.84,12,Dyllan Kerr,Hallettsville,72.94,149.69,86.18,142.88,378.75,Single-ply,SBD,M
Boys,74.84,13,Jonathan Fore,Columbus,71.3,136.08,86.18,154.22,376.48,Single-ply,SBD,M
Boys,74.84,DQ,David Wetterman,Caldwell,70.94,120.2,,,,Single-ply,SBD,M
Boys,74.84,DQ,Tyler Skelton,Hallettsville,67.95,133.81,,,,Single-ply,SBD,M
Boys,74.84,DQ,Daniel Rivera,Gonzales,72.57,195.04,,,,Single-ply,SBD,M
Boys,82.1,1,Hunter Noack,Gonzales,80.74,206.38,106.59,226.8,539.77,Single-ply,SBD,M
Boys,82.1,2,Tanner Heffner,Schulenburg,79.65,185.97,117.93,190.51,494.42,Single-ply,SBD,M
Boys,82.1,3,Adrian Molina,Gonzales,81.19,170.1,111.13,181.44,462.66,Single-ply,SBD,M
Boys,82.1,4,Sean Hancock,Geronimo Navarro,76.02,154.22,127.01,161.03,442.25,Single-ply,SBD,M
Boys,82.1,5,Ty Winkler,Schulenburg,79.2,167.83,90.72,170.1,428.64,Single-ply,SBD,M
Boys,82.1,6,Larry Jones,Gonzales,80.74,170.1,90.72,158.76,419.57,Single-ply,SBD,M
Boys,82.1,DQ,Andy Madrigal,Runge,76.11,120.2,83.91,,,Single-ply,SBD,M
Boys,89.81,1,Landon Lock,Gonzales,86.18,249.48,136.08,249.48,635.03,Single-ply,SBD,M
Boys,89.81,2,Korry Huddleston,Yorktown,88.45,238.14,136.08,192.78,566.99,Single-ply,SBD,M
Boys,89.81,3,Derek Franke,Yorktown,84.82,188.24,111.13,199.58,498.95,Single-ply,SBD,M
Boys,89.81,4,Kolby Kahlden,Caldwell,89.27,188.24,111.13,192.78,492.15,Single-ply,SBD,M
Boys,89.81,5,Tyler Morgan,Gonzales,86.64,158.76,97.52,170.1,426.38,Single-ply,SBD,M
Boys,89.81,6,Evan Cantrell,Schulenburg,83.28,158.76,77.11,172.37,408.23,Single-ply,SBD,M
Boys,89.81,7,Kyle Leopold,Hallettsville,89.09,149.69,72.57,181.44,403.7,Single-ply,SBD,M
Boys,89.81,8,Tyler Sedlacek,Columbus,88.63,138.35,104.33,136.08,378.75,Single-ply,SBD,M
Boys,89.81,9,Austin Isaac,Geronimo Navarro,85.37,140.61,79.38,145.15,365.14,Single-ply,SBD,M
Boys,89.81,10,Harold Rios,Runge,85.09,133.81,70.31,158.76,362.87,Single-ply,SBD,M
Boys,89.81,DQ,Nestor Solis,Gonzales,83.91,97.52,79.38,136.08,,Single-ply,SBD,M
Boys,89.81,DQ,Ross Bludau,Schulenburg,86.18,106.59,70.31,129.27,,Single-ply,SBD,M
Boys,89.81,DQ,David Hayward,Columbus,87.82,,,,,Single-ply,SBD,M
Boys,89.81,DQ,Gene Wisniewski,Caldwell,85.46,199.58,,,,Single-ply,SBD,M
Boys,89.81,DQ,Tyler Fowler,Caldwell,82.55,151.95,,,,Single-ply,SBD,M
Boys,89.81,DQ,Breandon Wavra,Columbus,87.27,167.83,,,,Single-ply,SBD,M
Boys,89.81,DQ,Eddie Lopez,Hallettsville,88.18,149.69,,,,Single-ply,SBD,M
Boys,99.79,1,Chris Carpenter,Seguin,93.53,215.46,133.81,197.31,546.58,Single-ply,SBD,M
Boys,99.79,2,Juan Nunez,Caldwell,96.8,210.92,136.08,183.7,530.7,Single-ply,SBD,M
Boys,99.79,3,Kyle Bludau,Schulenburg,99.61,161.03,99.79,206.38,467.2,Single-ply,SBD,M
Boys,99.79,4,Jonathon Lara,Schulenburg,91.26,165.56,117.93,181.44,464.93,Single-ply,SBD,M
Boys,99.79,5,Jessie Ramirez,Gonzales,97.52,154.22,95.25,181.44,430.91,Single-ply,SBD,M
Boys,99.79,6,JT Miller,Gonzales,90.26,142.88,83.91,183.7,410.5,Single-ply,SBD,M
Boys,109.77,1,Tristan Wendt,Schulenburg,108.59,204.12,131.54,188.24,523.9,Single-ply,SBD,M
Boys,109.77,2,Carlos Martinez,Schulenburg,103.06,190.51,111.13,195.04,496.68,Single-ply,SBD,M
Boys,109.77,3,Lupe Cabrera,Gonzales,108.86,181.44,127.01,181.44,489.88,Single-ply,SBD,M
Boys,109.77,4,Cesar Juarez,Geronimo Navarro,104.96,188.24,104.33,195.04,487.61,Single-ply,SBD,M
Boys,124.74,5,Justin Levedan,Columbus,109.95,170.1,102.06,167.83,439.98,Single-ply,SBD,M
Boys,109.77,DQ,Zach Perez-Clack,Gonzales,109.77,142.88,108.86,142.88,,Single-ply,SBD,M
Boys,124.74,1,Zach Kelly,Caldwell,116.39,233.6,161.03,226.8,621.42,Single-ply,SBD,M
Boys,124.74,2,Ray Sedwick,Lockhart,115.48,226.8,113.4,210.92,551.11,Single-ply,SBD,M
Boys,124.74,3,Roman Esparza,Geronimo Navarro,110.95,215.46,108.86,204.12,528.44,Single-ply,SBD,M
Boys,124.74,4,Brian Dolezal,Gonzales,113.4,181.44,113.4,167.83,462.66,Single-ply,SBD,M
Boys,124.74,5,Matthew Gomez,Gonzales,115.67,149.69,104.33,181.44,435.45,Single-ply,SBD,M
Boys,124.74,6,Dalton Nowotny,Gonzales,113.85,158.76,90.72,156.49,405.97,Single-ply,SBD,M
Boys,124.74,DQ,Levi Snider,Gonzales,121.11,158.76,90.72,170.1,,Single-ply,SBD,M
Boys,124.74,DQ,Zach Tesch,Columbus,119.39,217.72,145.15,,,Single-ply,SBD,M
Boys,124.74,DQ,Corbin Hinojosa,Schulenburg,112.31,142.88,,,,Single-ply,SBD,M
Boys,124.74+,1,Josh Kapchinski,Bryan Rudder,158.76,249.48,158.76,192.78,601.01,Single-ply,SBD,M
Boys,124.74+,2,Andrew Contreras,Lockhart,127.1,235.87,127.01,201.85,564.72,Single-ply,SBD,M
Boys,124.74+,3,Cody Jurek,Gonzales,131.54,195.04,129.27,217.72,542.04,Single-ply,SBD,M
Boys,124.74+,4,Richard Thiele,Gonzales,138.35,192.78,102.06,158.76,453.59,Single-ply,SBD,M
Boys,124.74+,DQ,Tyler Filla,Gonzales,138.35,,,,,Single-ply,SBD,M
Boys,124.74+,DQ,Rhyne Lehman,Lockhart,131.31,210.92,,,,Single-ply,SBD,M
