Division,WeightClassKg,Place,Name,Team,BodyweightKg,Best3SquatKg,Best3BenchKg,Best3DeadliftKg,TotalKg,Equipment,Event,Sex
Boys,51.71,1,Justin Booth,Newton,43.09,49.9,36.29,95.25,181.44,Single-ply,SBD,M
Boys,55.79,1,Peyton Samuel,Jasper,54.43,97.52,56.7,97.52,251.74,Single-ply,SBD,M
Boys,59.87,1,Nathan Trevino,Buna,58.97,133.81,63.5,142.88,340.19,Single-ply,SBD,M
Boys,59.87,2,Jacob Fowler,Newton,59.87,108.86,70.31,136.08,315.25,Single-ply,SBD,M
Boys,59.87,3,Cade Pellerin,Buna,58.51,97.52,68.04,140.61,306.17,Single-ply,SBD,M
Boys,59.87,4,Anthony Gray,Kirbyville,58.06,92.99,58.97,124.74,276.69,Single-ply,SBD,M
Boys,67.13,1,Jerkerion Simmons,Jasper,67.13,170.1,97.52,188.24,455.86,Single-ply,SBD,M
Boys,67.13,2,Michael Smith,Buna,66.22,165.56,97.52,167.83,430.91,Single-ply,SBD,M
Boys,74.84,1,Darwin Barlow,Newton,74.84,170.1,102.06,183.7,455.86,Single-ply,SBD,M
Boys,74.84,2,Scott Bartlett,Kirbyville,74.39,120.2,79.38,142.88,342.46,Single-ply,SBD,M
Boys,74.84,3,Elijah Mays,Jasper,72.57,115.67,70.31,147.42,333.39,Single-ply,SBD,M
Boys,82.1,1,Ethan Shaeffer,Buna,81.19,195.04,92.99,195.04,483.08,Single-ply,SBD,M
Boys,82.1,2,Camden McClain,Jasper,81.65,136.08,120.2,188.24,444.52,Single-ply,SBD,M
Boys,82.1,3,Juvenile Lee,Jasper,76.2,138.35,111.13,183.7,433.18,Single-ply,SBD,M
Boys,82.1,4,Isiah Toussaint,Newton,81.65,167.83,92.99,172.37,433.18,Single-ply,SBD,M
Boys,82.1,5,James Castille,Jasper,77.11,158.76,88.45,183.7,430.91,Single-ply,SBD,M
Boys,82.1,6,Justin Odom,Kirbyville,76.2,158.76,97.52,163.29,419.57,Single-ply,SBD,M
Boys,82.1,7,Justin Vaughn,Buna,77.56,140.61,97.52,151.95,390.09,Single-ply,SBD,M
Boys,89.81,1,Cameron Stewart,Newton,85.28,154.22,88.45,183.7,426.38,Single-ply,SBD,M
Boys,89.81,2,Chris Conner,Newton,87.09,149.69,92.99,183.7,426.38,Single-ply,SBD,M
Boys,89.81,3,Glenn Bingham,Buna,86.64,151.95,102.06,151.95,405.97,Single-ply,SBD,M
Boys,89.81,4,Tyson Dominy,Kirbyville,83.91,122.47,70.31,149.69,342.46,Single-ply,SBD,M
Boys,99.79,1,Robert Wood,Newton,95.71,229.06,124.74,199.58,553.38,Single-ply,SBD,M
Boys,99.79,2,Antwaine Hunter,Newton,93.89,195.04,124.74,217.72,537.51,Single-ply,SBD,M
Boys,99.79,3,Tajhwan Denson,Newton,92.08,192.78,97.52,229.06,519.36,Single-ply,SBD,M
Boys,99.79,4,Matthew Gardner,Kirbyville,96.16,158.76,86.18,192.78,437.72,Single-ply,SBD,M
Boys,99.79,5,Sean Gates,Kirbyville,99.79,145.15,83.91,170.1,399.16,Single-ply,SBD,M
Boys,109.77,1,Trajan Williams,Jasper,107.95,192.78,111.13,210.92,514.83,Single-ply,SBD,M
Boys,109.77,2,James Dersch,Buna,100.7,167.83,99.79,183.7,451.32,Single-ply,SBD,M
Boys,109.77,3,Jace Lowe,Hemphill,102.51,151.95,97.52,161.03,410.5,Single-ply,SBD,M
Boys,109.77,DQ,Reese McCraw,Hemphill,108.86,133.81,,,,Single-ply,SBD,M
Boys,124.74,1,Janathaen Ezidore,Newton,119.29,231.33,136.08,235.87,603.28,Single-ply,SBD,M
Boys,124.74,2,Matt Powers,Jasper,124.28,167.83,108.86,170.1,446.79,Single-ply,SBD,M
Boys,124.74+,1,Caleb Smith,Newton,136.98,213.19,104.33,195.04,512.56,Single-ply,SBD,M
Boys,124.74+,2,Ryan Logan,Jasper,146.96,181.44,106.59,192.78,480.81,Single-ply,SBD,M
Boys,124.74+,3,Kaleb Barnett,Jasper,133.36,154.22,83.91,183.7,421.84,Single-ply,SBD,M
Junior Varsity,59.87,1,Matthew Caswell,Newton,58.06,92.99,56.7,142.88,292.57,Single-ply,SBD,M
Junior Varsity,67.13,1,Kristian Paulette,Newton,63.96,136.08,83.91,154.22,374.21,Single-ply,SBD,M
Junior Varsity,74.84,1,Colt Head,Jasper,74.84,95.25,61.23,124.74,281.23,Single-ply,SBD,M
Junior Varsity,82.1,1,Jadrian McGraw,Newton,79.38,124.74,83.91,154.22,362.87,Single-ply,SBD,M
Junior Varsity,89.81,1,Hunter McGraw,Jasper,85.73,106.59,63.5,117.93,288.03,Single-ply,SBD,M
Junior Varsity,99.79,1,William Steel,Newton,96.62,161.03,99.79,204.12,464.93,Single-ply,SBD,M
Junior Varsity,99.79,2,Mark Gaona,Newton,96.16,161.03,92.99,136.08,390.09,Single-ply,SBD,M
Junior Varsity,99.79,3,Colt Burnett,Newton,98.43,122.47,56.7,129.27,308.44,Single-ply,SBD,M
Junior Varsity,109.77,1,Jonah Hammaker,Newton,108.41,140.61,97.52,138.35,376.48,Single-ply,SBD,M
Junior Varsity,109.77,2,Patrick Davis,Newton,100.24,142.88,83.91,138.35,365.14,Single-ply,SBD,M
Junior Varsity,124.74,1,Jarrod Herrington,Newton,118.84,142.88,104.33,124.74,371.95,Single-ply,SBD,M
Junior Varsity,124.74+,1,Yavin Shankle,Newton,133.81,181.44,104.33,149.69,435.45,Single-ply,SBD,M
