Division,WeightClassKg,Place,Name,Team,BodyweightKg,Best3SquatKg,Best3BenchKg,Best3DeadliftKg,TotalKg,Equipment,Event,Sex
Boys,51.71,1,Dominique Moreland,Mansfield Summit,50.8,124.74,77.11,127.01,328.85,Single-ply,SBD,M
Boys,51.71,2,Michael Dixon,Mansfield,47.63,113.4,70.31,122.47,306.17,Single-ply,SBD,M
Boys,51.71,3,Mohammed Ali,Mansfield Timberview,45.36,70.31,49.9,99.79,219.99,Single-ply,SBD,M
Boys,51.71,4,Brennan Morrell,Mansfield Legacy,47.63,72.57,52.16,83.91,208.65,Single-ply,SBD,M
Boys,51.71,5,Jacob Benevides,Mansfield Summit,48.53,49.9,38.56,74.84,163.29,Single-ply,SBD,M
Boys,55.79,1,Albert Acheampong,Mansfield Summit,54.88,124.74,77.11,122.47,324.32,Single-ply,SBD,M
Boys,55.79,2,Kevin Henry,Mansfield,53.52,102.06,68.04,120.2,290.3,Single-ply,SBD,M
Boys,59.87,1,Trevon Jones,Mansfield Summit,58.51,108.86,77.11,115.67,301.64,Single-ply,SBD,M
Boys,59.87,2,Caleb Waugh,Mansfield Legacy,56.7,102.06,68.04,127.01,297.1,Single-ply,SBD,M
Boys,59.87,DQ,Brandon Green,Mansfield Timberview,58.06,74.84,,,,Single-ply,SBD,M
Boys,67.13,1,Donovan Ellis,Mansfield Summit,64.86,149.69,92.99,161.03,403.7,Single-ply,SBD,M
Boys,67.13,2,Jake Cook,Mansfield,61.23,147.42,97.52,151.95,396.89,Single-ply,SBD,M
Boys,67.13,3,Matt Jones,Mansfield,67.13,124.74,99.79,142.88,367.41,Single-ply,SBD,M
Boys,67.13,4,London Williams,Mansfield Summit,63.96,136.08,72.57,145.15,353.8,Single-ply,SBD,M
Boys,67.13,5,Dorian Sims,Mansfield Legacy,63.05,122.47,86.18,122.47,331.12,Single-ply,SBD,M
Boys,67.13,6,Conner Walworth,Mansfield Legacy,67.13,124.74,74.84,120.2,319.78,Single-ply,SBD,M
Boys,67.13,7,Diyon Smith,Mansfield Summit,62.6,102.06,79.38,127.01,308.44,Single-ply,SBD,M
Boys,67.13,8,Aaron Richardson,Mansfield Legacy,62.6,97.52,79.38,108.86,285.76,Single-ply,SBD,M
Boys,67.13,9,Anthony Smith,Mansfield Timberview,65.32,81.65,70.31,99.79,251.74,Single-ply,SBD,M
Boys,67.13,DQ,Jordan Walker,Mansfield Timberview,62.14,,,,,Single-ply,SBD,M
Boys,74.84,1,Jaylon Singleton,Mansfield Summit,73.03,158.76,99.79,167.83,426.38,Single-ply,SBD,M
Boys,74.84,2,Calvin Burns,Mansfield Summit,69.85,147.42,108.86,167.83,424.11,Single-ply,SBD,M
Boys,74.84,3,Jt Ibe,Mansfield,69.4,142.88,72.57,151.95,367.41,Single-ply,SBD,M
Boys,74.84,4,Matthew O'Brian,Mansfield Timberview,72.12,131.54,83.91,147.42,362.87,Single-ply,SBD,M
Boys,74.84,5,Tyler Wawrzynski,Mansfield Legacy,71.21,138.35,77.11,136.08,351.53,Single-ply,SBD,M
Boys,74.84,6,Richard Akinwale,Mansfield,72.57,145.15,95.25,104.33,344.73,Single-ply,SBD,M
Boys,74.84,7,Adam Escamilla,Mansfield Summit,73.94,122.47,72.57,142.88,337.93,Single-ply,SBD,M
Boys,74.84,8,Tracy Walker,Mansfield Timberview,68.95,111.13,74.84,133.81,319.78,Single-ply,SBD,M
Boys,74.84,9,Justin Cates,Mansfield Legacy,69.4,108.86,68.04,142.88,319.78,Single-ply,SBD,M
Boys,74.84,10,Davis Nguyen,Mansfield Timberview,70.76,122.47,65.77,122.47,310.71,Single-ply,SBD,M
Boys,74.84,11,Michael Roland,Mansfield Timberview,68.95,90.72,61.23,127.01,278.96,Single-ply,SBD,M
Boys,74.84,12,Dario Garcia,Mansfield Timberview,71.21,81.65,68.04,113.4,263.08,Single-ply,SBD,M
Boys,82.1,1,Tremayne Green,Mansfield,79.38,183.7,131.54,183.7,498.95,Single-ply,SBD,M
Boys,82.1,2,Brendan Lavergne,Mansfield Summit,78.93,176.9,111.13,208.65,496.68,Single-ply,SBD,M
Boys,82.1,3,Matthew Nieman,Mansfield Legacy,77.56,183.7,106.59,181.44,471.74,Single-ply,SBD,M
Boys,82.1,4,Marcus Lattimore,Mansfield Legacy,76.66,154.22,124.74,170.1,449.06,Single-ply,SBD,M
Boys,82.1,5,Zach Worthington,Mansfield Legacy,79.38,156.49,108.86,151.95,417.3,Single-ply,SBD,M
Boys,82.1,6,Dylan Eaker,Mansfield Legacy,77.56,124.74,111.13,156.49,392.36,Single-ply,SBD,M
Boys,82.1,7,Dayton Boling,Mansfield Summit,80.29,124.74,88.45,136.08,349.27,Single-ply,SBD,M
Boys,82.1,8,Blake Shipman,Mansfield,79.83,122.47,104.33,108.86,335.66,Single-ply,SBD,M
Boys,82.1,9,Eddie Killingsworth,Mansfield Legacy,75.75,124.74,79.38,124.74,328.85,Single-ply,SBD,M
Boys,82.1,DQ,Antonio Santoyo,Mansfield Timberview,78.02,79.38,,,,Single-ply,SBD,M
Boys,89.81,1,Marc Blades,Mansfield Summit,89.81,181.44,124.74,190.51,496.68,Single-ply,SBD,M
Boys,89.81,2,Michael Adefolarin,Mansfield Timberview,85.73,172.37,108.86,183.7,464.93,Single-ply,SBD,M
Boys,89.81,3,Derrick Ndede,Mansfield Legacy,87.09,174.63,117.93,170.1,462.66,Single-ply,SBD,M
Boys,89.81,4,Nick Jim-Lawson,Mansfield Timberview,88,142.88,97.52,185.97,426.38,Single-ply,SBD,M
Boys,89.81,5,Ugonna NWarie,Mansfield Timberview,88.45,138.35,77.11,183.7,399.16,Single-ply,SBD,M
Boys,89.81,6,Alex Garcia,Mansfield Legacy,88.45,138.35,90.72,142.88,371.95,Single-ply,SBD,M
Boys,89.81,7,Samuel Amaka,Mansfield Timberview,87.09,156.49,74.84,136.08,367.41,Single-ply,SBD,M
Boys,89.81,8,Antonio Settle,Mansfield Timberview,87.09,106.59,106.59,136.08,349.27,Single-ply,SBD,M
Boys,89.81,9,Josh Ehambe,Mansfield Summit,89.81,120.2,81.65,142.88,344.73,Single-ply,SBD,M
Boys,89.81,10,Dakota Franklin,Mansfield Legacy,84.82,113.4,83.91,129.27,326.59,Single-ply,SBD,M
Boys,99.79,1,Kentrell Joyner,Mansfield,96.62,217.72,138.35,226.8,582.87,Single-ply,SBD,M
Boys,99.79,2,Andrew Loos,Mansfield Summit,99.34,199.58,131.54,197.31,528.44,Single-ply,SBD,M
Boys,99.79,3,Dub Ingram,Mansfield Legacy,95.25,190.51,136.08,172.37,498.95,Single-ply,SBD,M
Boys,99.79,4,Chris Meno,Mansfield Legacy,97.98,188.24,106.59,185.97,480.81,Single-ply,SBD,M
Boys,99.79,5,Cortez Harris,Mansfield Summit,99.79,158.76,117.93,197.31,474,Single-ply,SBD,M
Boys,99.79,6,Chris McCoy,Mansfield Timberview,96.62,165.56,102.06,170.1,437.72,Single-ply,SBD,M
Boys,99.79,7,Matthew Donovan,Mansfield Legacy,96.62,174.63,88.45,136.08,399.16,Single-ply,SBD,M
Boys,99.79,8,Dylan Holovach,Mansfield,90.72,124.74,88.45,165.56,378.75,Single-ply,SBD,M
Boys,99.79,9,Malcolm Thompson,Mansfield,98.88,117.93,102.06,136.08,356.07,Single-ply,SBD,M
Boys,99.79,DQ,Oscar Ricardson,Mansfield Timberview,98.88,,,,,Single-ply,SBD,M
Boys,99.79,DQ,Alex Bowman,Mansfield Timberview,91.17,,,,,Single-ply,SBD,M
Boys,109.77,1,Hunter Graham,Mansfield,107.5,215.46,158.76,179.17,553.38,Single-ply,SBD,M
Boys,109.77,2,Malcolm Carpenter,Mansfield Summit,109.32,201.85,124.74,192.78,519.36,Single-ply,SBD,M
Boys,109.77,3,Rene Lawson,Mansfield Timberview,106.59,185.97,124.74,204.12,514.83,Single-ply,SBD,M
Boys,109.77,4,Jordan Mathews,Mansfield Summit,100.7,158.76,97.52,181.44,437.72,Single-ply,SBD,M
Boys,109.77,5,Dereck Herenda,Mansfield Timberview,108.41,176.9,92.99,163.29,433.18,Single-ply,SBD,M
Boys,109.77,6,Tyler Norman,Mansfield,100.7,120.2,90.72,120.2,331.12,Single-ply,SBD,M
Boys,124.74,1,Jeremy Miller,Mansfield Timberview,123.83,240.4,136.08,192.78,569.26,Single-ply,SBD,M
Boys,124.74,2,Chad Whitener,Mansfield,112.04,183.7,142.88,163.29,489.88,Single-ply,SBD,M
Boys,124.74,3,Zac Pincomb,Mansfield,117.93,188.24,122.47,167.83,478.54,Single-ply,SBD,M
Boys,124.74,4,David Hunter,Mansfield Summit,118.39,181.44,113.4,172.37,467.2,Single-ply,SBD,M
Boys,124.74,5,Armani Smith,Mansfield Timberview,115.21,192.78,117.93,151.95,462.66,Single-ply,SBD,M
Boys,124.74,6,Brandon Hernandez,Mansfield Summit,112.94,138.35,88.45,149.69,376.48,Single-ply,SBD,M
Boys,124.74,7,Austin Davis,Mansfield,112.49,111.13,97.52,142.88,351.53,Single-ply,SBD,M
Boys,124.74,8,Isaac Creamer,Mansfield,115.67,127.01,88.45,120.2,335.66,Single-ply,SBD,M
Boys,124.74,9,Colt Casner,Mansfield Timberview,111.13,83.91,65.77,113.4,263.08,Single-ply,SBD,M
Boys,124.74,DQ,Donoven Wheaton,Mansfield Summit,117.93,,,,,Single-ply,SBD,M
Boys,124.74+,1,Marcel McDowell,Mansfield Legacy,136.98,251.74,147.42,204.12,603.28,Single-ply,SBD,M
Boys,124.74+,2,Jimmy Miller,Mansfield Summit,180.53,226.8,142.88,210.92,580.6,Single-ply,SBD,M
Boys,124.74+,3,Kenneth Martinez,Mansfield Legacy,126.55,142.88,79.38,136.08,358.34,Single-ply,SBD,M
Boys,,NS,Isaiah Taylor,Mansfield Summit,,,,,,Single-ply,SBD,M
