Place,Sex,Name,Event,Division,WeightClassKg,Equipment,State,BodyweightKg,Squat1Kg,Squat2Kg,Squat3Kg,Best3SquatKg,Bench1Kg,Bench2Kg,Bench3Kg,Best3BenchKg,Deadlift1Kg,Deadlift2Kg,Deadlift3Kg,Best3DeadliftKg,TotalKg,BirthYear
1,M,Shawn O'Rourke,B,MR-Jr,83,Raw,CT,79.8,,,,,145,-152.5,152.5,152.5,,,,,152.5,1996
1,M,Shawn O'Rourke,B,MR-O,83,Raw,CT,79.8,,,,,145,-152.5,152.5,152.5,,,,,152.5,1996
1,M,Matt Baxendale,SBD,MR-Jr,66,Raw,CT,63.4,115,125,127.5,127.5,-82.5,-82.5,82.5,82.5,140,152.5,-160,152.5,362.5,1995
1,M,Hiral Patel,SBD,MR-Jr,74,Raw,CT,73.2,167.5,175,-185,175,117.5,122.5,-125,122.5,185,200,-215,200,497.5,1996
1,M,Justin Pinto,SBD,MR-Jr,83,Raw,CT,81.4,185,197.5,205,205,135,-140,-140,135,207.5,227.5,237.5,237.5,577.5,1996
2,M,Michael Granato,SBD,MR-Jr,83,Raw,CT,82.6,155,,,155,120,125,-127.5,125,215,227.5,235,235,515,1994
3,M,Andres Allen,SBD,MR-Jr,83,Raw,CT,78.4,150,160,-165,160,-120,120,125,125,215,-222.5,-222.5,215,500,1995
4,M,Eric Gance,SBD,MR-Jr,83,Raw,CT,77.2,165,177.5,-182.5,177.5,95,100,-107.5,100,180,195,202.5,202.5,480,1995
1,M,Jaydee Medina,SBD,MR-Jr,93,Raw,NY,88.2,185,190,,190,130,-137.5,137.5,137.5,230,242.5,-250,242.5,570,1996
2,M,Huy Nguyen,SBD,MR-Jr,93,Raw,CT,87.4,142.5,152.5,157.5,157.5,102.5,-115,115,115,172.5,185,190,190,462.5,1993
3,M,Nicholas Pappas,SBD,MR-Jr,93,Raw,NH,91.2,137.5,160,-170,160,132.5,140,-142.5,140,140,-150,152.5,152.5,452.5,1996
1,M,Tyler Kennedy,SBD,MR-Jr,105,Raw,CT,99,127.5,137.5,147.5,147.5,95,105,112.5,112.5,175,190,-205,190,450,1993
1,M,Jeffrey Kane,SBD,MR-M1,93,Raw,CT,92,165,182.5,192.5,192.5,125,135,-145,135,205,227.5,,227.5,555,1968
1,M,Matt Baxendale,SBD,MR-O,66,Raw,CT,63.4,115,125,127.5,127.5,-82.5,-82.5,82.5,82.5,140,152.5,-160,152.5,362.5,1995
1,M,Jonathan Wolff,SBD,MR-O,74,Raw,CT,73.8,180,190,197.5,197.5,130,140,145,145,210,222.5,232.5,232.5,575,1991
2,M,Hiral Patel,SBD,MR-O,74,Raw,CT,73.2,167.5,175,-185,175,117.5,122.5,-125,122.5,185,200,-215,200,497.5,1996
3,M,Dawson Merrill,SBD,MR-O,74,Raw,NH,73.4,112.5,132.5,150,150,90,97.5,-107.5,97.5,147.5,-172.5,-172.5,147.5,395,1996
1,M,Brian Casale,SBD,MR-O,83,Raw,CT,78.5,190,202.5,210,210,147.5,160,-167.5,160,225,-237.5,237.5,237.5,607.5,1991
2,M,Justin Pinto,SBD,MR-O,83,Raw,CT,81.4,185,197.5,205,205,135,-140,-140,135,207.5,227.5,237.5,237.5,577.5,1996
3,M,John Lembo,SBD,MR-O,83,Raw,CT,81.4,160,172.5,182.5,182.5,112.5,-125,-125,112.5,207.5,227.5,-242.5,227.5,522.5,1993
4,M,Michael Granato,SBD,MR-O,83,Raw,CT,82.6,155,,,155,120,125,-127.5,125,215,227.5,235,235,515,1994
5,M,Andres Allen,SBD,MR-O,83,Raw,CT,78.4,150,160,-165,160,-120,120,125,125,215,-222.5,-222.5,215,500,1995
6,M,Eric Gance,SBD,MR-O,83,Raw,CT,77.2,165,177.5,-182.5,177.5,95,100,-107.5,100,180,195,202.5,202.5,480,1995
1,M,Stephen Peszynski,SBD,MR-O,93,Raw,MA,87.2,255,270,275,275,140,-145,,140,265,282.5,292.5,292.5,707.5,1991
2,M,Steven Cios,SBD,MR-O,93,Raw,CT,88,215,230,242.5,242.5,130,145,155,155,240,265,-275,265,662.5,1988
3,M,Antonio LaRosa,SBD,MR-O,93,Raw,CT,91.6,225,237.5,,237.5,145,-150,-150,145,220,-235,-235,220,602.5,
4,M,Matthew Smith #8,SBD,MR-O,93,Raw,PA,92.6,177.5,195,-207.5,195,117.5,-127.5,130,130,250,272.5,,272.5,597.5,1985
5,M,Jaydee Medina,SBD,MR-O,93,Raw,NY,88.2,185,190,,190,130,-137.5,137.5,137.5,230,242.5,-250,242.5,570,1996
6,M,Jeffrey Kane,SBD,MR-O,93,Raw,CT,92,165,182.5,192.5,192.5,125,135,-145,135,205,227.5,,227.5,555,1968
7,M,Kristopher Novack,SBD,MR-O,93,Raw,CT,92.2,155,177.5,187.5,187.5,130,142.5,147.5,147.5,190,197.5,-210,197.5,532.5,
8,M,Salem Alomar,SBD,MR-O,93,Raw,PA,92.4,-175,187.5,-197.5,187.5,82.5,92.5,-102.5,92.5,175,185,195,195,475,1989
9,M,Huy Nguyen,SBD,MR-O,93,Raw,CT,87.4,142.5,152.5,157.5,157.5,102.5,-115,115,115,172.5,185,190,190,462.5,1993
10,M,Nicholas Pappas,SBD,MR-O,93,Raw,NH,91.2,137.5,160,-170,160,132.5,140,-142.5,140,140,-150,152.5,152.5,452.5,1996
1,M,Sam Telhiard,SBD,MR-O,105,Raw,CT,103.6,220,237.5,250,250,165,177.5,,177.5,257.5,280,295,295,722.5,1992
2,M,Raphael Santiago,SBD,MR-O,105,Raw,CT,103.4,190,207.5,-220,207.5,132.5,145,150,150,265,285,-302.5,285,642.5,1987
3,M,Nick Del Giudice,SBD,MR-O,105,Raw,CT,103.8,195,215,225,225,127.5,137.5,-145,137.5,237.5,260,267.5,267.5,630,1990
4,M,Kevin Ganthier,SBD,MR-O,105,Raw,CT,103,182.5,195,205,205,120,-127.5,-127.5,120,202.5,210,220,220,545,
5,M,Tyler Kennedy,SBD,MR-O,105,Raw,CT,99,127.5,137.5,147.5,147.5,95,105,112.5,112.5,175,190,-205,190,450,1993
1,M,Brendan Stote,SBD,MR-O,120+,Raw,CT,141.4,295,320,-330,320,197.5,-220,220,220,-252.5,290,-307.5,290,830,1986
1,M,Dawson Merrill,SBD,MR-T3,74,Raw,NH,73.4,112.5,132.5,150,150,90,97.5,-107.5,97.5,147.5,-172.5,-172.5,147.5,395,1996
1,F,Tyla Potvin,SBD,FR-Jr,72,Raw,CT,64.2,-95,105,-112.5,105,-50,50,-60,50,112.5,125,140,140,295,1994
2,F,Sara Burris,SBD,FR-Jr,72,Raw,CT,70.2,65,75,85,85,57.5,62.5,65,65,115,122.5,130,130,280,1992
3,F,Kaitlin Bastin,SBD,FR-Jr,72,Raw,CT,70.2,75,80,85,85,50,52.5,55,55,102.5,112.5,117.5,117.5,257.5,1993
1,F,Emily Peterson,SBD,FR-O,57,Raw,CT,55.4,97.5,105,110,110,60,-65,-65,60,115,125,132.5,132.5,302.5,1986
2,F,Kiara Pereira,SBD,FR-O,57,Raw,CT,57,92.5,100,-107.5,100,55,60,62.5,62.5,100,110,115,115,277.5,1998
1,F,Maria Capuano,SBD,FR-O,72,Raw,RI,70,130,137.5,142.5,142.5,70,-75,-75,70,140,145,155,155,367.5,1992
2,F,Joelle Reyes,SBD,FR-O,72,Raw,CT,71.2,115,125,127.5,127.5,52.5,57.5,-60,57.5,140,152.5,155,155,340,1993
3,F,Tyla Potvin,SBD,FR-O,72,Raw,CT,64.2,-95,105,-112.5,105,-50,50,-60,50,112.5,125,140,140,295,1994
4,F,Sara Burris,SBD,FR-O,72,Raw,CT,70.2,65,75,85,85,57.5,62.5,65,65,115,122.5,130,130,280,1992
5,F,Kaitlin Bastin,SBD,FR-O,72,Raw,CT,70.2,75,80,85,85,50,52.5,55,55,102.5,112.5,117.5,117.5,257.5,1993
1,F,Patience Miller,SBD,FR-O,84,Raw,CT,82.8,85,92.5,97.5,97.5,60,-65,65,65,125,135,-142.5,135,297.5,1997
1,F,Samantha SoNogueira,SBD,FR-O,84+,Raw,CT,108.8,130,140,-150,140,67.5,72.5,75,75,-110,120,125,125,340,
2,F,Kelly Gustaffson,SBD,FR-O,84+,Raw,CT,101,-72.5,72.5,77.5,77.5,-50,50,-55,50,120,130,137.5,137.5,265,1977
1,F,Kiara Pereira,SBD,FR-T3,57,Raw,CT,57,92.5,100,-107.5,100,55,60,62.5,62.5,100,110,115,115,277.5,1998
1,F,Patience Miller,SBD,FR-T3,84,Raw,CT,82.8,85,92.5,97.5,97.5,60,-65,65,65,125,135,-142.5,135,297.5,1997
1,M,Ken Nixon,BD,MR-O,120+,Raw,CT,132.2,,,,,137.5,142.5,150,150,-140,140,-180,140,290,1983
