Name,Age,Sex,Equipment,Division,Event,BodyweightKg,WeightClassKg,Squat1Kg,Squat2Kg,Squat3Kg,Squat4Kg,Best3SquatKg,Bench1Kg,Bench2Kg,Bench3Kg,Bench4Kg,Best3BenchKg,Deadlift1Kg,Deadlift2Kg,Deadlift3Kg,Deadlift4Kg,Best3DeadliftKg,TotalKg,Country,Place,BirthDate
Adam Downing,30,M,Raw,M_OR,B,106,110,,,,,,-212.5,-212.5,-217.5,,,,,,,,,USA,DQ,
Adam Foster,36,M,Wraps,M_OR_WPC,SBD,120.8,125,227.5,235,242.5,,242.5,172.5,-177.5,177.5,,177.5,235,255,262.5,,262.5,682.5,Canada,6,
Adam Hurst,25,M,Wraps,M_OR_WPC,SBD,92.2,100,-205,212.5,222.5,,222.5,162.5,-180,-180,,162.5,265,272.5,-280,,272.5,657.5,USA,6,
Aissa Galang,36,F,Wraps,F_OR_WPC,SBD,89.6,90,130,137.5,150,,150,87.5,95,-97.5,,95,155,162.5,-182.5,,162.5,407.5,USA,3,
Aissa Galang,36,F,Raw,F_OR_WPC,D,90,90,,,,,,,,,,,162.5,172.5,180,,180,180,USA,1,
Alastair MacNicol,27,M,Raw,M_OR_WPC,D,98,100,,,,,,,,,,,295,320,330,,330,330,Canada,1,
Alberto Suarez,58,M,Single-ply,M_MES_4_WPC,B,119.2,125,,,,,,237.5,250,-270,,250,,,,,,250,USA,1,
Alberto Suarez,58,M,Single-ply,M_OES_WPC,B,119.2,125,,,,,,237.5,250,-270,,250,,,,,,250,USA,2,
Alejandro Casallas,27,M,Single-ply,M_OES_WPC,SBD,96.8,100,-300,-300,300,,300,190,205,-210,,205,250,-270,-280,,250,755,Colombia,5,
Alejandro Ruiz,15,M,Single-ply,M_TES_1_WPC,SBD,107.4,110,177.5,182.5,187.5,,187.5,135,137.5,142.5,145,142.5,212.5,217.5,222.5,227.5,222.5,552.5,USA,1,
Aleksander Burlakov,55,M,Wraps,M_MR_4_WPC,SBD,128.6,140,215,230,240,,240,190,200,-210,,200,235,245,255,,255,695,Russia,1,
Aleksandr Kovalevskii,51,M,Raw,M_MR_3,B,140.6,140+,,,,,,210,220,230,235,230,,,,,,230,Russia,1,
Aleksei Kuchma,35,M,Single-ply,M_OES_WPC,SBD,115.4,125,-330,330,-370,,330,230,240,250,,250,280,300,320,,320,900,Russia,3,
Aleksei Ventsov,33,M,Multi-ply,M_OEM_WPC,B,119.6,125,,,,,,-250,250,-270,,250,,,,,,250,Russia,6,
Aleksei Ventsov,33,M,Raw,M_OR_WPC,D,119.6,125,,,,,,,,,,,320,340,-350,,340,340,Russia,2,
Aleksey Neklyudov,50,M,Multi-ply,M_MEM_3_WPC,B,108.2,110,,,,,,-280,-280,-280,,,,,,,,,Russia,DQ,
Aleksey Neklyudov,50,M,Raw,M_MR_3,B,108.2,110,,,,,,200,-210,-210,,200,,,,,,200,Russia,2,
Aleksi Hiissa,20,M,Wraps,M_JR_WPC,SBD,82.4,82.5,160,170,-180,,170,100,105,-107.5,,105,190,200,,,200,475,Finland,4,
Alex Mims,42,M,Multi-ply,M_MEM_1_WPC,SBD,138.4,140,300,-320,332.5,,332.5,-242.5,242.5,-250,,242.5,200,215,230,,230,805,USA,1,
Alex Ortiz,44,M,Multi-ply,M_MEM_1_WPC,SBD,88.8,90,297.5,315,330,,330,242.5,-250,-250,,242.5,235,252.5,-262.5,,252.5,825,USA,1,
Alex Ortiz,44,M,Multi-ply,M_MEM_1_WPC,B,88.5,90,,,,,,230,237.5,-253,,237.5,,,,,,237.5,USA,1,
Alexandr Kokovin,39,M,Multi-ply,M_OEM_WPC,B,104.8,110,,,,,,-230,240,-260,,240,,,,,,240,Ukraine,3,
Alexandr Slunský,30,M,Raw,M_OR,B,146.6,140+,,,,,,220,-230,-230,,220,,,,,,220,Czechia,3,
Alexey Bazhenev,37,M,Raw,M_OR_WPC,D,96,100,,,,,,,,,,,280,295,302.5,,302.5,302.5,Russia,2,
Alexey Bazhenov,37,M,Wraps,M_OR_WPC,SBD,89.2,90,245,255,-260,,255,-185,190,-195,,190,280,-300,-300,,280,725,Russia,2,
Alexis Gronowski,18,F,Wraps,F_OR_WPC,SBD,45.4,48,60,65,72.5,,72.5,45,-52.5,52.5,,52.5,92.5,-107.5,-107.5,,92.5,217.5,USA,1,
Alexis Ortiz,16,F,Single-ply,F_TES_2_WPC,SBD,75,75,165,-175,175,,175,77.5,-85,85,-92.5,85,125,132.5,137.5,,137.5,397.5,USA,1,
Ali Ashraf,15,M,Wraps,M_TR_1_WPC,SBD,78.8,82.5,150,-165,-165,,150,80,-97.5,-97.5,,80,170,-195,195,196,195,425,UK,1,
Alla Pugovkina,38,F,Single-ply,F_OES_WPC,B,82.4,82.5,,,,,,127.5,132.5,-135,,132.5,,,,,,132.5,Russia,1,
Alla Pugovkina,38,F,Wraps,F_OR_WPC,SBD,84.8,90,125,130,135,,135,102.5,107.5,110,,110,165,175,180,,180,425,Russia,2,
Alyssa Klein,41,F,Multi-ply,F_MEM_1_WPC,SBD,66.4,67.5,165,180,-192.5,,180,102.5,-115,-117.5,,102.5,-152.5,152.5,162.5,,162.5,445,USA,1,
Amanda Lee,14,F,Wraps,F_TR_1_WPC,SBD,61.2,67.5,57.5,62.5,67.5,70,67.5,32.5,37.5,-40,,37.5,85,90,95,97.5,95,200,USA,1,
Monique Amy Newton,22,F,Raw,F_JR_WPC,D,55.8,56,,,,,,,,,,,127.5,-140,-145,,127.5,127.5,UK,1,
Anatoli Shnaider,57,M,Wraps,M_MR_4_WPC,SBD,73.2,75,137.5,145,150,,150,107.5,112.5,-116,,112.5,177.5,187.5,,,187.5,450,Israel,1,
Anatolii Bochkovskyi,60,M,Raw,M_MR_5_WPC,B,66.6,67.5,,,,,,85,-105,,,85,,,,,,85,Ukraine,2,
Anatolii Evgrafov,54,M,Wraps,M_MR_3_WPC,SBD,116.4,125,210,225,235,,235,175,185,190,,190,245,255,265,,265,690,Russia,1,
Anatoly Nefëdov,51,M,Multi-ply,M_MEM_3_WPC,B,67,67.5,,,,,,130,140,150,,150,,,,,,150,Russia,1,
András Gadó,27,M,Multi-ply,M_OEM_WPC,SBD,97.4,100,-310,310,-320,,310,195,205,212.5,,212.5,260,270,-277.5,,270,792.5,Hungary,7,
Andre Rei,21,M,Wraps,M_JR_WPC,SBD,59.4,60,130,140,145,147.5,145,95,-105,-105,,95,170,180,-185,,180,420,Portugal,1,
Andre Rei,21,M,Raw,M_JR_WPC,D,66.2,67.5,,,,,,,,,,,175,185,-187.5,,185,185,Portugal,1,
Andreev Stoyan,36,M,Raw,M_OR_WPC,D,113.8,125,,,,,,,,,,,370,380,-400,,380,380,Bulgaria,1,
Andrei Miasnikov,49,M,Wraps,M_MR_2_WPC,SBD,116.4,125,240,250,255,,255,170,-180,180,,180,200,,,,200,635,Russia,1,
Andrei Miasnikov,49,M,Raw,M_MR_2,B,115.2,125,,,,,,170,-177.5,180,,180,,,,,,180,Russia,2,
Andrew Jeleniewski,47,M,Raw,M_MR_2,B,118.2,125,,,,,,192.5,205,-215,,205,,,,,,205,USA,1,
Andrew Willard,35,M,Multi-ply,M_OEM_WPC,SBD,109.4,110,-352.5,-352.5,-352.5,,,,,,,,,,,,,,USA,DQ,
Andrey Kim,28,M,Wraps,M_OR_WPC,SBD,62,67.5,170,180,190,,190,140,150,155,,155,210,230,-240,,230,575,Kazakhstan,1,
Andrey Kim,28,M,Raw,M_OR_WPC,B,62.2,67.5,,,,,,140,152.5,-157.5,,152.5,,,,,,152.5,Kazakhstan,2,
Andrey Kim,28,M,Raw,M_OR_WPC,D,62.2,67.5,,,,,,,,,,,200,215,225,,225,225,Kazakhstan,1,
Andrey Nevezhin,36,M,Wraps,M_OR_WPC,SBD,85.8,90,245,-255,-255,,245,165,170,177.5,,177.5,-280,280,-287.5,,280,702.5,Kazakhstan,3,
Andrey Nevezhin,36,M,Raw,M_OR_WPC,D,85.2,90,,,,,,,,,,,270,275,-280,,275,275,Kazakhstan,1,
Andrius Šeperis,26,M,Single-ply,M_OES_WPC,B,100,100,,,,,,-130,-130,170,,170,,,,,,170,Lithuania,2,
Andriy Galkevich,43,M,Wraps,M_MR_1_WPC,SBD,88,90,230,240,252.5,-257.5,252.5,160,167.5,175,,175,230,240,250,,250,677.5,Russia,1,
Andy Ellis,50,M,Wraps,M_MR_3_WPC,SBD,79.6,82.5,165,177.5,,,177.5,125,-135,135,-148,135,200,220,,,220,532.5,USA,1,
Anna McCloskey,21,F,Wraps,F_JR_WPC,SBD,82.2,82.5,150,167.5,-175,,167.5,85,92.5,95,,95,202.5,211,220,,220,482.5,USA,1,
Anna McCloskey,21,F,Raw,F_JR_WPC,D,82,82.5,,,,,,,,,,,210,-227.5,-227.5,,210,210,USA,1,
Anna McCloskey,21,F,Raw,F_OR_WPC,D,82,82.5,,,,,,,,,,,210,-227.5,-227.5,,210,210,USA,1,
Anna McCloskey,21,F,Multi-ply,F_OEM_WPC,SBD,81.6,82.5,262.5,275,282.5,,282.5,140,150,-155,,150,210,-220,220,227.5,220,652.5,USA,1,
Ano Turtiainen,47,M,Multi-ply,M_OEM_WPC,D,140,140,,,,,,,,,,,,,,,,,Finland,DQ,1967-08-25
Anthony Chirico,44,M,Multi-ply,M_MEM_1_WPC,SBD,120.6,125,387.5,405,422.5,,422.5,255,-275,-282.5,,255,300,320,-330,,320,997.5,USA,1,
Anthony Giddings,42,M,Multi-ply,M_MEM_1_WPC,SBD,107.6,110,-330,330,-365,,330,220,230,-245,,230,280,300,-315,,300,860,UK,1,
Anthony Petrino,55,M,Multi-ply,M_MEM_4_WPC,SBD,154.8,140+,-377.5,377.5,410,,410,-305,305,340,,340,250,275,-295,,275,1025,USA,1,
Anthony Petrino,55,M,Multi-ply,M_MEM_4_WPC,B,153.8,140+,,,,,,-305,,,,,,,,,,,USA,DQ,
Anthony Suarez,20,M,Single-ply,M_JES_WPC,SBD,89,90,202.5,220,-227.5,,220,137.5,150,157.5,,157.5,220,237.5,247.5,,247.5,625,USA,1,
Anthony Zawalij,33,M,Wraps,M_OR_WPC,SBD,72.8,75,160,170,-175,,170,105,110,-117.5,,110,220,-225,,,220,500,UK,4,
Anthony Zawalij,33,M,Raw,M_OR_WPC,D,76.2,82.5,,,,,,,,,,,200,210,230,-235,230,230,UK,4,
Anton Begalko,28,M,Multi-ply,M_OEM_WPC,B,115.4,125,,,,,,-350,360,-370,,360,,,,,,360,Russia,2,
Aron Holliday,32,M,Wraps,M_OR_WPC,SBD,66.2,67.5,-150,150,160,,160,130,135,137.5,,137.5,200,212.5,217.5,,217.5,515,UK,3,
Artem Kobanov,22,M,Wraps,M_JR_WPC,SBD,110,110,285,297.5,,,297.5,215,225,230,-232.5,230,-310,310,-325,,310,837.5,Russia,1,
Artem Pantiukhin,13,M,Raw,M_TR_1_WPC,B,48.6,52,,,,,,45,50,-57.5,,50,,,,,,50,Russia,1,
Artem Sergeyev,19,M,Wraps,M_TR_3_WPC,SBD,94.4,100,-210,210,222.5,,222.5,145,-155,-155,,145,240,255,262.5,,262.5,630,Kazakhstan,1,
Arthur Little,59,M,Raw,M_MR_4_WPC,D,70.2,75,,,,,,,,,,,227.5,-242.5,-242.5,,227.5,227.5,USA,1,
Arthur Little,59,M,Raw,M_OR_WPC,D,70.2,75,,,,,,,,,,,227.5,-242.5,-242.5,,227.5,227.5,USA,3,
Artyom Sergeyev,19,M,Raw,M_TR_3_WPC,D,94,100,,,,,,,,,,,240,260,-270,,260,260,Kazakhstan,1,
Atis Zembahs,26,M,Single-ply,M_OES_WPC,SBD,114.8,125,340,-355,,,340,240,250,-260,,250,300,320,-340,,320,910,Latvia,2,
Attila Gembiczki,28,M,Raw,M_OR,B,86.2,90,,,,,,185,195,200,,200,,,,,,200,Hungary,3,
Austin Sellers,20,M,Single-ply,M_JES_WPC,B,99.6,100,,,,,,-272.5,-272.5,-272.5,,,,,,,,,USA,DQ,
Avery Zehr,16,M,Wraps,M_TR_2_WPC,SBD,82.2,82.5,120,132.5,-140,,132.5,80,-87.5,-87.5,,80,165,175,-182.5,,175,387.5,Canada,1,
Balazs Hajdv,17,M,Raw,M_TR_2_WPC,B,82,82.5,,,,,,155,162.5,-170,,162.5,,,,,,162.5,Hungary,1,
Balázs Kerekes,15,M,Wraps,M_TR_1_WPC,SBD,78.2,82.5,105,115,122.5,,122.5,75,80.5,82.5,,82.5,180,190.5,195,,195,400,Hungary,2,
Balázs Kerekes,15,M,Raw,M_TR_1_WPC,D,78,82.5,,,,,,,,,,,180,190,,,190,190,Hungary,1,
Bama Hibbing,46,M,Multi-ply,M_MEM_2_WPC,SBD,89,90,295,-342.5,-342.5,,295,165,185,-195,,185,230,250,-262.5,,250,730,USA,1,
Barry Leon,74,M,Raw,M_MR_7,B,98,100,,,,,,-137.5,137.5,142.5,,142.5,,,,,,142.5,USA,1,
Barry Leon,74,M,Raw,M_MR_7_WPC,D,97.6,100,,,,,,,,,,,185,205,-215,,205,205,USA,1,
Bataa Batsengel,44,M,Raw,M_MR_1,B,93.6,100,,,,,,145,157.5,-167.5,,157.5,,,,,,157.5,Mongolia,3,
Battsengel Bataa,44,M,Single-ply,M_MES_1_WPC,B,94,100,,,,,,-220,,,,,,,,,,,Mongolia,DQ,
Bayran Aliyev,29,M,Multi-ply,M_OEM_WPC,B,82,82.5,,,,,,200,215,-225,,215,,,,,,215,Azerbaijan,4,
Begalko Anton,28,M,Single-ply,M_OES_WPC,B,114.2,125,,,,,,315,325,335,,335,,,,,,335,Russia,1,
Berlin Malka,25,F,Raw,F_OR_WPC,D,,,,,,,,,,,,,,,,,,,USA,DQ,
Bernie Ferro,60,M,Multi-ply,M_MEM_5_WPC,SBD,95.6,100,230,250,272.5,,272.5,147.5,155,165,,165,227.5,242.5,-250,,242.5,680,USA,1,
Bill Busby,63,M,Raw,M_MR_5_WPC,B,81.2,82.5,,,,,,122.5,-135,-135,,122.5,,,,,,122.5,USA,2,
Bill Taylor,46,M,Single-ply,M_MES_2_WPC,B,132.2,140,,,,,,-277.5,-277.5,277.5,,277.5,,,,,,277.5,USA,1,
Bill Welch,53,M,Multi-ply,M_MEM_3_WPC,B,139,140,,,,,,125,-325,-335,,125,,,,,,125,USA,1,
Billy Davenport,71,M,Multi-ply,M_MEM_7_WPC,D,97.2,100,,,,,,,,,,,200,-215,-215,,200,200,USA,1,
Billy Jackson,28,M,Raw,M_OR_WPC,D,82.4,82.5,,,,,,,,,,,185,197.5,-212.5,,197.5,197.5,USA,5,
Bob Bassman,76,M,Multi-ply,M_MEM_8_WPC,B,93.2,100,,,,,,-137.5,-137.5,-137.5,,,,,,,,,USA,DQ,
Bob Body,39,M,Raw,M_OR,B,88,90,,,,,,167.5,175,-185,,175,,,,,,175,USA,6,
Bobby Faber,36,M,Raw,M_OR,B,123.4,125,,,,,,240,250,260,,260,,,,,,260,USA,1,
Bochkovski Anatolii,60,M,Raw,M_MR_5_WPC,D,66.6,67.5,,,,,,,,,,,187.5,-202.5,,,187.5,187.5,Ukraine,1,
Boranbay Beisembayeev,57,M,Raw,M_MR_4,B,100,100,,,,,,100,-110,-115,,100,,,,,,100,Kazakhstan,3,
Boranbay Beisembayev,57,M,Wraps,M_MR_4_WPC,SBD,99.6,100,100,-105,120,,120,80,95,105,,105,120,140,160,,160,385,Kazakhstan,2,
Brandon Conley,25,M,Raw,M_OR,B,98.6,100,,,,,,-197.5,-200,205,,205,,,,,,205,USA,3,
Brent Alapa,41,M,Multi-ply,M_MEM_1_WPC,SBD,98.6,100,340,-365,365,,365,252.5,265,-275,,265,275,-287.5,287.5,,287.5,917.5,USA,1,
Brett Benedix,18,M,Single-ply,M_TES_3_WPC,SBD,62.5,67.5,-262.5,262.5,275,-287.5,275,127.5,-132.5,-132.5,,127.5,215,232.5,-242.5,,232.5,635,USA,1,
Brett Hill,48,M,Wraps,M_MR_2_WPC,SBD,107.6,110,185,210,,,210,100,120,,,120,230,-245,,,230,560,USA,5,
Brett Sanders,24,M,Wraps,M_OR_WPC,SBD,99.2,100,220,230,240,,240,152.5,160,-177.5,,160,-290,290,305,,305,705,Canada,3,
Brian Burritt,47,M,Single-ply,M_MES_2_WPC,B,81.4,82.5,,,,,,-237.5,237.5,-245,,237.5,,,,,,237.5,USA,1,
Brian Burritt,47,M,Single-ply,M_OES_WPC,B,81.4,82.5,,,,,,-237.5,237.5,-245,,237.5,,,,,,237.5,USA,2,
Brian Schwab,40,M,Single-ply,M_OES_WPC,SBD,73,75,295,-320,-320,,295,182.5,197.5,-205,,197.5,245,260,-272.5,,260,752.5,USA,1,
Brian Yourist,34,M,Multi-ply,M_OEM_WPC,SBD,106.2,110,-302.5,302.5,,,302.5,-210,-210,210,,210,300,310,-327.5,,310,822.5,USA,4,
Bruce Mason,25,M,Multi-ply,M_OEM_WPC,SBD,118.6,125,-385,-385,385,,385,280,-292.5,-292.5,,280,282.5,302.5,320,,320,985,USA,3,
Bruce McIntyre,57,M,Multi-ply,M_MEM_4_WPC,B,98.4,100,,,,,,210,-227.5,227.5,,227.5,,,,,,227.5,Canada,2,
Bruno Alves,25,M,Multi-ply,M_OEM_WPC,B,106.4,110,,,,,,240,250,260,,260,,,,,,260,Portugal,2,
Bruno Alves,25,M,Multi-ply,M_OEM_WPC,SBD,107,110,-285,-285,285,,285,240,255,265,,265,250,270,290,,290,840,Portugal,3,
Bruno Szambelanczyk,34,M,Multi-ply,M_OEM_WPC,B,118,125,,,,,,325,-335,-335,,325,,,,,,325,France,4,
Bryant Dilda,45,M,Wraps,M_MR_2_WPC,SBD,108.8,110,272.5,282.5,287.5,,287.5,177.5,185,-190,,185,250,257.5,265,,265,737.5,USA,2,
Bymbaa Tsegmed,74,M,Multi-ply,M_MEM_7_WPC,SBD,74.2,75,200,216,-220,,216,90,105,,,105,175,186,197.5,,197.5,518.5,Mongolia,1,
Caleb Clark,18,M,Multi-ply,M_TEM_3_WPC,SBD,72.4,75,265,277.5,-292.5,,277.5,170,182.5,-190,,182.5,215,230,-242.5,,230,690,USA,1,
Cameron Farrar,24,M,Raw,M_OR_WPC,D,74.8,75,,,,,,,,,,,-220,,220,,220,220,Australia,4,
Cardell Oliver,36,M,Wraps,M_OR_WPC,SBD,98.6,100,240,265,272.5,,272.5,185,192.5,200,,200,-290,305,-327.5,,305,777.5,USA,2,
Carl Calhoun,65,M,Raw,M_MR_6,B,105.6,110,,,,,,140,147.5,152.5,-155,152.5,,,,,,152.5,USA,1,
Carlos Vidas,31,M,Raw,M_OR_WPC,D,74.8,75,,,,,,,,,,,235,245,-252.5,,245,245,Portugal,1,
Carols Vidas,31,M,Raw,M_OR_WPC,B,73.8,75,,,,,,115,-125,-125,,115,,,,,,115,Portugal,4,
Carrie Goldstein,54,F,Wraps,F_MR_3_WPC,SBD,60,60,95,102.5,107.5,-110,107.5,70,-75,75,-77.5,75,132.5,140,142.5,-145,142.5,325,USA,1,
Chad Walker,32,M,Multi-ply,M_OEM_WPC,SBD,150.8,140+,-465,-465,-465,,,,,,,,,,,,,,USA,DQ,
Charles Fay,34,M,Multi-ply,M_OEM_WPC,SBD,127.8,140,-430,430,,,430,275,287.5,-297.5,,287.5,297.5,,,,297.5,1015,USA,1,
Charles McLean,27,M,Single-ply,M_OES_WPC,SBD,82.5,82.5,205,222.5,235,,235,-152.5,-152.5,-152.5,,,,,-262.5,,,,USA,DQ,
Cheairs GiAnna,33,F,Wraps,F_OR_WPC,SBD,77.4,82.5,72.5,-77.5,-77.5,,72.5,47.5,-52.5,-52.5,,47.5,110,120,-125,,120,240,USA,2,
Cheick Ahmed Al-Hassan Sanou,22,M,Raw,M_JR,B,145.4,140+,,,,,,202.5,212.5,217.5,,217.5,,,,,,217.5,Canada,1,
Cheick Ahmed Al-Hassan Sanou,22,M,Raw,M_JR_WPC,D,146.2,140+,,,,,,,,,,,307.5,-327.5,-330,,307.5,307.5,Canada,1,
Chris Della Fave,26,M,Multi-ply,M_OEM_WPC,SBD,109,110,405,-415,-415,,405,307.5,320,-325,,320,320,352.5,-385,,352.5,1077.5,USA,1,
Chris Heaven,45,M,Single-ply,M_MES_2_WPC,B,89.4,90,,,,,,235,-252.5,-252.5,,235,,,,,,235,USA,1,
Chris Heaven,45,M,Single-ply,M_OES_WPC,B,89.4,90,,,,,,235,-252.5,-252.5,,235,,,,,,235,USA,3,
Chris Isaac,37,M,Wraps,M_OR_WPC,SBD,154.2,140+,160,165,175,,175,152.5,-157.5,,,152.5,207.5,215,-230,,215,542.5,Canada,4,
Chris Jacobson,23,M,Single-ply,M_JES_WPC,SBD,81,82.5,255,270,-280,,270,147.5,152.5,155,,155,-215,215,,,215,640,USA,1,
Christian Moore #2,18,M,Multi-ply,M_TEM_3_WPC,SBD,140,140,327.5,342.5,-362.5,,342.5,-215,215,-227.5,,215,-265,-265,-265,,,,USA,DQ,
Christoph Scheel,29,M,Single-ply,M_OES_WPC,B,89.6,90,,,,,,240,-252.5,252.5,255,252.5,,,,,,252.5,USA,1,
Christoph Scheel,29,M,Raw,M_OR,B,89.4,90,,,,,,207.5,212.5,-217.5,,212.5,,,,,,212.5,Germany,2,
Christoph Scheel,29,M,Multi-ply,M_OEM_WPC,B,89,90,,,,,,240,-250,-250,,240,,,,,,240,Germany,2,
Chuck McConnell,52,M,Multi-ply,M_MEM_3_WPC,SBD,108.6,110,-292.5,292.5,307.5,,307.5,-220,-220,-220,,,,,,,,,USA,DQ,
Cindy Costin-Fury,31,F,Wraps,F_OR_WPC,SBD,88,90,125,137.5,142.5,,142.5,75,80,87.5,,87.5,132.5,145,-155,,145,375,USA,4,
Cindy Costin-Fury,31,F,Raw,F_OR_WPC,B,88.8,90,,,,,,75,-85,-85,,75,,,,,,75,Canada,1,
Cindy Costin-Fury,31,F,Raw,F_OR_WPC,D,89,90,,,,,,,,,,,132.5,145,-150,,145,145,Canada,2,
Cindy Mistric,43,F,Multi-ply,F_MEM_1_WPC,SBD,44,44,-132.5,132.5,157.5,,157.5,-60,60,-70,,60,102.5,-117.5,,,102.5,320,USA,1,
CJ Reed,34,M,Wraps,M_OR_WPC,SBD,80.8,82.5,147.5,-155,-155,,147.5,140,145,150,,150,202.5,210,215,,215,512.5,USA,5,
CJ Reed,34,M,Raw,M_OR_WPC,B,79.4,82.5,,,,,,140,142.5,-152.5,,142.5,,,,,,142.5,USA,2,
Clark Garrin,46,M,Wraps,M_MR_2_WPC,SBD,74.6,75,137.5,145,147.5,,147.5,100,102.5,105,,105,202.5,210,-220.5,,210,462.5,USA,1,
Clark Garrin,46,M,Raw,M_MR_2_WPC,D,74.4,75,,,,,,,,,,,202.5,212.5,-220.5,,212.5,212.5,USA,1,
Colby Gillette,19,M,Raw,M_TR_3_WPC,D,66,67.5,,,,,,,,,,,-160,-170,170,,170,170,USA,2,
Colin Mullaney,55,M,Wraps,M_MR_4_WPC,SBD,81.4,82.5,130,140,147.5,,147.5,100,112.5,120.5,,120.5,160,177.5,,,177.5,445.5,Canada,1,
Colin Mullaney,55,M,Raw,M_MR_4_WPC,B,81.2,82.5,,,,,,100,112.5,-122.5,,112.5,,,,,,112.5,Canada,1,
Colin Mullaney,55,M,Raw,M_MR_4_WPC,D,81.4,82.5,,,,,,,,,,,170,187.5,197.5,202.5,197.5,197.5,Canada,2,
Colten Conner,22,M,Raw,M_JR_WPC,D,74.4,75,,,,,,,,,,,185,-212.5,212.5,,212.5,212.5,USA,2,
Contrerao Rodrigues,40,M,Single-ply,M_MES_1_WPC,SBD,72.4,75,-245,245,-255,,245,162.5,-170,-170,,162.5,-235,235,-245,,235,642.5,Colombia,1,
Corinne Ingman,25,F,Raw,F_OR_WPC,B,68.4,75,,,,,,80,90,95,,95,,,,,,95,UK,1,
Craig Koffler,34,M,Raw,M_OR,B,89.4,90,,,,,,222.5,230,-235,,230,,,,,,230,USA,1,
Cyril Schuster,22,M,Raw,M_JR,B,88.8,90,,,,,,175,180,-182.5,,180,,,,,,180,USA,1,
Dagmar Liptáková,38,F,Multi-ply,F_OEM_WPC,B,64.2,67.5,,,,,,125,130,-142.5,,130,,,,,,130,Slovakia,1,
Dainis Polis,55,M,Single-ply,M_MES_4_WPC,D,118.2,125,,,,,,,,,,,250,270,-300,,270,270,Latvia,1,
Dainis Polis,55,M,Wraps,M_MR_4_WPC,SBD,118.6,125,200,225,235,,235,160,170,180,,180,250,260,-267.5,,260,675,Latvia,1,
Dan Dvořák,38,M,Multi-ply,M_OEM_WPC,B,114.2,125,,,,,,305,-325,,,305,,,,,,305,Czechia,5,
Dan Martin,58,M,Single-ply,M_MES_4_WPC,B,97,100,,,,,,180,-200,200,-215,200,,,,,,200,USA,1,
Dan Martin,58,M,Multi-ply,M_MEM_4_WPC,B,97.4,100,,,,,,177.5,190,-210,,190,,,,,,190,USA,3,
Dan Petkovsek,24,M,Wraps,M_OR_WPC,SBD,89.4,90,-220,-220,220,,220,150,155,165,,165,-275,275,290,,290,675,Canada,5,
Dan Zager,62,M,Multi-ply,M_MEM_5_WPC,SBD,67.2,67.5,-167.5,175,-202.5,,175,75,85,90,,90,182.5,200,-212.5,,200,465,USA,1,
Dan Ziegelmann,40,M,Wraps,M_MR_1_WPC,SBD,108,110,220,235,-245,,235,152.5,165,175,,175,237.5,255,-260,,255,665,USA,1,
Daniel Morjal,36,M,Raw,M_OR,B,143.6,140+,,,,,,252.5,267.5,-275,,267.5,,,,,,267.5,USA,1,
Daniel Styczynski,24,M,Raw,M_OR_WPC,D,66.6,67.5,,,,,,,,,,,200,-215,-215,,200,200,USA,3,
Daniel Tinajero,27,M,Multi-ply,M_OEM_WPC,SBD,99,100,-425,425,-455,,425,317.5,340,-352.5,,340,320,340,-355,,340,1105,USA,2,
Darius Robinson,33,M,Raw,M_OR,B,95.6,100,,,,,,170,182.5,-185,,182.5,,,,,,182.5,USA,6,
Darran McKeown,22,M,Wraps,M_JR_WPC,SBD,89.4,90,200,-210,210,,210,157.5,-165,165,,165,100,,,,100,475,Ireland,1,
Darren Hammond,42,M,Wraps,M_OR_WPC,SBD,107.6,110,230,-245,-255,,230,135,145,-152.5,,145,280,300,-320,,300,675,UK,4,
Darren Turley,46,M,Multi-ply,M_MEM_2_WPC,SBD,136.4,140,-425,425,-455,,425,302.5,-320,-320,,302.5,280,-300,-300,,280,1007.5,USA,1,
Dastan Beissembayev,27,M,Wraps,M_OR_WPC,SBD,88.4,90,-230,-230,230,,230,165,172.5,-180,,172.5,-240,-245,245,,245,647.5,Kazakhstan,6,
Dastan Beissembayev,27,M,Raw,M_OR_WPC,D,92,100,,,,,,,,,,,-230,,-230,,,,Kazakhstan,DQ,
David Csizmadia,23,M,Raw,M_JR_WPC,B,64.8,67.5,,,,,,145,150,152.5,153,152.5,,,,,,152.5,Hungary,1,
David Earp,51,M,Raw,M_MR_3_WPC,D,121.4,125,,,,,,,,,,,250,-272.5,-272.5,,250,250,USA,1,
David Keilman,31,M,Wraps,M_OR_WPC,SBD,108.2,110,250,272.5,-287.5,,272.5,162.5,172.5,-185,,172.5,250,275,-277.5,,275,720,USA,3,
David Kirchen,37,M,Multi-ply,M_OEM_WPC,B,96.6,100,,,,,,-285,-285,-295,,,,,,,,,USA,DQ,
David Martinez #1,44,M,Raw,M_MR_1,B,109.6,110,,,,,,-190,200,-205,,200,,,,,,200,USA,2,
David Paul Taylor,51,M,Raw,M_MR_3,B,97.8,100,,,,,,155,-165,-165,,155,,,,,,155,USA,3,
David Sloane,26,M,Single-ply,M_OES_WPC,D,94.8,100,,,,,,,,,,,255,265,-275,,265,265,UK,1,
David Thompson,17,M,Wraps,M_TR_2_WPC,SBD,99.8,100,167.5,185,195,-202.5,195,120,127.5,-137.5,,127.5,235,-252.5,-252.5,,235,557.5,USA,2,
David Thompson,16,M,Raw,M_TR_2_WPC,D,106.6,110,,,,,,,,,,,235,-250,-250,,235,235,USA,1,
David Toomer,26,M,Wraps,M_OR_WPC,SBD,123.2,125,-240,240,260,,260,200,-212.5,,,200,280,310,315,,315,775,Australia,5,
Dawn Hickman,46,F,Multi-ply,F_OEM_WPC,SBD,46.6,48,147.5,160,175,,175,100,-107.5,-107.5,,100,130,137.5,145,150,145,420,USA,1,
Dean Tullio,30,M,Wraps,M_OR_WPC,SBD,108.2,110,240,260,-272.5,,260,182.5,195,-202.5,,195,-272.5,275,277.5,,277.5,732.5,USA,2,
Debbie Damminga,53,F,Multi-ply,F_OEM_WPC,SBD,72.6,75,187.5,202.5,215,227.5,215,87.5,92.5,100,,100,192.5,-207.5,207.5,-215,207.5,522.5,USA,1,
Dejuan Garland,32,M,Wraps,M_OR_WPC,SBD,137.4,140,215,222.5,-227.5,,222.5,170,187.5,-190,,187.5,262.5,-275,,,262.5,672.5,USA,6,
Demetrieus Dixon,22,M,Raw,M_JR_WPC,SBD,52,52,117.5,130,137.5,145,137.5,80,92.5,95,-97.5,95,160,175,182.5,-187.5,182.5,415,USA,1,
Denis Knyazev,27,M,Multi-ply,M_OEM_WPC,B,108.4,110,,,,,,-340,340,-360,,340,,,,,,340,Russia,1,
Denis Pronin,26,M,Multi-ply,M_OEM_WPC,B,79.4,82.5,,,,,,220,-230,230,,230,,,,,,230,Canada,1,
Devin Cagnolatti,41,M,Multi-ply,M_MEM_1_WPC,SBD,82.2,82.5,-282.5,290,320,,320,-237.5,237.5,-250,,237.5,230,-245,-245,,230,787.5,USA,1,
Dick Zenzen,62,M,Multi-ply,M_MEM_5_WPC,SBD,112.6,125,-292.5,-292.5,-320,,,,,,,,,,,,,,USA,DQ,
Dick Zenzen,62,M,Multi-ply,M_MEM_5_WPC,D,113.8,125,,,,,,,,,,,200,-220,-230,,200,200,USA,1,
Dickie Spiroff,45,M,Raw,M_MR_2,B,104.6,110,,,,,,220,230,-232.5,,230,,,,,,230,USA,1,
Didier Michelon,53,M,Multi-ply,M_MEM_3_WPC,B,110,110,,,,,,-305,,,,,,,,,,,France,DQ,
Didier Michelon,51,M,Raw,M_MR_3,B,110,110,,,,,,170,190,,,190,,,,,,190,France,3,
Didier Michelon,51,M,Multi-ply,M_OEM_WPC,B,125,125,,,,,,,,,,,,,,,,,France,DQ,
Didier Theux,56,M,Multi-ply,M_MEM_4_WPC,B,88.4,90,,,,,,230,245,-255,,245,,,,,,245,France,1,
Didier Theux,56,M,Multi-ply,M_OEM_WPC,B,90.4,100,,,,,,-235,235,-248,,235,,,,,,235,France,3,
Dmitrii Shumilov,33,M,Raw,M_OR,B,87.4,90,,,,,,187.5,-197.5,-202.5,,187.5,,,,,,187.5,Russia,4,
Dmitriy Chaplygin,15,M,Wraps,M_TR_1_WPC,SBD,65.4,67.5,65,70,75,,75,35,40,45,,45,90,100,105,,105,225,Kazakhstan,1,
Dmitriy Chaplygin,15,M,Raw,M_TR_1_WPC,D,66,67.5,,,,,,,,,,,90,100,-105,,100,100,Kazakhstan,1,
Dmitriy Permyakov,39,M,Multi-ply,M_OEM_WPC,B,127.6,140,,,,,,310,325,-350,,325,,,,,,325,Russia,2,
Dmitry Gorbachev,44,M,Multi-ply,M_MEM_1_WPC,B,113.4,125,,,,,,280,300,,,300,,,,,,300,Russia,1,
Dmitry Gorbachev,44,M,Raw,M_MR_1,B,113.4,125,,,,,,190,205,215,,215,,,,,,215,Russia,2,
Donald Walts,51,M,Raw,M_MR_3,B,89.2,90,,,,,,102.5,107.5,-110,,107.5,,,,,,107.5,USA,1,
Dora Lontro,26,F,Wraps,F_OR_WPC,SBD,75,75,125,130,-132.5,,130,-62.5,65,70,,70,145,155,-160,,155,355,Portugal,1,
Dragoslav Penaranda,42,M,Single-ply,M_MES_1_WPC,SBD,96.8,100,-220,220,235,,235,110,-120,-120,,110,210,217.5,230,,230,575,Colombia,1,
Drummond Jonathan,48,M,Wraps,M_MR_2_WPC,SBD,135.2,140,-230,230,250,,250,170,-177.5,177.5,,177.5,297.5,325,-335,,325,752.5,USA,1,
Earp David,51,M,Wraps,M_MR_3_WPC,SBD,122.5,125,205,227.5,-252.5,,227.5,142.5,152.5,-157.5,,152.5,250,260,265,,265,645,USA,2,
Eastin Kimberly,44,F,Single-ply,F_MES_1_WPC,B,116.2,90+,,,,,,-117.5,120,-122.5,,120,,,,,,120,USA,1,
Eastin Kimberly,44,F,Single-ply,F_OES_WPC,B,116.2,90+,,,,,,-117.5,120,-122.5,,120,,,,,,120,USA,1,
Eastin Kimberly,44,F,Single-ply,F_MES_1_WPC,D,116.2,90+,,,,,,,,,,,160,165,-170,,165,165,USA,1,
Eastin Kimberly,44,F,Single-ply,F_OES_WPC,D,116.2,90+,,,,,,,,,,,160,165,-170,,165,165,USA,1,
Ed Fitzpatrick,66,M,Raw,M_MR_6,B,103.4,110,,,,,,-145,145,-152.5,,145,,,,,,145,USA,2,
Eduard Kabdeshev,25,M,Raw,M_OR,B,109,110,,,,,,220,227.5,240,,240,,,,,,240,Kazakhstan,2,
Eduard Kabdeshev,25,M,Raw,M_OR_WPC,D,109.4,110,,,,,,,,,,,270,285,,,285,285,Kazakhstan,3,
Eduard Kabdeshev,25,M,Raw,M_OR_WPC,D,,,,,,,,,,,,,,,,,,,Kazakhstan,DQ,
Eduard Khanjyan,29,M,Raw,M_OR_WPC,SBD,99.8,100,270,282.5,-292.5,,282.5,185,195,-200,,195,310,322.5,-332.5,,322.5,800,Finland,1,
Elena Kuznetsova,48,F,Wraps,F_MR_2_WPC,SBD,52.2,56,60,65,70,,70,-35,35,40,,40,80,90,97.5,,97.5,207.5,Russia,1,
Elias Hiissa,18,M,Raw,M_TR_3_WPC,D,67.4,67.5,,,,,,,,,,,170,185,198,200,198,198,Finland,1,
Emily Simpson,23,F,Multi-ply,F_OEM_WPC,SBD,63.8,67.5,127.5,137.5,140,,140,-92.5,-92.5,-92.5,,,,,,,,,USA,DQ,
Emma Ylitalo-James,44,F,Single-ply,F_MES_1_WPC,B,87.5,90,,,,,,200,207.5,215,-220,215,,,,,,215,UK,1,
Emma Ylitalo-James,44,F,Single-ply,F_OES_WPC,B,87.5,90,,,,,,200,207.5,215,-220,215,,,,,,215,UK,1,
Eric Hubbs,50,M,Multi-ply,M_MEM_3_WPC,B,123.4,125,,,,,,-282.5,-285,-285,,,,,,,,,USA,DQ,
Eric Platel,43,M,Multi-ply,M_MEM_1_WPC,B,108.4,110,,,,,,260,-272.5,-275,,260,,,,,,260,France,2,
Eric Platel,43,M,Raw,M_MR_1,B,108.4,110,,,,,,180,190,200,,200,,,,,,200,France,1,
Erik Johnsen,28,M,Multi-ply,M_OEM_WPC,SBD,130.8,140,-342.5,-347.5,-347.5,,,,,,,,,,,,,,USA,DQ,
Erik Sustay,42,M,Raw,M_MR_1,B,129.6,140,,,,,,210,220,225,,225,,,,,,225,Slovakia,1,
Ervin Domanski,43,M,Multi-ply,M_MEM_1_WPC,SBD,89.2,90,295,317.5,330,,330,187.5,195,200,,200,260,280,-287.5,,280,810,USA,2,
Esmeralda Villafane,34,F,Wraps,F_OR_WPC,SBD,55,56,100,110,115,,115,55,-65,-65,,55,110,125,135,,135,305,Colombia,4,
Beasty Tuilagi,23,M,Wraps,M_JR_WPC,SBD,82,82.5,185,197.5,205,,205,157.5,167.5,-172.5,,167.5,270,285,-295,,285,657.5,UK,2,
Eva Dunbar,33,F,Raw,F_OR_WPC,SBD,67,67.5,-165,165,182.5,,182.5,102.5,110,-115.5,,110,211,222.5,-227.5,,222.5,515,Canada,1,
Evgenia Gilinskaya,28,F,Wraps,F_OR_WPC,SBD,51.6,52,110,120,125,,125,70,75,-80,,75,125,130,145,,145,345,Kazakhstan,1,
Evgenia Gilinskaya,28,F,Raw,F_OR_WPC,B,51.6,52,,,,,,65,75,-80,,75,,,,,,75,Kazakhstan,1,
Evgenia Gilinskaya,28,F,Raw,F_OR_WPC,D,52,52,,,,,,,,,,,-135,135,151,,151,151,Kazakhstan,1,
Evgeny Khudoleev,68,M,Wraps,M_MR_6_WPC,SBD,89.2,90,160,175,185,,185,115,120,130,,130,210,220,,,220,535,Russia,1,
Evgeny Khudoleev,68,M,Raw,M_MR_6_WPC,D,88.4,90,,,,,,,,,,,200,215,230,,230,230,Russia,1,
Fábio Brás,23,M,Raw,M_JR_WPC,B,71.6,75,,,,,,130,-140,-140,,130,,,,,,130,Portugal,1,
Fedor Vershinin,21,M,Wraps,M_JR_WPC,SBD,105.8,110,220,240,-250,,240,200,-210,-210,,200,240,270,280,,280,720,Russia,2,
Felipe Salas,25,M,Wraps,M_OR_WPC,SBD,88.2,90,182.5,-200,200,,200,142.5,150,160,,160,212.5,225,-230,,225,585,USA,7,
Felix Ortiz,29,M,Single-ply,M_OES_WPC,B,58.6,60,,,,,,160,167.5,-175,,167.5,,,,,,167.5,Colombia,1,
Felix Ortiz,29,M,Raw,M_OR_WPC,B,59.6,60,,,,,,130,135,137.5,,137.5,,,,,,137.5,Colombia,1,
Ferenc Gyenes,49,M,Wraps,M_MR_2_WPC,SBD,107.6,110,230,245,260,,260,160,167.5,172.5,,172.5,270,280,290,,290,722.5,Hungary,3,
Fernando Raimundo,27,M,Raw,M_OR,B,90,90,,,,,,160,170,-175,,170,,,,,,170,Portugal,7,
Fernando Santos,23,M,Multi-ply,M_JEM_WPC,SBD,67.5,67.5,215,250,-286,,250,-135,135,-155,,135,210,225,-240,,225,610,Portugal,1,
Fernando Santos,23,M,Multi-ply,M_JEM_WPC,D,73.2,75,,,,,,,,,,,210,227.5,-235,,227.5,227.5,Portugal,1,
Fernando Santos,23,M,Multi-ply,M_OEM_WPC,SBD,75,75,200,240,,,240,135,-150,150,,150,200,225,,,225,615,Portugal,2,
Forrest Grivetti,19,M,Multi-ply,M_TEM_3_WPC,SBD,74.6,75,-275,275,-305,,275,170,185,192.5,,192.5,195,220,-235,,220,687.5,USA,2,
Forrest Grivetti,19,M,Raw,M_TR_3_WPC,D,80,82.5,,,,,,,,,,,190,210.5,222.5,,222.5,222.5,USA,1,
Francis Randy,60,M,Multi-ply,M_MEM_5_WPC,B,80.6,82.5,,,,,,190,-198,-198,,190,,,,,,190,USA,1,
Fred Choate,44,M,Multi-ply,M_MEM_1_WPC,SBD,88.6,90,182.5,-187.5,197.5,,197.5,125,-130,130,,130,187.5,192.5,-205,,192.5,520,USA,4,
Fred Goldberg,55,M,Single-ply,M_MES_4_WPC,B,121.4,125,,,,,,-282.5,-297.5,-297.5,,,,,,,,,USA,DQ,
Frederic Pin,52,M,Raw,M_MR_3_WPC,B,73,75,,,,,,97.5,102.5,107.5,,107.5,,,,,,107.5,France,1,
Gankhuyag Erdenee,46,M,Wraps,M_MR_2_WPC,SBD,81.2,82.5,170,190,202.5,,202.5,160,170,-175,,170,180,222.5,235,,235,607.5,Mongolia,1,
Gankhuyang Erdenee,45,M,Raw,M_MR_2_WPC,B,81.4,82.5,,,,,,155,170,-190,,170,,,,,,170,Mongolia,2,
Gartside Olivia Droste,22,F,Wraps,F_JR_WPC,SBD,59.6,60,90,95,102.5,,102.5,70,75,-80,,75,120,127.5,-142.5,,127.5,305,USA,2,
Gary Bobrovitz,62,M,Multi-ply,M_MEM_5_WPC,SBD,65.2,67.5,65,,,,65,135,140,142.5,145,142.5,65,,,,65,272.5,Canada,2,
Gary Bobrovitz,62,M,Multi-ply,M_MEM_5_WPC,B,65.8,67.5,,,,,,-140,-140,140,142.5,140,,,,,,140,Canada,1,
Gary Bobrovitz,62,M,Raw,M_MR_5_WPC,B,65.8,67.5,,,,,,105,112.5,-115,,112.5,,,,,,112.5,Canada,1,
Gary Topley,29,M,Raw,M_OR,B,95.6,100,,,,,,180,190,-200,,190,,,,,,190,UK,5,
Gaston Montagna,41,M,Raw,M_MR_1_WPC,B,73.4,75,,,,,,147.5,155,-157.5,,155,,,,,,155,Argentina,1,
Gaston Montagna,41,M,Raw,M_OR_WPC,B,73.4,75,,,,,,147.5,155,-157.5,,155,,,,,,155,Argentina,1,
Gatis Roze,24,M,Single-ply,M_OES_WPC,D,123,125,,,,,,,,,,,320,-340,340,,340,340,Latvia,1,
George Briley,18,M,Wraps,M_TR_3_WPC,SBD,129,140,180,-205,225,251,225,125,137.5,150,,150,210,235,-260,,235,610,UK,1,
George Briley,17,M,Raw,M_TR_2,B,128.8,140,,,,,,125,140,-160,,140,,,,,,140,UK,1,
George Briley,18,M,Raw,M_OR_WPC,D,129.8,140,,,,,,,,,,,220,240,-260,,240,240,UK,3,
George Briley,18,M,Raw,M_TR_3_WPC,D,129.8,140,,,,,,,,,,,220,240,-260,,240,240,UK,1,
George Shipley,55,M,Wraps,M_MR_4_WPC,SBD,77,82.5,105,112.5,120,,120,90,92.5,,,92.5,105,,,,105,317.5,USA,2,
George Shipley,55,M,Raw,M_MR_4_WPC,D,76.8,82.5,,,,,,,,,,,175,185,197.5,-202.5,197.5,197.5,USA,1,
Georgo Vakarcs,18,M,Raw,M_TR_3,B,96.8,100,,,,,,180,190,195,-203,195,,,,,,195,Hungary,1,
Gerald Pervis,75,M,Wraps,M_MR_8_WPC,SBD,93.4,100,92.5,107.5,117.5,122.5,117.5,85,90,92.5,-97.5,92.5,155,167.5,182.5,185,182.5,392.5,USA,1,
Gerrit Scheel,23,M,Single-ply,M_JES_WPC,B,81,82.5,,,,,,180,187.5,195,,195,,,,,,195,Germany,1,
Gerrit Scheel,23,M,Raw,M_JR_WPC,B,80.6,82.5,,,,,,170,177.5,-182.5,,177.5,,,,,,177.5,Germany,1,
Gerrit Scheel,23,M,Multi-ply,M_JEM_WPC,B,80.6,82.5,,,,,,185,-192.5,,,185,,,,,,185,Germany,1,
Gorden Karkusche,23,M,Single-ply,M_JES_WPC,SBD,74.4,75,145,157.5,-160,,157.5,85,92.5,,,92.5,-145,145,155,162.5,155,405,USA,2,
Gorden Karkusche,23,M,Single-ply,M_JES_WPC,D,74.4,75,,,,,,,,,,,-145,145,155,162.5,155,155,USA,1,
Gorden Karkuschke,23,M,Multi-ply,M_JEM_WPC,B,73.4,75,,,,,,95,100,-110,,100,,,,,,100,Germany,1,
Gorden Karkuschke,23,M,Multi-ply,M_JEM_WPC,D,73.4,75,,,,,,,,,,,145,160,-165,,160,160,Germany,2,
Greg Godwin,57,M,Multi-ply,M_MEM_4_WPC,SBD,88.8,90,240,-250,-260,,240,-180,-180,180,,180,230,245,-260,,245,665,USA,2,
Greg Ripley,53,M,Multi-ply,M_MEM_3_WPC,SBD,82,82.5,-210,210,-222.5,,210,85,-165,165,,165,182.5,202.5,-215,,202.5,577.5,USA,1,
Gregg Damminga,52,M,Multi-ply,M_MEM_3_WPC,SBD,135,140,325,-342.5,-342.5,,325,-230,-240,-257.5,,,,,,,,,USA,DQ,
Grigoriy Pantiukhin,19,M,Raw,M_TR_3,B,88.2,90,,,,,,140,150,-165,,150,,,,,,150,Russia,2,
Gunel Talybova,32,F,Wraps,F_OR_WPC,SBD,55.6,56,145,150,-152.5,,150,85,87.5,90,,90,180,190,,,190,430,Azerbaijan,1,
Hafiz Verdiyev,24,M,Single-ply,M_OES_WPC,SBD,97.4,100,350,365,-380,,365,240,-250,-250,,240,320,-335,-335,,320,925,Azerbaijan,1,
Hailey Welch,19,F,Wraps,F_TR_3_WPC,SBD,59.8,60,-75,75,82.5,,82.5,62.5,65,-67.5,,65,87.5,95,105,,105,252.5,USA,1,
Haley Deleigh,43,F,Wraps,F_MR_1_WPC,SBD,66.2,67.5,82.5,87.5,93,,93,57.5,62.5,67.5,-73,67.5,125,130,-135,,130,290.5,USA,1,
Haley Deleight,43,F,Raw,F_MR_1_WPC,D,,,,,,,,,,,,,,,,,,,USA,DQ,
Hao Sun Yang,17,M,Single-ply,M_TES_2_WPC,SBD,117.2,125,192.5,197.5,-202.5,,197.5,142.5,147.5,152.5,155,152.5,-195,200,205,-210,205,555,USA,1,
Hartmut Niemann,60,M,Raw,M_MR_5_WPC,B,80,82.5,,,,,,130,137.5,145,,145,,,,,,145,Germany,1,
Heather Davidson,32,F,Multi-ply,F_OEM_WPC,SBD,136.6,90+,182.5,-190,-190,,182.5,137.5,147.5,-152.5,,147.5,132.5,-137.5,137.5,,137.5,467.5,Australia,1,
Heikki Sorsa,31,M,Multi-ply,M_OEM_WPC,B,89.9,90,,,,,,310,320,-330.5,,320,,,,,,320,Finland,1,
Heinz Buhl,58,M,Multi-ply,M_MEM_4_WPC,B,87.8,90,,,,,,140,-170,-170,,140,,,,,,140,Austria,3,
Heinz Buhl,58,M,Raw,M_MR_4,B,87.8,90,,,,,,137.5,145,150,,150,,,,,,150,Austria,2,
Henry Fletcher,51,M,Multi-ply,M_MEM_3_WPC,SBD,97.2,100,-320,320,365,,365,187.5,212.5,227.5,,227.5,230,272.5,-295,,272.5,865,USA,1,
Herbert Czeplinski,15,M,Wraps,M_TR_1_WPC,SBD,95.2,100,175,185,200,,200,122.5,130,-140,,130,200,215,230,,230,560,Germany,1,
Hervé Gainche,43,M,Multi-ply,M_MEM_1_WPC,SBD,123.8,125,260,280,300,,300,180,200,-212.5,,200,220,240,,,240,740,France,3,
Hilda Siegel,38,F,Wraps,F_OR_WPC,SBD,66,67.5,100,107.5,-112.5,,107.5,-75,75,-80,,75,-140,145,-152.5,,145,327.5,Canada,4,
Hilda Siegel,38,F,Raw,F_OR_WPC,B,66.8,67.5,,,,,,75,-80,-80,,75,,,,,,75,Canada,2,
Howard Penrose,48,M,Multi-ply,M_MEM_2_WPC,B,144.2,140+,,,,,,220,227.5,,,227.5,,,,,,227.5,USA,1,
Hristo BUL Muskov,28,M,Wraps,M_OR_WPC,SBD,117.8,125,240,250,260,,260,215,222.5,227.5,,227.5,310,322.5,327.5,,327.5,815,Bulgaria,3,
Hristo Dimitrov Muskov,28,M,Raw,M_OR,B,116.2,125,,,,,,217.5,225,,,225,,,,,,225,Bulgaria,6,
Hristo Muskov,29,M,Raw,M_OR_WPC,D,115.2,125,,,,,,,,,,,320,-325,,,320,320,Bulgaria,3,
Hugo Quinteiro,31,M,Raw,M_OR_WPC,D,108.8,110,,,,,,,,,,,295,-315,315,,315,315,Brazil,1,
Ibrahimov Ibrahim,33,M,Single-ply,M_OES_WPC,B,110,110,,,,,,300,-310,-323,,300,,,,,,300,Azerbaijan,1,
Igor Sergeev,48,M,Multi-ply,M_MEM_2_WPC,B,97,100,,,,,,270,280,-300,,280,,,,,,280,Russia,1,
Igor Sergeev,48,M,Raw,M_MR_2,B,97.4,100,,,,,,217.5,227.5,-231,,227.5,,,,,,227.5,Russia,1,
Ilkka Lukkarinen,26,M,Single-ply,M_OES_WPC,B,135.2,140,,,,,,330.5,-342.5,345,-360,345,,,,,,345,Finland,1,
Ilkka Lukkarinen,26,M,Multi-ply,M_OEM_WPC,B,138,140,,,,,,-370,375,-406,,375,,,,,,375,Finland,1,
Iosif Plagov,79,M,Raw,M_MR_8_WPC,B,65.4,67.5,,,,,,85,-95,-95,,85,,,,,,85,USA,1,
Ismo Åman,59,M,Wraps,M_MR_4_WPC,SBD,123.4,125,215,-225,235,,235,115,-120,-120,,115,275,-317.5,,,275,625,Finland,3,
Ivan Arshinov,23,M,Wraps,M_JR_WPC,SBD,79.8,82.5,230,242.5,-247.5,,242.5,180,190,-195,,190,240,255,275,,275,707.5,Russia,1,
Ivars Cīrulis,34,M,Single-ply,M_OES_WPC,D,113.2,125,,,,,,,,,,,320,-350,-350,,320,320,Latvia,2,
JL Holdsworth,36,M,Raw,M_OR,B,134,140,,,,,,192.5,-217.5,-217.5,,192.5,,,,,,192.5,USA,2,
JL Holdsworth,36,M,Raw,M_OR_WPC,D,134.2,140,,,,,,,,,,,310,322.5,330,,330,330,USA,1,
Jake Benedix,20,M,Single-ply,M_JES_WPC,SBD,66.4,67.5,235,245,-255,,245,140,-147.5,-147.5,,140,202.5,215,-225,,215,600,USA,1,
James Bees,31,M,Wraps,M_OR_WPC,SBD,97.8,100,200,210,-235,,210,140,-150,150,,150,240,250,-260,,250,610,UK,8,
James Briggs,56,M,Multi-ply,M_MEM_4_WPC,B,90,90,,,,,,-135,135,-175,,135,,,,,,135,USA,4,
James Briggs,56,M,Multi-ply,M_MEM_4_WPC,B,88.6,90,,,,,,162.5,-170,-170,,162.5,,,,,,162.5,USA,2,
James Briggs,56,M,Raw,M_MR_4,B,88.6,90,,,,,,135,-142.5,-142.5,,135,,,,,,135,USA,3,
James Jeurink,61,M,Single-ply,M_MES_5_WPC,D,95,100,,,,,,,,,,,182.5,,,,182.5,182.5,USA,1,
Jan Jíša,25,M,Multi-ply,M_OEM_WPC,SBD,98,100,310,-335,345,,345,210,220,230,,230,-260,260,275,,275,850,Czechia,6,
Ján Orosz,18,M,Raw,M_TR_3_WPC,B,82,82.5,,,,,,110,117.5,125,,125,,,,,,125,Slovakia,1,
Jan Orosz Sr,50,M,Raw,M_MR_3,B,122.6,125,,,,,,205,215,-226,,215,,,,,,215,Slovakia,1,
Jane Stabile,61,F,Multi-ply,F_MEM_5_WPC,SBD,66.8,67.5,-162.5,-162.5,-162.5,,,,,,,,,,,,,,USA,DQ,
Janet Sink,71,F,Wraps,F_MR_7_WPC,SBD,87,90,45,-50.5,-50.5,,45,45,-47.5,47.5,,47.5,92.5,105.5,,,105.5,198,USA,1,
Jaran Rutledge,29,M,Raw,M_OR,B,121.8,125,,,,,,237.5,-255,-257.5,,237.5,,,,,,237.5,USA,2,
Jarrett Likens,13,M,Raw,M_TR_1_WPC,B,55.4,56,,,,,,42.5,47.5,53,-55,53,,,,,,53,USA,1,
Jason Ferreira,35,M,Single-ply,M_OES_WPC,SBD,81.4,82.5,-285,285,-302.5,,285,165,-182.5,182.5,,182.5,-275,275,287.5,,287.5,755,Canada,1,
Jason La Vigne,28,M,Wraps,M_OR_WPC,SBD,80.6,82.5,-197.5,-200,200,,200,125,135,-137.5,,135,-215,215,232.5,,232.5,567.5,USA,3,
Jason Pritchard,41,M,Multi-ply,M_MEM_1_WPC,SBD,82.4,82.5,-257.5,-257.5,257.5,,257.5,172.5,190,-200,,190,240,-257.5,-257.5,,240,687.5,USA,2,
Jayson McNett,34,M,Multi-ply,M_OEM_WPC,SBD,149.2,140+,-447.5,457.5,-477.5,,457.5,335,-355,-372.5,,335,300,-325,-325,,300,1092.5,USA,1,
JC Roy,48,M,Single-ply,M_MES_2_WPC,SBD,124,125,182.5,205,227.5,,227.5,-142.5,142.5,-150,,142.5,182.5,205,-210,,205,575,USA,1,
Jean Douliez,54,M,Wraps,M_MR_3_WPC,SBD,80.3,82.5,140,150,160,,160,130,-137.5,-137.5,,130,190,205,-212.5,,205,495,France,2,
Jean Douliez,54,M,Raw,M_MR_3_WPC,B,81.6,82.5,,,,,,-130,130,-137.5,,130,,,,,,130,France,1,
Jean-Claude Camicas,71,M,Raw,M_MR_7_WPC,B,59,60,,,,,,80,83,-85,,83,,,,,,83,France,1,
Jeff Johnston #1,35,M,Raw,M_OR,B,106.8,110,,,,,,187.5,197.5,205,,205,,,,,,205,USA,4,
Jeff Sevor,52,M,Multi-ply,M_MEM_3_WPC,SBD,115.6,125,-252.5,252.5,272.5,,272.5,177.5,-200,200,,200,215,-237.5,-237.5,,215,687.5,USA,1,
Jeff Zambello,49,M,Wraps,M_MR_2_WPC,SBD,98,100,140,150,162.5,,162.5,102.5,115,120,,120,175,185,195,,195,477.5,Canada,3,
Jeff Zambello,49,M,Raw,M_MR_2_WPC,D,99,100,,,,,,,,,,,185,195,205,,205,205,Canada,1,
Jeffrey Orr,58,M,Multi-ply,M_MEM_4_WPC,SBD,93.5,100,185,-212.5,-225,,185,145,157.5,-165,,157.5,185,207.5,-227.5,,207.5,550,USA,2,
Jérémy Babin,24,M,Wraps,M_OR_WPC,SBD,82.4,82.5,-190,190,-210,,190,-135,135,147.5,,147.5,230,-245,245,,245,582.5,France,2,
Jérémy Babin,24,M,Raw,M_OR_WPC,D,82.5,82.5,,,,,,,,,,,240,255,262.5,,262.5,262.5,France,2,
Jeremy Herring,37,M,Raw,M_OR,B,137.2,140,,,,,,222.5,-235,-235,,222.5,,,,,,222.5,USA,1,
Jill Janssen,48,F,Wraps,F_MR_2_WPC,SBD,59.2,60,-90,90,-95,,90,47.5,-50,50,,50,110,115,-117.5,,115,255,USA,1,
Jim Harris,58,M,Single-ply,M_MES_4_WPC,SBD,78.4,82.5,210,-227.5,-227.5,,210,165,-175,-175,,165,-215,215,,,215,590,USA,1,
Jim Jeurink,61,M,Multi-ply,M_MEM_5_WPC,D,93.4,100,,,,,,,,,,,200,230,245,,245,245,USA,1,
Jim Wetenhall,60,M,Single-ply,M_MES_5_WPC,B,133.2,140,,,,,,127.5,140,150,,150,,,,,,150,USA,1,
Jim Wetenhall,60,M,Raw,M_MR_5,B,133.6,140,,,,,,105,115,122.5,,122.5,,,,,,122.5,USA,1,
Jimi Gordon,44,M,Single-ply,M_MES_1_WPC,B,99.4,100,,,,,,152.5,232.5,237.5,-265,237.5,,,,,,237.5,USA,1,
Jiří Havrda,38,M,Single-ply,M_OES_WPC,B,140.8,140+,,,,,,320,335,-345,,335,,,,,,335,Czechia,1,
Jiří Havrda,40,M,Raw,M_OR,B,141.2,140+,,,,,,240,-252.5,-267.5,,240,,,,,,240,Czechia,2,
Joan Cooper,54,F,Wraps,F_MR_3_WPC,SBD,54.4,56,57.5,62.5,-65,,62.5,42.5,45,-47.5,,45,102.5,107.5,112.5,-115,112.5,220,USA,1,
Joan Cooper,66,F,Raw,F_MR_3_WPC,D,55.6,56,,,,,,,,,,,102.5,107.5,-113,,107.5,107.5,USA,1,
Jodi Miller,42,F,Wraps,F_OR_WPC,SBD,52.2,56,107.5,117.5,-125,,117.5,62.5,70,-72.5,,70,130,142.5,147.5,-150,147.5,335,USA,3,
Joe Nathan Ornelas,17,M,Wraps,M_TR_2_WPC,SBD,87.8,90,175,187.5,200,,200,135,145,-152.5,,145,215,230,-242.5,,230,575,USA,1,
Joe Norman,46,M,Single-ply,M_OES_WPC,SBD,99.8,100,342.5,372.5,390,,390,227.5,-245,,,227.5,265,277.5,-310,,277.5,895,USA,2,
Joe Schillero,25,M,Multi-ply,M_OEM_WPC,SBD,96.4,100,310,325,-330,,325,230,-235,235,,235,265,282.5,292.5,,292.5,852.5,USA,5,
Joël Tartare,63,M,Raw,M_MR_5_WPC,B,72.8,75,,,,,,92.5,-97.5,-97.5,,92.5,,,,,,92.5,France,1,
Johannes Hermundsen,22,M,Multi-ply,M_JEM_WPC,D,102.2,110,,,,,,,,,,,260,285,-300,,285,285,Sweden,1,
John Antrobus,29,M,Single-ply,M_OES_WPC,B,88,90,,,,,,170,-180,-180,,170,,,,,,170,USA,4,
John Antrobus,29,M,Single-ply,M_OES_WPC,D,88,90,,,,,,,,,,,230,245,-250,,245,245,UK,2,
John Antrobus,29,M,Raw,M_OR_WPC,D,95.2,100,,,,,,,,,,,222.5,242.5,245,,245,245,UK,4,
John Courtenay,46,M,Multi-ply,M_MEM_2_WPC,B,123.6,125,,,,,,-307.5,-307.5,-307.5,,,,,,,,,USA,DQ,
John Dietrich,48,M,Multi-ply,M_MEM_2_WPC,B,98.4,100,,,,,,-197.5,-197.5,-197.5,,,,,,,,,Canada,DQ,
John Draher,38,M,Raw,M_OR,B,120.6,125,,,,,,232.5,-242.5,-242.5,,232.5,,,,,,232.5,USA,5,
John East,28,M,Single-ply,M_OES_WPC,B,65,67.5,,,,,,130,137.5,-142.5,,137.5,,,,,,137.5,UK,1,
John East,28,M,Raw,M_OR_WPC,D,65.8,67.5,,,,,,,,,,,190,205,217.5,-225.5,217.5,217.5,UK,2,
John Hehrer,43,M,Wraps,M_OR_WPC,SBD,148.2,140+,-265,270,292.5,,292.5,182.5,190,-200,,190,305,317.5,-337.5,,317.5,800,USA,3,
John Kirkpatrick,44,M,Multi-ply,M_MEM_1_WPC,SBD,120.2,125,382.5,410,-427.5,,410,-240,-240,240,,240,240,265,-277.5,,265,915,USA,2,
John LaComb,47,M,Multi-ply,M_MEM_2_WPC,B,120.8,125,,,,,,-227.5,-227.5,-227.5,,,,,,,,,USA,DQ,
John Melcher,52,M,Wraps,M_MR_3_WPC,SBD,107.2,110,190,215,-220,,215,170,-185,-185,,170,210,232.5,-240,,232.5,617.5,USA,1,
John Nocito,22,M,Single-ply,M_JES_WPC,SBD,74,75,-200,200,-217.5,,200,137.5,142.5,-147.5,,142.5,192.5,205,215,,215,557.5,USA,1,
John Ponzetti,50,M,Multi-ply,M_MEM_3_WPC,SBD,87.4,90,257.5,280,290,,290,157.5,167.5,177.5,,177.5,220,240,252.5,,252.5,720,USA,1,
John Solleder,52,M,Single-ply,M_MES_3_WPC,B,124,125,,,,,,-145,145,-150,,145,,,,,,145,USA,1,
John Solleder,52,M,Single-ply,M_OES_WPC,B,124,125,,,,,,-145,145,-150,,145,,,,,,145,USA,4,
John Wood,49,M,Wraps,M_MR_2_WPC,SBD,80.6,82.5,172.5,185,-197.5,,185,150,160,-167.5,,160,230,247.5,-262.5,,247.5,592.5,USA,2,
Jonathan Byrd,31,M,Multi-ply,M_OEM_WPC,SBD,131.4,140,-415,-415,,,,,,,,,,,,,,,USA,DQ,
Jonathan Drummond,48,M,Raw,M_MR_2,B,135.2,140,,,,,,172.5,-180,180,,180,,,,,,180,USA,1,
Jonathan Drummond,48,M,Raw,M_MR_2_WPC,D,135,140,,,,,,,,,,,295,-330,-330,,295,295,USA,1,
Jonathan Gade,48,M,Single-ply,M_MES_2_WPC,SBD,123.2,125,160,-197.5,-197.5,,160,192.5,-205,,,192.5,150,-185,185,,185,537.5,USA,2,
Jonathan Gade,48,M,Single-ply,M_OES_WPC,SBD,123.2,125,160,-197.5,-197.5,,160,192.5,-205,,,192.5,150,-185,185,,185,537.5,USA,4,
Jonathan Gade,48,M,Single-ply,M_MES_2_WPC,B,123.2,125,,,,,,192.5,-205,,,192.5,,,,,,192.5,USA,1,
Jonathan Gade,48,M,Single-ply,M_OES_WPC,B,123.2,125,,,,,,192.5,-205,,,192.5,,,,,,192.5,USA,3,
Jonathan Gade,48,M,Single-ply,M_MES_2_WPC,D,123.2,125,,,,,,,,,,,150,-185,185,,185,185,USA,1,
Jonathan Gade,48,M,Single-ply,M_OES_WPC,D,123.2,125,,,,,,,,,,,150,-185,185,,185,185,USA,4,
Joni Kivelä,25,M,Raw,M_OR,B,99.8,100,,,,,,190,200,-202.5,,200,,,,,,200,Finland,4,
Joni Kivelä,25,M,Raw,M_OR_WPC,D,99,100,,,,,,,,,,,280,290,302.5,,302.5,302.5,Finland,3,
Jonna Ijäs,27,F,Raw,F_OR_WPC,D,58.8,60,,,,,,,,,,,125,140,147.5,,147.5,147.5,Finland,2,
Jordan Fowler,26,M,Raw,M_OR_WPC,D,82.4,82.5,,,,,,,,,,,217.5,237.5,265,,265,265,USA,1,
Jose Bermejo,31,M,Wraps,M_OR_WPC,SBD,81.2,82.5,-185,-192.5,200,,200,130,137.5,-142.5,,137.5,-227.5,227.5,-232.5,,227.5,565,Colombia,4,
Jose Garcia,37,M,Multi-ply,M_OEM_WPC,SBD,115.2,125,-440,-440,440,,440,282.5,-297.5,-297.5,,282.5,337.5,-365,,,337.5,1060,USA,2,
Jose Hernandez,26,M,Single-ply,M_OES_WPC,SBD,135,140,300,320,-327.5,,320,190,205,-215,,205,302.5,-315.5,315.5,,315.5,840.5,USA,1,
Joseph Cornich,51,M,Wraps,M_MR_3_WPC,SBD,74.6,75,170,187.5,202.5,,202.5,117.5,132.5,140,,140,217.5,232.5,250,,250,592.5,USA,1,
Joseph Mobley,18,M,Raw,M_TR_3,B,87.4,90,,,,,,155,162.5,-165,,162.5,,,,,,162.5,USA,1,
Joseph Sonntag,24,M,Single-ply,M_OES_WPC,SBD,99.8,100,335,365,-372.5,,365,227.5,-242.5,-245,,227.5,275,-292.5,-292.5,,275,867.5,USA,3,
Juan Salazar,21,M,Single-ply,M_JES_WPC,SBD,60,60,165,175,185,,185,-105,-110,110,,110,170,-182.5,190,,190,485,Colombia,1,
Julie Termeer,43,F,Wraps,F_MR_1_WPC,SBD,82,82.5,105,-115,-125,,105,60,65,-70,,65,62.5,102.5,137.5,,137.5,307.5,USA,1,
Julie Termeer,43,F,Raw,F_MR_1_WPC,D,87.8,90,,,,,,,,,,,135,140,145,,145,145,USA,1,
Kairevicius Virginijus,54,M,Single-ply,M_MES_3_WPC,B,133.2,140,,,,,,190,210,,,210,,,,,,210,Latvia,2,
Kalle Ylitalo-James,31,M,Multi-ply,M_OEM_WPC,B,109.6,110,,,,,,-305,-305,-305,,,,,,,,,Finland,DQ,
Kamil Grim,45,M,Multi-ply,M_MEM_2_WPC,B,105.8,110,,,,,,225,240,-245,,240,,,,,,240,Czechia,1,
Kamil Grim,45,M,Raw,M_MR_2,B,105.8,110,,,,,,160,,,,160,,,,,,160,Czechia,2,
Karen Markling,66,F,Raw,F_MR_6_WPC,D,64,67.5,,,,,,,,,,,150,162.5,172.5,182.5,172.5,172.5,USA,1,
Kathy Walsh,48,F,Wraps,F_MR_2_WPC,SBD,88.8,90,125,-137.5,137.5,,137.5,62.5,-72.5,-72.5,,62.5,137.5,147.5,155,,155,355,USA,1,
Kathy Wetenhall,61,F,Single-ply,F_MES_5_WPC,B,81.8,82.5,,,,,,87.5,92.5,-95,,92.5,,,,,,92.5,USA,1,
Kathy Wetenhall,61,F,Raw,F_MR_5_WPC,B,81.6,82.5,,,,,,70,75,-80,,75,,,,,,75,USA,1,
Kayla Ellers,23,F,Wraps,F_JR_WPC,SBD,63.8,67.5,100,110,115,,115,60,-65,67.5,,67.5,117.5,130,140,,140,322.5,USA,1,
Kayla James,14,F,Multi-ply,F_TEM_1_WPC,SBD,86.2,90,-110,117.5,-135,,117.5,60,65,-72.5,,65,97.5,-110,110,,110,292.5,USA,1,
Ken Richardson,55,M,Multi-ply,M_MEM_4_WPC,SBD,94.4,100,272.5,292.5,-320,,292.5,-220,-220,227.5,,227.5,272.5,-292.5,,,272.5,792.5,USA,1,
Ken Whetham,49,M,Multi-ply,M_MEM_2_WPC,SBD,122,125,365,385,-400,,385,232.5,242.5,-250,,242.5,285,310,-325,,310,937.5,Canada,1,
Kenneth Moore,55,M,Multi-ply,M_MEM_4_WPC,B,87.2,90,,,,,,-200,-200,-200,,,,,,,,,USA,DQ,
Kenneth Moore,55,M,Multi-ply,M_MEM_4_WPC,B,89.2,90,,,,,,-217.5,-217.5,-217.5,,,,,,,,,USA,DQ,
Kent Spires,43,M,Single-ply,M_MES_1_WPC,B,89.6,90,,,,,,225,-250,250,,250,,,,,,250,USA,1,
Kent Spires,43,M,Single-ply,M_OES_WPC,B,89.6,90,,,,,,225,-250,250,,250,,,,,,250,USA,2,
Kent Spires,43,M,Raw,M_MR_1,B,89.4,90,,,,,,225,230,-235,,230,,,,,,230,USA,1,
Kim Stabile,28,F,Wraps,F_OR_WPC,SBD,89.4,90,97.5,107.5,-112.5,,107.5,75,82.5,-85,,82.5,107.5,120,125,,125,315,USA,6,
Kimberly Eastin,44,F,Single-ply,F_MES_1_WPC,SBD,116.2,90+,155,-157.5,-157.5,,155,-117.5,120,-122.5,,120,160,165,-170,,165,440,USA,1,
Kimberly Eastin,44,F,Single-ply,F_OES_WPC,SBD,116.2,90+,155,-157.5,-157.5,,155,-117.5,120,-122.5,,120,160,165,-170,,165,440,USA,1,
Sarah Edgar King,37,F,Wraps,F_OR_WPC,SBD,63.8,67.5,145,-152.5,152.5,,152.5,85,90,-95,,90,165,-180,180,,180,422.5,UK,2,
Kjeld Mohr,17,M,Wraps,M_TR_2_WPC,SBD,73.2,75,110,-117.5,120,,120,85,90,92.5,,92.5,202.5,215,220,222.5,220,432.5,Germany,1,
Kjeld Mohr,17,M,Raw,M_OR_WPC,D,72.4,75,,,,,,,,,,,200,-220,-220,,200,200,Germany,5,
Kjeld Mohr,17,M,Raw,M_TR_2_WPC,D,72.4,75,,,,,,,,,,,200,-220,-220,,200,200,Germany,1,
Kjell NOR Nyhagebraten,48,M,Multi-ply,M_MEM_2_WPC,SBD,105.4,110,-335,-340,340,,340,200,210,-215,,210,300,-310,,,300,850,USA,1,
Kjell Nyhagebråten,48,M,Multi-ply,M_MEM_2_WPC,D,105.6,110,,,,,,,,,,,280,300,-320,,300,300,Norway,1,
Klaus Krüger,62,M,Multi-ply,M_MEM_5_WPC,B,88.4,90,,,,,,170,180,185,,185,,,,,,185,Germany,1,
Konstantin Koshechkin,41,M,Raw,M_MR_1,B,99.4,100,,,,,,210,217.5,220,,220,,,,,,220,Russia,1,
Konstantin Koshechkin,41,M,Raw,M_OR,B,99.4,100,,,,,,210,217.5,220,,220,,,,,,220,Russia,1,
Krista Ford,48,F,Multi-ply,F_OEM_WPC,SBD,81,82.5,-240,250,260,,260,107.5,-115,115,,115,185,195,207.5,,207.5,582.5,USA,2,
Kristyna Hrvzova,28,F,Raw,F_OR_WPC,B,63.8,67.5,,,,,,65,70,-75,,70,,,,,,70,Czechia,3,
Ksenia Gunina,28,F,Single-ply,F_OES_WPC,SBD,67.4,67.5,110,120,130,,130,70,-75,80,,80,110,125,132.5,,132.5,342.5,Russia,1,
Kyler Ferrel Clegg,16,M,Single-ply,M_TES_2_WPC,SBD,57.4,60,-75,80,-85,,80,80,85,-90,,85,125,130,137.5,148,137.5,302.5,USA,1,
Larisa Gvozdeva,49,F,Raw,F_OR_WPC,B,58.6,60,,,,,,95,100,-102.5,,100,,,,,,100,Russia,2,
Larry Bucchioni,65,M,Raw,M_MR_6_WPC,D,103.6,110,,,,,,,,,,,185,210,-230,,210,210,USA,1,
Larry Mistric,58,M,Multi-ply,M_MEM_4_WPC,SBD,108.5,110,315,-345,-372.5,,315,217.5,-245,245,,245,230,-262.5,,,230,790,USA,1,
Lauris Gabrāns,32,M,Wraps,M_OR_WPC,SBD,125.2,140,290,310,,,310,215,225,-230,,225,280,300,-310,,300,835,Latvia,3,
Lee Andrelyon,20,M,Multi-ply,M_JEM_WPC,SBD,134.2,140,-390,,,,,,,,,,,,,,,,USA,DQ,
Lee Lichtle,70,M,Single-ply,M_MES_7_WPC,B,74.8,75,,,,,,-142.5,142.5,-147.5,,142.5,,,,,,142.5,USA,1,
Lee Lichtle,70,M,Single-ply,M_OES_WPC,B,74.8,75,,,,,,-142.5,142.5,-147.5,,142.5,,,,,,142.5,USA,1,
Lee Lichtle,70,M,Multi-ply,M_MEM_7_WPC,B,74.2,75,,,,,,140,145,150,152.5,150,,,,,,150,USA,1,
Lee Lichtle,70,M,Raw,M_MR_7_WPC,B,74.2,75,,,,,,110,115,-120,,115,,,,,,115,USA,1,
Lee Tevaughn,19,M,Multi-ply,M_TEM_3_WPC,SBD,144.8,140+,-350,-350,350,,350,185,195,205,,205,265,-275,285,,285,840,USA,1,
Lee Titmus,26,M,Wraps,M_OR_WPC,SBD,95.2,100,220,235,-245,,235,135,150,-160,,150,255,275,-290,,275,660,UK,5,
Levi Bamber,21,M,Multi-ply,M_JEM_WPC,SBD,74.4,75,270,280,-297.5,,280,-205,205,-215,,205,227.5,245,-275,,245,730,USA,1,
Lisa Foreman,46,F,Wraps,F_MR_2_WPC,SBD,66.4,67.5,102.5,110,-115,,110,85,87.5,92.5,,92.5,137.5,145,-150,,145,347.5,USA,1,
Lisa Rothman,39,F,Raw,F_OR_WPC,SBD,47.2,48,102.5,105.5,110,-117.5,110,65,67.5,-70,,67.5,145,150,155,-163,155,332.5,USA,1,
Lkhamnorjmaa Badmaadorj,23,F,Wraps,F_JR_WPC,SBD,60,60,107.5,115,122.5,,122.5,62.5,67.5,72.5,,72.5,162.5,-167.5,-167.5,,162.5,357.5,Mongolia,1,
Lkhamnurjmaa Badmaadorj,23,F,Single-ply,F_JES_WPC,SBD,59.2,60,-180,180,190,,190,80,90,100,,100,175,-190,-190,,175,465,Mongolia,1,
Lkhamnurjmaa Badmaadorj,23,F,Single-ply,F_OES_WPC,SBD,59.2,60,-180,180,190,,190,80,90,100,,100,175,-190,-190,,175,465,Mongolia,1,
Luciana Schement,17,F,Wraps,F_TR_2_WPC,SBD,54.4,56,82.5,87.5,92.5,,92.5,-52.5,52.5,55,-58,55,115,130,140,145.5,140,287.5,USA,1,
Luis Bermejo,34,M,Wraps,M_OR_WPC,SBD,73.4,75,195,210,222.5,,222.5,130,140,150,,150,250,262.5,-270,,262.5,635,Colombia,2,
Lundgaard Aaron,40,M,Wraps,M_MR_1_WPC,SBD,108.4,110,-225,235,245,,245,175,-185,-185,,175,230,-252.5,-255,,230,650,USA,2,
Lupe Coronado,54,M,Multi-ply,M_MEM_3_WPC,SBD,74.8,75,210,-227.5,227.5,,227.5,155,165,-180,,165,210,-227.5,227.5,,227.5,620,USA,1,
Lutfullayev Timur,26,M,Multi-ply,M_OEM_WPC,SBD,100.8,110,150,,,,150,150,,,,150,150,,,,150,450,Kazakhstan,5,
Lynne Boshoven,57,F,Single-ply,F_MES_4_WPC,SBD,80.4,82.5,-160,160,170,,170,95,102.5,105,,105,-190,-190,190,,190,465,USA,1,
Lynne Boshoven,57,F,Wraps,F_MR_4_WPC,SBD,80.6,82.5,137.5,,,,137.5,92.5,100,,,100,170,182.5,192.5,,192.5,430,USA,1,
Magnus Radala,16,M,Wraps,M_TR_2_WPC,SBD,93.4,100,180,187.5,197.5,-205,197.5,95,105,115,,115,215,237.5,252.5,,252.5,565,USA,1,
Makhail Mikhailov,13,M,Raw,M_TR_1_WPC,B,57.6,60,,,,,,47.5,55,60,,60,,,,,,60,Russia,1,
Maksim Maslennikov,23,M,Wraps,M_JR_WPC,SBD,112.4,125,290,300,310,,310,200,210,-215,,210,300,310,-325,,310,830,Russia,1,
Marc Tejero,36,M,Multi-ply,M_OEM_WPC,SBD,66.4,67.5,275,292.5,-320,,292.5,182.5,-192.5,192.5,,192.5,-247.5,247.5,-265,,247.5,732.5,USA,1,
Margaret Kirkland,51,F,Multi-ply,F_MEM_3_WPC,SBD,54.2,56,152.5,172.5,190,,190,102.5,112.5,-117.5,,112.5,152.5,175,185,,185,487.5,USA,1,
Maria Yultsova,32,F,Wraps,F_OR_WPC,SBD,59.4,60,80,85,-90,,85,65,70,-72.5,,70,130,140,145,,145,300,Russia,1,
Marianna Gasparyan,25,F,Raw,F_OR_WPC,SBD,59.6,60,180,200,205,,205,100,110,115,,115,170,180,190,,190,510,Kazakhstan,1,
Marianna Gasparyan,25,F,Raw,F_OR_WPC,D,59.8,60,,,,,,,,,,,130,160,,,160,160,Kazakhstan,1,
Mario D'Amico,22,M,Multi-ply,M_JEM_WPC,SBD,98.8,100,310,-325,-325,,310,210,-220,-220,,210,-260,272.5,-290,,272.5,792.5,USA,2,
Marisa Franco,24,F,Wraps,F_OR_WPC,SBD,55.8,56,125,130,-137.5,,130,-65,70,-80,,70,135,142.5,150,,150,350,Portugal,2,
Marisa Franco,23,F,Raw,F_OR_WPC,D,55.8,56,,,,,,,,,,,140,147.5,155,,155,155,Portugal,1,
Markus Veirs,52,M,Multi-ply,M_MEM_3_WPC,B,81.2,82.5,,,,,,-205,205,210,-228,210,,,,,,210,USA,1,
Martin Fuehrer,44,M,Raw,M_MR_1,B,105.6,110,,,,,,130,-140,140,,140,,,,,,140,Austria,6,
Marty Caliendo,62,M,Multi-ply,M_MEM_5_WPC,SBD,77.6,82.5,172.5,182.5,-197.5,,182.5,115,125,137.5,,137.5,172.5,185,197.5,,197.5,517.5,USA,2,
Marvin Coleman,46,M,Multi-ply,M_OEM_WPC,B,89.4,90,,,,,,-282.5,-295,-295,,,,,,,,,USA,DQ,
Marvin Mann,54,M,Wraps,M_MR_3_WPC,SBD,96.2,100,210,230,-250,,230,150,165,-175,,165,210,240,250,,250,645,USA,1,
Matt Levine,27,M,Single-ply,M_OES_WPC,SBD,91.6,100,-325,325,340,,340,190,202.5,-205,,202.5,262.5,-282.5,290,,290,832.5,USA,4,
Matt McDonald,36,M,Raw,M_OR,B,106.2,110,,,,,,-187.5,-192.5,-192.5,,,,,,,,,USA,DQ,
Matt Minuth,33,M,Multi-ply,M_OEM_WPC,SBD,97.8,100,390,412.5,-425,,412.5,352.5,377.5,-387.5,,377.5,307.5,327.5,342.5,,342.5,1132.5,USA,1,
Matthew Brimer,26,M,Wraps,M_OR_WPC,SBD,159,140+,285,-292.5,,,285,190,-197.5,-197.5,,190,-332.5,-332.5,332.5,,332.5,807.5,USA,2,
Matthew Dufree,23,M,Raw,M_JR_WPC,B,73.6,75,,,,,,-150,-150,-150,,,,,,,,,USA,DQ,
Matthew Dufree,23,M,Raw,M_OR_WPC,B,73.6,75,,,,,,-150,-150,-150,,,,,,,,,USA,DQ,
Matt Wallace,20,M,Wraps,M_JR_WPC,SBD,67.4,67.5,142.5,-157.5,157.5,,157.5,100,115,-120,,115,185,205,215,-235.5,215,487.5,USA,1,
Matthew Walsh,51,M,Raw,M_MR_3,B,98,100,,,,,,170,175,180,,180,,,,,,180,USA,2,
Maxim Piskunov,32,M,Multi-ply,M_OEM_WPC,SBD,90,90,375,-390,390,,390,-240,240,-250,,240,-300,300,-310,,300,930,Russia,2,
Maxim Tokarenko,25,M,Wraps,M_OR_WPC,SBD,82.2,82.5,190,-200,205,,205,160,165,-175,,165,-270,-270,-270,,,,Kazakhstan,DQ,
Maxim Tokarenko,25,M,Raw,M_OR_WPC,D,82.4,82.5,,,,,,,,,,,230,245,-267.5,,245,245,Kazakhstan,3,
Melinda Fischl,42,F,Single-ply,F_MES_1_WPC,SBD,97.6,90+,-147.5,147.5,-165,,147.5,-80,80,-87.5,,80,162.5,170,-182.5,,170,397.5,USA,2,
Melissa D'Errico,33,F,Single-ply,F_OES_WPC,SBD,125.8,90+,120,130,137.5,-142.5,137.5,105,122.5,-135,,122.5,112.5,120,130,132.5,130,390,USA,2,
Mia Kukkonen,43,F,Wraps,F_MR_1_WPC,SBD,58,60,90,100,115,,115,55,60,-62.5,,60,110,125,135,,135,310,Finland,1,
Mia Kukkonen,43,F,Raw,F_MR_1_WPC,D,58.2,60,,,,,,,,,,,120,130,140,,140,140,Finland,1,
Michael Brown,29,M,Wraps,M_OR_WPC,SBD,138.6,140,282.5,295,305,,305,-220,220,232.5,,232.5,295,307.5,315,,315,852.5,USA,2,
Michael Goeck,46,M,Wraps,M_MR_2_WPC,SBD,104.4,110,190,210,220,,220,150,160,170,,170,220,240,-250,,240,630,Germany,4,
Michael Krause,46,M,Raw,M_MR_2_WPC,B,82,82.5,,,,,,182.5,190,195,200,195,,,,,,195,Canada,1,
Michael Krause,46,M,Raw,M_OR_WPC,B,82,82.5,,,,,,182.5,190,195,200,195,,,,,,195,Canada,1,
Michael Larsen,55,M,Multi-ply,M_MEM_4_WPC,SBD,80.6,82.5,-147.5,170,-185,,170,-82.5,-82.5,-82.5,,,,,,,,,USA,DQ,
Michael Matlock,42,M,Single-ply,M_MES_1_WPC,SBD,99,100,-277.5,-282.5,-282.5,,,-190,,,,,,,,,,,USA,DQ,
Michael Megler,16,M,Single-ply,M_TES_2_WPC,SBD,73.4,75,140,155,165,167.5,165,87.5,95,100,102.5,100,185,195,200,205,200,465,USA,1,
Michael Phipps,35,M,Raw,M_OR_WPC,B,64.2,67.5,,,,,,97.5,-105,-105,,97.5,,,,,,97.5,UK,3,
Michael Schrott,42,M,Wraps,M_OR_WPC,SBD,128.8,140,290,300,310,,310,190,205,210,,210,290,300,-305,,300,820,Germany,4,
Michael Shealy,62,M,Single-ply,M_MES_5_WPC,SBD,106.4,110,185,-220,222.5,,222.5,140,157.5,165,,165,175,-202.5,202.5,,202.5,590,USA,1,
Michael Steck,57,M,Multi-ply,M_MEM_4_WPC,SBD,88.6,90,-275,275,-295,,275,-170,170,-190,,170,225,230,-235,,230,675,USA,1,
Miguel Ruelan,44,M,Multi-ply,M_MEM_1_WPC,B,74.8,75,,,,,,200,205,,,205,,,,,,205,USA,1,
Miguel Ruelan,44,M,Multi-ply,M_OEM_WPC,B,74.6,75,,,,,,100,195,200,,200,,,,,,200,USA,1,
Mike Pascarella,50,M,Wraps,M_MR_3_WPC,SBD,120.6,125,-220,230,-237.5,,230,137.5,150,-157.5,,150,227.5,242.5,-260,,242.5,622.5,USA,3,
Mike Shealy,62,M,Wraps,M_MR_5_WPC,SBD,106,110,160,-172.5,-177.5,,160,130,137.5,142.5,147.5,142.5,175,-197.5,,,175,477.5,USA,2,
Mike Strom,34,M,Multi-ply,M_OEM_WPC,SBD,88.2,90,-327.5,-327.5,-327.5,,,,,,,,,,,,,,USA,DQ,
Mike Webber,44,M,Multi-ply,M_MEM_1_WPC,B,123,125,,,,,,-290,-290,-290,,,,,,,,,Canada,DQ,
Mike Wider,67,M,Wraps,M_MR_7_WPC,SBD,65.6,67.5,-107.5,107.5,117.5,125,117.5,72.5,82.5,87.5,,87.5,167.5,182.5,192.5,,192.5,397.5,USA,1,
Mikhail Grinko,36,M,Raw,M_OR_WPC,D,108.6,110,,,,,,,,,,,-300,,,,,,Russia,DQ,
Mikhail Grinko,36,M,Multi-ply,M_OEM_WPC,D,108.6,110,,,,,,,,,,,-280,-280,280,,280,280,Russia,2,
Mindy Schwartz,58,F,Wraps,F_MR_4_WPC,SBD,95.6,90+,82.5,-87.5,-87.5,,82.5,52.5,-55,55,-57.5,55,122.5,132.5,140,142.5,140,277.5,USA,1,
Mindy Schwartz,58,F,Raw,F_OR_WPC,D,,,,,,,,,,,,,,,,,,,USA,DQ,
Mitch Horrocks,20,M,Wraps,M_JR_WPC,SBD,70.4,75,170,-185,190,,190,110,120,-130,,120,240,-255,-260,,240,550,UK,1,
Mitch Horrocks,20,M,Raw,M_JR_WPC,D,71.8,75,,,,,,,,,,,240,-255,-255,,240,240,UK,1,
Mushvig Aliyev,36,M,Wraps,M_OR_WPC,SBD,67.2,67.5,180,200,210,,210,140,150,-152.5,,150,200,-217.5,-217.5,,200,560,Azerbaijan,2,
Nadena Vlasova,32,F,Raw,F_OR_WPC,B,60,60,,,,,,100,105,-112.5,,105,,,,,,105,Russia,1,
Nelly Herrmann,69,F,Raw,F_MR_6_WPC,B,66.6,67.5,,,,,,-52.5,55,57.5,-58,57.5,,,,,,57.5,Switzerland,1,
Nephi Solorzano,23,M,Multi-ply,M_JEM_WPC,SBD,111.4,125,302.5,327.5,-347.5,,327.5,-210,210,227.5,,227.5,247.5,267.5,285,,285,840,USA,1,
Nia Henderson,28,F,Raw,F_OR_WPC,B,117.6,90+,,,,,,115,120,125,,125,,,,,,125,USA,1,
Nicholas Bronkall,28,M,Wraps,M_OR_WPC,SBD,107.2,110,225,240,250,,250,142.5,150,-160,,150,-265,-265,-265,,,,USA,DQ,
Nicholas Strauss,16,M,Wraps,M_TR_2_WPC,SBD,139.2,140,-160,175,182.5,187.5,182.5,102.5,115,125,-137.5,125,185,205,-227.5,,205,512.5,USA,1,
Niclas Friberg,40,M,Multi-ply,M_MEM_1_WPC,D,97.2,100,,,,,,,,,,,280,-300.5,-300.5,,280,280,Sweden,1,
Nikolai Altunin,37,M,Single-ply,M_OES_WPC,SBD,74.6,75,240,265,280,,280,165,175,-180,,175,245,255,-260,,255,710,Russia,2,
Nikolai Fesaniuk,30,M,Wraps,M_OR_WPC,SBD,121.8,125,330,355,-362.5,,355,200,210,215,,215,330,360,370,,370,940,Russia,1,
Nikolai Sokolov,35,M,Wraps,M_OR_WPC,SBD,75,75,210,230,240,250,240,160,170,175,-180,175,255,285,300,-307.5,300,715,Russia,1,
Nikolai Sokolov,35,M,Multi-ply,M_OEM_WPC,D,75,75,,,,,,,,,,,275,295,-317.5,,295,295,Russia,1,
Nikolay Iov,24,M,Raw,M_OR_WPC,D,139.6,140,,,,,,,,,,,220,240,262.5,,262.5,262.5,Russia,2,
Nina Hebeler,30,F,Wraps,F_OR_WPC,SBD,66.6,67.5,90,95,-97.5,,95,-70,70,-75,,70,147.5,152.5,-157.5,,152.5,317.5,USA,5,
Nina Henderson,28,F,Raw,F_OR_WPC,D,118.2,90+,,,,,,,,,,,185,200,210,220,210,210,USA,1,
Norm Cairl,54,M,Multi-ply,M_MEM_3_WPC,SBD,104.2,110,-325,-340,-340,,,,,,,,,,,,,,USA,DQ,
Oleg Gevko,23,M,Wraps,M_JR_WPC,SBD,97.8,100,250,270,285,,285,185,200,207.5,,207.5,300,320,-332.5,,320,812.5,Russia,1,
Oleg Kholodov,52,M,Single-ply,M_MES_3_WPC,SBD,105.8,110,210,-230,230,,230,175,190,,,190,190,210,230,,230,650,Russia,1,
Oleg Korotaev,49,M,Single-ply,M_MES_2_WPC,SBD,107,110,190,200,210,,210,-160,160,170,,170,200,210,215,,215,595,Russia,2,
Oleg Korotaev,49,M,Raw,M_MR_2_WPC,D,107,110,,,,,,,,,,,180,200,220,,220,220,Russia,1,
Oliver Dorsch,41,M,Wraps,M_MR_1_WPC,SBD,131.2,140,270,280,-290,,280,170,180,-185,,180,270,285,290,,290,750,Germany,2,
Oskari Lehtinen,25,M,Multi-ply,M_OEM_WPC,SBD,99.2,100,-380,380,-390,,380,280,-285,,,280,-280,280,305,,305,965,Finland,3,
Otto Jarvis,18,M,Wraps,M_TR_3_WPC,SBD,98.2,100,205,220,-227.5,,220,165,170,-175,,170,215,227.5,240,,240,630,USA,2,
Ovechko Ruslan,37,M,Wraps,M_OR_WPC,SBD,116.4,125,290,-300,-300,,290,190,200,,,200,300,-317.5,-320,,300,790,Ukraine,4,
Pascal Bouquillon,49,M,Wraps,M_MR_2_WPC,SBD,97,100,200,220,-230,,220,180,200,-205,,200,200,220,-250,,220,640,France,2,
Pascal Bouquillon,49,M,Raw,M_MR_2,B,96.2,100,,,,,,170,-190,,,170,,,,,,170,France,3,
Patric Rollot,49,M,Multi-ply,M_MEM_2_WPC,SBD,89.5,90,250,-270,,,250,180,-250,,,180,200,,,,200,630,USA,2,
Paul Fury,38,M,Wraps,M_OR_WPC,SBD,137.8,140,205,-242.5,-260,,205,172.5,-240,,,172.5,150,,,,150,527.5,Canada,7,
Paul Fury,38,M,Raw,M_OR,B,139.2,140,,,,,,92.5,,,,92.5,,,,,,92.5,Canada,3,
Paul Fury,38,M,Raw,M_OR_WPC,D,142.4,140+,,,,,,,,,,,227.5,-272.5,272.5,,272.5,272.5,Canada,1,
Paulina Castaneda,19,F,Wraps,F_TR_3_WPC,SBD,54.8,56,95,105,-110,,105,45,55,-60,,55,100,115,130,-140,130,290,Colombia,1,
Paulo Santos #1,25,M,Multi-ply,M_OEM_WPC,D,95.8,100,,,,,,,,,,,280,300,320,,320,320,Portugal,2,
Paulo Santos #1,25,M,Multi-ply,M_OEM_WPC,SBD,97.6,100,290,-315,315,,315,190,215,220,,220,300,310,320,,320,855,Portugal,4,
Pavel Redkin,29,M,Raw,M_OR,B,118.2,125,,,,,,220,230,235,,235,,,,,,235,Russia,4,
Pedro Claro,48,M,Raw,M_MR_2_WPC,B,74.2,75,,,,,,120,130,-135,,130,,,,,,130,Portugal,1,
Pedro Verdezoto,43,M,Raw,M_MR_1_WPC,B,79.6,82.5,,,,,,155,-165,-165,,155,,,,,,155,Ecuador,1,
Peter Diethalm,40,M,Raw,M_MR_1,B,119.8,125,,,,,,202.5,212.5,217.5,,217.5,,,,,,217.5,Switzerland,1,
Peter Herrmann,72,M,Single-ply,M_MES_7_WPC,B,81.2,82.5,,,,,,-117.5,,,,,,,,,,,Switzerland,DQ,
Peter Herrmann,72,M,Multi-ply,M_MEM_7_WPC,B,80.8,82.5,,,,,,115,-120,120,,120,,,,,,120,Czechia,1,
Peter Herrmann,72,M,Raw,M_MR_7_WPC,B,80.8,82.5,,,,,,105,-110,,,105,,,,,,105,Czechia,1,
Peter Puczko,41,M,Raw,M_MR_1_WPC,D,89,90,,,,,,,,,,,200,215,-227.5,,215,215,USA,1,
Petra Halovzkova,27,F,Raw,F_OR_WPC,B,76.2,82.5,,,,,,45,52.5,-62.5,,52.5,,,,,,52.5,Czechia,1,
Petteri Hosio Henrik,35,M,Single-ply,M_OES_WPC,SBD,122.4,125,300,315,330,,330,-300,300,-310,,300,280,300,315,,315,945,Finland,1,
Petteri Hosio Henrik,35,M,Multi-ply,M_OEM_WPC,B,123.4,125,,,,,,340,-355,365,,365,,,,,,365,Finland,1,
Pilar Calderon,20,F,Wraps,F_JR_WPC,SBD,55.8,56,82.5,90,-97.5,,90,45,50,-52.5,,50,100,110,120,,120,260,Colombia,1,
Pinto Helder,21,M,Wraps,M_JR_WPC,SBD,79.8,82.5,185,-200,200,,200,100,-110,-110,,100,200,220,240,,240,540,Portugal,3,
Precious Collins,23,F,Wraps,F_JR_WPC,SBD,74.8,75,130,135,-140,,135,72.5,75,-80,,75,150,155,-157.5,,155,365,UK,1,
Rachel Zipsie,44,F,Wraps,F_OR_WPC,SBD,115,90+,80,92.5,105,,105,45,57.5,60,,60,125,147.5,162.5,,162.5,327.5,USA,1,
Rachel Zipsie,44,F,Raw,F_MR_1_WPC,D,115.8,90+,,,,,,,,,,,125,152.5,167.5,-170,167.5,167.5,USA,1,
Rachel Zipsie,44,F,Raw,F_OR_WPC,D,115.8,90+,,,,,,,,,,,125,152.5,167.5,-170,167.5,167.5,USA,2,
Raul Amil,51,M,Raw,M_MR_3_WPC,D,74.2,75,,,,,,,,,,,172.5,187.5,200,,200,200,Argentina,1,
Reinis Kindzulis,21,M,Raw,M_JR,B,113.2,125,,,,,,225,240,252.5,,252.5,,,,,,252.5,Latvia,1,
Rene Esquilin Padilla,32,M,Single-ply,M_OES_WPC,SBD,103.6,110,-227.5,-230,-230,,,-140,,,,,,,,,,,USA,DQ,
Reno Karkuschke,46,M,Single-ply,M_MES_2_WPC,D,59.6,60,,,,,,,,,,,145,155,162.5,165,162.5,162.5,Germany,1,
Reno Karkuschke,46,M,Single-ply,M_OES_WPC,D,59.6,60,,,,,,,,,,,145,155,162.5,-165,162.5,162.5,Germany,1,
Reno Karkuschke,46,M,Multi-ply,M_OEM_WPC,B,59.8,60,,,,,,-100,100,-102.5,,100,,,,,,100,Germany,1,
Reno Karkuschke,46,M,Multi-ply,M_MEM_2_WPC,D,59.8,60,,,,,,,,,,,145,155,160,-162.5,160,160,Germany,1,
Reno Karkuschke,46,M,Multi-ply,M_OEM_WPC,D,59.8,60,,,,,,,,,,,145,155,160,-162.5,160,160,Germany,1,
Ricardo Monteiro,27,M,Raw,M_OR_WPC,D,89,90,,,,,,,,,,,260,-272.5,-272.5,,260,260,Portugal,2,
Richard Flores #1,76,M,Multi-ply,M_MEM_8_WPC,SBD,72,75,137.5,155,160,,160,60,70,75,,75,147.5,170,-193,,170,405,USA,1,
Richard Ligier,38,M,Multi-ply,M_OEM_WPC,B,148.6,140+,,,,,,-480,-500.5,-520,,,,,,,,,France,DQ,
Richard Singh,25,M,Multi-ply,M_OEM_WPC,B,153.2,140+,,,,,,-410,-410,-420,,,,,,,,,Canada,DQ,
Rick Colwell,40,M,Raw,M_MR_1,B,117.8,125,,,,,,142.5,152.5,162.5,,162.5,,,,,,162.5,USA,3,
Rick Lawrence,49,M,Multi-ply,M_MEM_2_WPC,SBD,109.8,110,307.5,320,-337.5,,320,250,-262.5,-262.5,,250,237.5,250,-282.5,,250,820,USA,2,
Robert Bierschbach,46,M,Single-ply,M_MES_2_WPC,SBD,135.5,140,270,285,300,,300,200,-210,210,,210,232.5,247.5,262.5,,262.5,772.5,USA,1,
Robert DePrez,65,M,Multi-ply,M_MEM_6_WPC,SBD,102.6,110,75,92.5,97.5,,97.5,55,65,-75,,65,112.5,125,140,,140,302.5,USA,1,
Robert Mattison,77,M,Wraps,M_MR_8_WPC,SBD,66.6,67.5,65,75,80,,80,90,95,-97.5,,95,155,-160.5,160.5,,160.5,335.5,USA,1,
Robert Palmer #1,40,M,Raw,M_MR_1,B,104.4,110,,,,,,-147.5,147.5,157.5,,157.5,,,,,,157.5,USA,5,
Roman Denikaev,59,M,Wraps,M_MR_4_WPC,SBD,99.8,100,160,-180,-180,,160,120,-130,130,,130,180,190,-200,,190,480,Russia,1,
Roman Denikaev,59,M,Raw,M_MR_4,B,99.6,100,,,,,,125,135,140,,140,,,,,,140,Russia,2,
Roman Durnov,28,M,Single-ply,M_OES_WPC,SBD,82,82.5,270,285,-292.5,,285,-190,-190,-190,,,,,,,,,Azerbaijan,DQ,
Ron Pestenski,51,M,Single-ply,M_MES_3_WPC,D,123.8,125,,,,,,,,,,,-247.5,-247.5,,,,,USA,DQ,
Ronald Crawford,81,M,Raw,M_MR_9_WPC,B,54.4,56,,,,,,-65,-65,-65,,,,,,,,,USA,DQ,
Ross Arnold,67,M,Wraps,M_MR_6_WPC,SBD,106.4,110,115,127.5,132.5,,132.5,125,132.5,137.5,,137.5,165,180,190,,190,460,USA,1,
Roy Holte,43,M,Raw,M_MR_1_WPC,D,,,,,,,,,,,,,,,,,,,Norway,DQ,
Roy Holte,43,M,Raw,M_OR_WPC,D,,,,,,,,,,,,,,,,,,,Norway,DQ,
Ruben Mahecha,36,M,Single-ply,M_OES_WPC,SBD,89.8,90,-300,320,335,,335,185,200,210,,210,250,-260,-265,,250,795,Colombia,1,
Ruben Oliveira,33,M,Raw,M_OR,B,88.6,90,,,,,,160,170,180,,180,,,,,,180,Portugal,5,
Ruben Oliveira,33,M,Raw,M_OR_WPC,D,89.4,90,,,,,,,,,,,190,225,-245,,225,225,Portugal,3,
Rudy Ruettiger,60,M,Multi-ply,M_MEM_5_WPC,SBD,81.8,82.5,227.5,-250,-250,,227.5,102.5,155,-162.5,,155,205,227.5,232.5,,232.5,615,USA,1,
Rufat Agayev,39,M,Multi-ply,M_OEM_WPC,SBD,124,125,-480,-480,480,,480,275,282.5,-290,,282.5,340,360,,,360,1122.5,Azerbaijan,1,
Ruslan Mirzoev,30,M,Raw,M_OR_WPC,B,73,75,,,,,,145,-150,-150,,145,,,,,,145,Russia,3,
Ruslan Ovechko,37,M,Multi-ply,M_OEM_WPC,D,114.4,125,,,,,,,,,,,300,315,-322.5,,315,315,Ukraine,1,
Rustam Musayev,36,M,Multi-ply,M_OEM_WPC,SBD,75,75,270,290,310,,310,70,80,,,80,215,230,-260,,230,620,Azerbaijan,1,
Rustan Musayev,36,M,Multi-ply,M_OEM_WPC,D,75,75,,,,,,,,,,,253,,,,253,253,Azerbaijan,2,
Ryan Wise,19,M,Multi-ply,M_TEM_3_WPC,SBD,92.8,100,-310,-310,-322.5,,,-170,,,,,220,,,,220,,USA,DQ,
Sabrina Reiffer,25,F,Wraps,F_OR_WPC,SBD,82.4,82.5,130,142.5,155,,155,87.5,97.5,-102.5,,97.5,182.5,197.5,-205,,197.5,450,USA,1,
Saifolla Tilyeubyerd,27,M,Single-ply,M_OES_WPC,SBD,114.2,125,350,370,380,,380,-240,-240,-240,,,290,-300,-305,,290,,USA,DQ,
Saifolla Tilyeubyerd,27,M,Single-ply,M_OES_WPC,D,114.2,125,,,,,,,,,,,290,-300,-305,,290,290,USA,3,
Saifolla Tilyevbyerd,27,M,Multi-ply,M_OEM_WPC,D,113,125,,,,,,,,,,,280,300,-320,,300,300,Mongolia,2,
Sal Cotto III,26,M,Wraps,M_OR_WPC,SBD,123,125,232.5,-272.5,,,232.5,160,175,-182.5,,175,232.5,272.5,-292.5,,272.5,680,USA,7,
Salim Merah,44,M,Multi-ply,M_MEM_1_WPC,B,120.8,125,,,,,,-300,-360,-360,,,,,,,,,,DQ,
Sam Russell,18,M,Multi-ply,M_TEM_3_WPC,SBD,60,60,-200,200,-217.5,,200,90,97.5,102.5,,102.5,185,192.5,-200,,192.5,495,USA,1,
Sam Wheaton,14,M,Raw,M_TR_1,B,131.4,140,,,,,,80,85,95,-102.5,95,,,,,,95,Canada,1,
Sam Wheaton,14,M,Raw,M_TR_1_WPC,D,131.4,140,,,,,,,,,,,160,-172.5,172.5,182.5,172.5,172.5,Canada,1,
Sami Huhtala,40,M,Single-ply,M_MES_1_WPC,B,108.8,110,,,,,,260,-275,-295,,260,,,,,,260,Finland,1,
Sami Huhtala,40,M,Multi-ply,M_MEM_1_WPC,B,108.8,110,,,,,,270,275,-300,,275,,,,,,275,Finland,1,
Sami Huhtala,40,M,Raw,M_MR_1,B,108.8,110,,,,,,185,192.5,-202.5,,192.5,,,,,,192.5,Finland,3,
Sándor Bordás,24,M,Multi-ply,M_OEM_WPC,SBD,107.6,110,330,-350,-350,,330,270,290,-300,,290,280,-290,-290,,280,900,Hungary,2,
Sandrine Platel,40,F,Multi-ply,F_MEM_1_WPC,B,74.4,75,,,,,,-140,-140,140,,140,,,,,,140,France,1,
Sandrine Platel,40,F,Raw,F_MR_1_WPC,B,74.4,75,,,,,,90,-100,-100,,90,,,,,,90,France,1,
Sandrine Platel,40,F,Raw,F_MR_1_WPC,D,75.4,82.5,,,,,,,,,,,150,160,165,,165,165,France,1,
Sannikka Hosio,29,F,Wraps,F_OR_WPC,SBD,50.8,52,60,70,-75,,70,35,40,45,,45,90,102.5,112.5,,112.5,227.5,Finland,3,
Sara Abbasova,31,F,Wraps,F_OR_WPC,SBD,66.4,67.5,155,-167.5,-167.5,,155,-90,95,-100,,95,145,-175,,,145,395,Azerbaijan,3,
Sara Abbasova,27,F,Multi-ply,F_OEM_WPC,B,69.6,75,,,,,,-80,,,,,,,,,,,Azerbaijan,DQ,
Sara Abbasova,27,F,Multi-ply,F_OEM_WPC,D,69.6,75,,,,,,,,,,,-150,,,,,,Azerbaijan,DQ,
Sara Abbsova,27,F,Raw,F_OR_WPC,D,69.6,75,,,,,,,,,,,150,160,175,,175,175,Azerbaijan,1,
Sarah Edgar King,37,F,Raw,F_OR_WPC,D,66.2,67.5,,,,,,,,,,,150,170,-182.5,,170,170,UK,2,
Saul Salazar,50,M,Wraps,M_MR_3_WPC,SBD,88.4,90,150,160,170,,170,130,145,155,,155,195,210,220,,220,545,Colombia,1,
Scot Mendelson,45,M,Multi-ply,M_OEM_WPC,B,151.6,140+,,,,,,-457.5,-481,-491,,,,,,,,,USA,DQ,
Scott Bernard,26,M,Wraps,M_OR_WPC,SBD,81,82.5,255,267.5,-275,,267.5,-192.5,192.5,-197.5,,192.5,290,300,-305,,300,760,Canada,1,
Scott Edminston,51,M,Multi-ply,M_MEM_3_WPC,B,140.8,140+,,,,,,80,-262.5,-262.5,,80,,,,,,80,USA,1,
Scott Edmiston,51,M,Multi-ply,M_MEM_3_WPC,SBD,141.8,140+,-330,-330,-330,,,,,,,,,,,,,,USA,DQ,
Scott Edmiston,51,M,Multi-ply,M_MEM_3_WPC,D,141,140+,,,,,,,,,,,250,272.5,-300,,272.5,272.5,USA,1,
Scott Galen,53,M,Raw,M_MR_3,B,105.8,110,,,,,,200,-215,-215,,200,,,,,,200,USA,1,
Scott Kingsley,56,M,Multi-ply,M_MEM_4_WPC,B,89,90,,,,,,-152.5,-152.5,-160,,,,,,,,,USA,DQ,
Scott Kuderick,40,M,Multi-ply,M_OEM_WPC,SBD,90,90,-327.5,327.5,-365,,327.5,-205,-205,-205,,,,,,,,,USA,DQ,
Scott Latour,39,M,Single-ply,M_OES_WPC,SBD,124.2,125,-210,-215,-227.5,,,,,,,,,,,,,,USA,DQ,
Scott Simonson,47,M,Raw,M_MR_2,B,99.8,100,,,,,,200,210,-217.5,,210,,,,,,210,USA,2,
Sébastien Hupfer,33,M,Wraps,M_OR_WPC,SBD,89,90,-255,255,262.5,-270,262.5,160,165,-170,,165,265,-275,-280,,265,692.5,France,4,
Serafine Macdonald,38,F,Raw,F_OR_WPC,D,74.4,75,,,,,,,,,,,-145,,,,,,USA,DQ,
Sergei Samoilenko,44,M,Wraps,M_MR_1_WPC,SBD,98.2,100,-150,150,165,,165,145,155,160,,160,170,185,,,185,510,Russia,2,
Sergei Samoilenko,44,M,Raw,M_MR_1,B,99.8,100,,,,,,150,160,165,,165,,,,,,165,Russia,2,
Sergei Samoilenko,44,M,Raw,M_MR_1_WPC,D,99,100,,,,,,,,,,,175,190,,,190,190,Russia,1,
Sergey Chupakhin,26,M,Single-ply,M_OES_WPC,SBD,90,90,270,290,305,,305,185,-195,-195,,185,265,282.5,-307.5,,282.5,772.5,Russia,2,
Sergey Chupakhin,26,M,Single-ply,M_OES_WPC,D,90,90,,,,,,,,,,,265,282.5,-307.5,,282.5,282.5,Russia,1,
Sergey Kosarev,46,M,Single-ply,M_MES_2_WPC,B,92.8,100,,,,,,-190,190,-210,,190,,,,,,190,Russia,1,
Sergey Lir,23,M,Raw,M_OR,B,109,110,,,,,,230,240,247.5,,247.5,,,,,,247.5,Russia,1,
Sergey Lir Jr,23,M,Raw,M_JR,B,109,110,,,,,,230,240,247.5,,247.5,,,,,,247.5,Russia,1,
Sergey Lukyanov,28,M,Wraps,M_OR_WPC,SBD,89.4,90,265,-275,275,,275,175,185,-192.5,,185,300,310,320,-333,320,780,Russia,1,
Sergey Rubtsov,51,M,Wraps,M_MR_3_WPC,SBD,163,140+,220,,,,220,140,,,,140,220,,,,220,580,Kazakhstan,1,
Sergey Rubtsov,51,M,Wraps,M_OR_WPC,SBD,160.8,140+,260,280,290,,290,180,190,-195,,190,310,330,-342.5,,330,810,Kazakhstan,1,
Sergey Rubtsov,50,M,Raw,M_MR_3,B,162.2,140+,,,,,,110,,,,110,,,,,,110,Russia,2,
Sergey Rubtsov,51,M,Raw,M_MR_3_WPC,D,162,140+,,,,,,,,,,,100,160,,,160,160,Kazakhstan,1,
Sergey Rubtsov,51,M,Raw,M_OR_WPC,D,162,140+,,,,,,,,,,,100,160,,,160,160,Kazakhstan,2,
Sergey Starodubsiliy,36,M,Multi-ply,M_OEM_WPC,D,108.2,110,,,,,,,,,,,300,-320,320,,320,320,Russia,1,
Sergey Starodubskiy,36,M,Single-ply,M_OES_WPC,B,110,110,,,,,,270,280,-287.5,,280,,,,,,280,Russia,2,
Sergii Didovyk,36,M,Raw,M_OR,B,97.8,100,,,,,,200,210,-217.5,,210,,,,,,210,Ukraine,2,
Sergii Didovyk,36,M,Multi-ply,M_OEM_WPC,B,97.4,100,,,,,,275,-287.5,-287.5,,275,,,,,,275,Ukraine,1,
Sergiy Naleikin,33,M,Single-ply,M_OES_WPC,B,80.2,82.5,,,,,,275,-290,-290,,275,,,,,,275,Ukraine,1,
Seth Hipply,19,M,Raw,M_TR_3,B,139.4,140,,,,,,215,-232.5,-232.5,,215,,,,,,215,USA,1,
Shahram Forutan,46,M,Multi-ply,M_MEM_2_WPC,SBD,73,75,220,230,240,,240,155,-165,-165,,155,215,220,-225,,220,615,Germany,1,
Shahram Forutan,47,M,Multi-ply,M_MEM_2_WPC,D,73.4,75,,,,,,,,,,,190,205,-212.5,,205,205,Germany,1,
Shaun Kopplin,34,M,Multi-ply,M_OEM_WPC,SBD,118.4,125,375,-392.5,-392.5,,375,137.5,-265,272.5,,272.5,182.5,-305,-320,,182.5,830,USA,4,
Sheenan Tim,62,M,Single-ply,M_MES_5_WPC,SBD,105.8,110,185,197.5,205,,205,137.5,147.5,155,,155,192.5,-230,-230,,192.5,552.5,USA,2,
Shelly Cannon,35,F,Single-ply,F_OES_WPC,B,55.6,56,,,,,,-102.5,102.5,-117.5,,102.5,,,,,,102.5,USA,1,
Sheri Whetham,52,F,Wraps,F_MR_3_WPC,SBD,67.2,67.5,112.5,130,140,,140,65,75,80,,80,145,170,182.5,-190,182.5,402.5,Canada,1,
Simon Norcup,46,M,Wraps,M_MR_2_WPC,SBD,109.4,110,-270,270,282.5,,282.5,-185,185,-200,,185,270,290,300,315,300,767.5,UK,1,
Stanislav Mordvinov,31,M,Wraps,M_OR_WPC,SBD,125.4,140,300,320,330,,330,210,-220,220,,220,300,320,325,,325,875,Russia,1,
Stanislav Pryakhin,39,M,Multi-ply,M_OEM_WPC,B,82.2,82.5,,,,,,212.5,220,225,,225,,,,,,225,Russia,2,
Stanislav Pryakhin,39,M,Multi-ply,M_OEM_WPC,D,82.2,82.5,,,,,,,,,,,270,300,,,300,300,Russia,1,
Steve Brock,43,M,Multi-ply,M_MEM_1_WPC,SBD,137.6,140,-405,-405,-405,,,,,,,,,,,,,,USA,DQ,
Steve Creedon,50,M,Wraps,M_MR_3_WPC,SBD,87.6,90,-140,140,157.5,,157.5,-102.5,110,-117.5,,110,165,175,185,,185,452.5,USA,2,
Steve Day,35,M,Wraps,M_OR_WPC,SBD,99.6,100,225,235,-240,,235,-170,170,-180,,170,275,-285,,,275,680,UK,4,
Steve Gameiro,36,M,Multi-ply,M_OEM_WPC,B,98.3,100,,,,,,240,-265,-277.5,,240,,,,,,240,France,2,
Steve Kylis,62,M,Wraps,M_MR_5_WPC,SBD,88.4,90,202.5,212.5,217.5,,217.5,142.5,-147.5,-147.5,,142.5,227.5,237.5,250,,250,610,USA,1,
Steve Kylis,62,M,Raw,M_MR_5,B,88.8,90,,,,,,142.5,-147.5,147.5,-152.5,147.5,,,,,,147.5,USA,1,
Steve Plunkett,40,M,Multi-ply,M_MEM_1_WPC,SBD,88.2,90,280,300,-322.5,,300,215,-230,-230,,215,240,-260,-260,,240,755,UK,3,
Stratford Washington,20,M,Multi-ply,M_JEM_WPC,SBD,99,100,312.5,325,342.5,,342.5,170,182.5,192.5,,192.5,265,280,290,,290,825,USA,1,
Suzanne Prusnek,58,F,Wraps,F_MR_4_WPC,SBD,71.8,75,-140,140,142.5,145,142.5,87.5,90,-92.5,,90,182.5,187.5,192.5,195,192.5,425,USA,1,
Svetlana Sinacheva,47,F,Raw,F_MR_2_WPC,B,74,75,,,,,,102.5,107.5,-110,,107.5,,,,,,107.5,Russia,1,
Tara Webber,25,F,Multi-ply,F_OEM_WPC,B,81.8,82.5,,,,,,152.5,165,-177.5,,165,,,,,,165,Canada,1,
Taylor Brown,18,M,Multi-ply,M_TEM_3_WPC,SBD,108,110,-350,-350,-350,,,-185,,,,,,,,,,,USA,DQ,
Ten Valikhan,35,M,Wraps,M_OR_WPC,SBD,74.2,75,205,215,220,,220,150,155,160,,160,240,-255,-257.5,,240,620,Kazakhstan,3,
Ten Valikhan,35,M,Raw,M_OR_WPC,D,75,75,,,,,,,,,,,220,240,-247.5,,240,240,Kazakhstan,2,
Tera Kinnane,38,F,Wraps,F_OR_WPC,SBD,86.8,90,115,125,-130,,125,57.5,62.5,-65,,62.5,135,142.5,-155,,142.5,330,USA,5,
Tera Kinnane,38,F,Raw,F_OR_WPC,D,88.2,90,,,,,,,,,,,137.5,-145,-147.5,,137.5,137.5,USA,3,
Terry Bishoff,55,F,Multi-ply,F_MEM_4_WPC,SBD,59,60,125,137.5,-152.5,,137.5,60,63,,,63,115,135,-150,,135,335.5,USA,1,
Terry Davis,58,M,Wraps,M_MR_4_WPC,SBD,120.8,125,205,232.5,250,,250,137.5,147.5,-152.5,,147.5,227.5,245,-265,,245,642.5,USA,2,
Terry Lee Cruce,57,M,Single-ply,M_MES_4_WPC,D,74,75,,,,,,,,,,,215,-227.5,-227.5,,215,215,USA,1,
Thomas Bodenbender,48,M,Multi-ply,M_MEM_2_WPC,SBD,119.8,125,330,345,-360,,345,-247.5,-255,255,,255,245,265,280,,280,880,USA,2,
Tim Lauderdale,27,M,Wraps,M_OR_WPC,SBD,96,100,237.5,247.5,-255,,247.5,175,187.5,-192.5,,187.5,220,-225,-230,,220,655,USA,7,
Tim Lichtenwald,17,M,Multi-ply,M_TEM_2_WPC,B,59.6,60,,,,,,-95,95,-97.5,,95,,,,,,95,Germany,1,
Tim Lichtenwald,17,M,Multi-ply,M_OEM_WPC,B,59,60,,,,,,90,-100,-100,,90,,,,,,90,Germany,2,
Tim Sheehan,62,M,Wraps,M_MR_5_WPC,SBD,106.2,110,182.5,-197.5,197.5,,197.5,137.5,-147.5,-147.5,,137.5,192.5,200,-205,,200,535,USA,1,
Tim Walsh,50,M,Wraps,M_MR_3_WPC,SBD,82.2,82.5,137.5,150,-160,,150,90,-100,-100,,90,170,190,195,,195,435,USA,3,
Tímea Szuromi,31,F,Wraps,F_OR_WPC,SBD,83.6,90,170,187.5,192.5,,192.5,105,117.5,-122.5,,117.5,180,190,200,,200,510,Hungary,1,
Timo Seppänen,38,M,Raw,M_OR,B,108.8,110,,,,,,190,200,205,,205,,,,,,205,Finland,5,
Timo Seppänen,39,M,Raw,M_OR_WPC,D,108.4,110,,,,,,,,,,,270,285,295,,295,295,Finland,2,
Timur Lutfullaev,25,M,Raw,M_OR,B,99,100,,,,,,-165,172.5,-180,,172.5,,,,,,172.5,Kazakhstan,7,
Timur Lutfullaev,25,M,Raw,M_OR_WPC,D,98.6,100,,,,,,,,,,,-190,,,,,,Kazakhstan,DQ,
Tom Proya,59,M,Raw,M_MR_4,B,85.6,90,,,,,,175,185,-192.5,,185,,,,,,185,USA,1,
Tom Waldrep,50,M,Single-ply,M_MES_3_WPC,B,98.4,100,,,,,,-330,330,-342.5,,330,,,,,,330,USA,1,
Tom Waldrep,50,M,Single-ply,M_OES_WPC,B,98.4,100,,,,,,-330,330,-342.5,,330,,,,,,330,USA,1,
Tom Walters,76,M,Wraps,M_MR_8_WPC,SBD,75.6,82.5,70,90,100,,100,55,60,,,60,110,125,,,125,285,USA,1,
Tom Walyus,37,M,Single-ply,M_OES_WPC,SBD,90,90,237.5,-260,-272.5,,237.5,157.5,-165,-165,,157.5,237.5,-260,260,,260,655,USA,3,
Tom West,57,M,Single-ply,M_MES_4_WPC,B,82.4,82.5,,,,,,150,-160,160,,160,,,,,,160,USA,1,
Tony Bartolomei,56,M,Multi-ply,M_MEM_4_WPC,B,106.8,110,,,,,,-232.5,-242.5,242.5,,242.5,,,,,,242.5,USA,1,
Tony Chard,46,M,Multi-ply,M_MEM_2_WPC,SBD,118,125,-300,300,-320,,300,210,-230,-242.5,,210,300,320,,,320,830,France,3,
Tony Chard,46,M,Multi-ply,M_OEM_WPC,D,118.8,125,,,,,,,,,,,250,-310,-322.5,,250,250,France,3,
Tracy Draher,39,F,Wraps,F_OR_WPC,SBD,74.6,75,167.5,175,185,,185,-122.5,-125,,,,,,,,,,USA,DQ,
Trey Love,46,M,Multi-ply,M_MEM_2_WPC,D,121.4,125,,,,,,,,,,,332.5,-352.5,-352.5,,332.5,332.5,USA,1,
Tsegmed Byambaa,74,M,Single-ply,M_MES_7_WPC,SBD,73.6,75,180,210,-220.5,,210,90.5,100,102.5,,102.5,175,188,195,,195,507.5,Mongolia,1,
Tsegmed Byambaa,75,M,Multi-ply,M_MEM_7_WPC,D,73.8,75,,,,,,,,,,,175,-200,,,175,175,Mongolia,1,
Tyler Weaver,19,M,Multi-ply,M_TEM_3_WPC,SBD,72.8,75,252.5,260,-272.5,,260,145,-155,-155,,145,225,-247.5,-247.5,,225,630,USA,3,
Ulrich Vetter,62,M,Single-ply,M_MES_5_WPC,B,107.2,110,,,,,,180,190,-200,,190,,,,,,190,Germany,1,
Ulrich Vetter,62,M,Multi-ply,M_MEM_5_WPC,B,106.8,110,,,,,,180,190,200,,200,,,,,,200,Germany,1,
Uve Haase,50,M,Raw,M_MR_3,B,100,100,,,,,,190,200,210,,210,,,,,,210,Germany,1,
Vadim Zaitsev,54,M,Raw,M_MR_3_WPC,D,93.8,100,,,,,,,,,,,200,230,262.5,,262.5,262.5,Russia,1,
Vadim Zaitsev,54,M,Multi-ply,M_MEM_3_WPC,D,93.8,100,,,,,,,,,,,200,230,262.5,,262.5,262.5,Russia,1,
Valentin Cacini,24,M,Multi-ply,M_OEM_WPC,B,81.8,82.5,,,,,,210,220,-231,,220,,,,,,220,France,3,
Valeriy Akenrtyev,56,M,Multi-ply,M_MEM_4_WPC,B,97,100,,,,,,-240,240,-250,,240,,,,,,240,Russia,1,
Valeriy Akentyev,56,M,Raw,M_MR_4,B,97,100,,,,,,150,160,170,,170,,,,,,170,Russia,1,
Valeriy Poryadin,48,M,Raw,M_MR_2,B,88.8,90,,,,,,125,135,142.5,,142.5,,,,,,142.5,Russia,1,
Valeriy Poryadin,48,M,Raw,M_MR_2_WPC,D,88.8,90,,,,,,,,,,,180,200,215,,215,215,Russia,1,
Valery Poryadin,48,M,Single-ply,M_MES_2_WPC,B,88.6,90,,,,,,140,150,165,,165,,,,,,165,Russia,2,
Valikhan Ten,35,M,Raw,M_OR_WPC,B,74.6,75,,,,,,150,-155,-160,,150,,,,,,150,Kazakhstan,2,
Vasily Chernyshenko,51,M,Raw,M_MR_3,B,119.6,125,,,,,,165,172.5,-177.5,,172.5,,,,,,172.5,Russia,2,
Vasily Chernyshenko,51,M,Raw,M_OR,B,119.6,125,,,,,,165,172.5,-177.5,,172.5,,,,,,172.5,Russia,8,
Viacheslav Berezin,33,M,Raw,M_OR,B,108,110,,,,,,200,210,217.5,,217.5,,,,,,217.5,Russia,3,
Victor Mychko,30,M,Raw,M_OR_WPC,B,67.2,67.5,,,,,,147.5,155,160,,160,,,,,,160,Russia,1,
Victoria Yultsova,12,F,Raw,F_TR_1_WPC,B,47.6,48,,,,,,60,65,67.5,-70,67.5,,,,,,67.5,Russia,1,
Viktor Klimov,39,M,Raw,M_OR,B,118,125,,,,,,195,202.5,-207.5,,202.5,,,,,,202.5,Russia,7,
Viktor Klimov,39,M,Multi-ply,M_OEM_WPC,B,117.8,125,,,,,,-325,-330,330,,330,,,,,,330,Russia,3,
Ville Antikainen,26,M,Wraps,M_OR_WPC,SBD,108.4,110,265,282.5,290,,290,155,-162.5,170,,170,280,290,-307.5,,290,750,Finland,1,
Vincent Eldin,42,M,Multi-ply,M_MEM_1_WPC,B,74.6,75,,,,,,-185,193,-201,,193,,,,,,193,France,2,
Vincent Lofe,43,M,Multi-ply,M_MEM_1_WPC,B,139.6,140,,,,,,-240,-240,,,,,,,,,,France,DQ,
Vincent Stepchuk,48,M,Multi-ply,M_MEM_2_WPC,SBD,81.6,82.5,-257.5,257.5,282.5,,282.5,200,-217.5,-217.5,,200,-220,220,-242.5,,220,702.5,USA,1,
Vito Lombardo,82,M,Raw,M_MR_8,B,97.6,100,,,,,,85,87.5,92.5,,92.5,,,,,,92.5,USA,1,
Vladimir Golubev,26,M,Wraps,M_OR_WPC,SBD,120.4,125,280,310,330,,330,220,230,240,,240,315,330,-360,,330,900,Kazakhstan,2,
Vladimir Golubev,26,M,Raw,M_OR,B,117.6,125,,,,,,225,235,-237.5,,235,,,,,,235,Kazakhstan,3,
Vladimir Golubev,28,M,Raw,M_OR_WPC,D,118.2,125,,,,,,,,,,,,,,,,,Kazakhstan,DQ,
Vladimir Minin,47,M,Wraps,M_MR_2_WPC,SBD,99.8,100,280,-290,,,280,150,160,-165,,160,260,280,-300,,280,720,Russia,1,
Vladimir Omelkov,44,M,Raw,M_MR_1,B,109.6,110,,,,,,155,162.5,-170,,162.5,,,,,,162.5,Russia,4,
Vladimir Zhabin,34,M,Multi-ply,M_OEM_WPC,D,92.2,100,,,,,,,,,,,330,350,-360,,350,350,Russia,1,
Vladimir Zhabin,34,M,Multi-ply,M_OEM_WPC,SBD,90,90,325,350,360,,360,225,-240,-240,,225,320,340,347.5,,347.5,932.5,Russia,1,
Vlastimil Pól,27,M,Multi-ply,M_OEM_WPC,B,108.2,110,,,,,,-200,200,210,,210,,,,,,210,Czechia,4,
Wade Likens,41,M,Raw,M_MR_1,B,149.2,140+,,,,,,230,240,-250,,240,,,,,,240,USA,1,
Wally Anczerewicz,72,M,Raw,M_MR_7,B,85.5,90,,,,,,92.5,105,-107.5,,105,,,,,,105,USA,1,
Wayne Pullum,55,M,Multi-ply,M_MEM_4_WPC,SBD,82.5,82.5,245,272.5,-292.5,,272.5,172.5,-190,190,-197.5,190,215,232.5,242.5,,242.5,705,USA,1,
Wayne Whitcomb,61,M,Wraps,M_MR_5_WPC,SBD,75.2,82.5,122.5,-130,130,,130,75,82.5,-87.5,,82.5,140,145,150,,150,362.5,USA,1,
Welch Bill,53,M,Single-ply,M_MES_3_WPC,B,137.2,140,,,,,,327.5,-340,-340,,327.5,,,,,,327.5,USA,1,
Welch Bill,53,M,Single-ply,M_OES_WPC,B,137.2,140,,,,,,327.5,-340,-340,,327.5,,,,,,327.5,USA,2,
Wiebke Hinrichsen,31,F,Multi-ply,F_OEM_WPC,B,71.2,75,,,,,,110,117.5,125,,125,,,,,,125,Germany,1,
Wiebke Hinrichsen,31,F,Multi-ply,F_OEM_WPC,SBD,70.8,75,125,135,142.5,,142.5,110,122.5,-127.5,,122.5,130,142.5,150,,150,415,Germany,2,
William Dixon,36,M,Multi-ply,M_OEM_WPC,B,179.4,140+,,,,,,307.5,-320,-320,,307.5,,,,,,307.5,USA,1,
William Henshaw II,49,M,Single-ply,M_MES_2_WPC,SBD,108.2,110,210,227.5,-232.5,,227.5,-185,185,197.5,,197.5,230,242.5,250,,250,675,USA,1,
William Roberts,71,M,Single-ply,M_MES_7_WPC,B,110,110,,,,,,92.5,117.5,-130,,117.5,,,,,,117.5,USA,1,
William Roberts,72,M,Single-ply,M_MES_7_WPC,D,104.2,110,,,,,,,,,,,127.5,140,-147.5,,140,140,USA,1,
William Roberts,71,M,Raw,M_MR_7_WPC,D,104.4,110,,,,,,,,,,,102.5,112.5,117.5,,117.5,117.5,USA,1,
William Roberts,72,M,Multi-ply,M_MEM_7_WPC,D,104.4,110,,,,,,,,,,,102.5,112.5,117.5,,117.5,117.5,USA,1,
Xeniya Khan,27,F,Raw,F_OR_WPC,D,66.8,67.5,,,,,,,,,,,185,197.5,200,,200,200,Kazakhstan,1,
Xeniya Khan,27,F,Wraps,F_OR_WPC,SBD,66.8,67.5,145,155,160,,160,110,-117.5,117.5,,117.5,180,190,,,190,467.5,Kazakhstan,1,
Xeniya Khan,27,F,Raw,F_OR_WPC,B,65.8,67.5,,,,,,110,120.5,122.5,,122.5,,,,,,122.5,Kazakhstan,1,
Yoana Mosquera,36,F,Wraps,F_OR_WPC,SBD,51.4,52,105,115,122.5,,122.5,67.5,72.5,-77.5,,72.5,120,130,-145,,130,325,Colombia,2,
Yuriy Chepez,71,M,Multi-ply,M_MEM_7_WPC,B,73.4,75,,,,,,90,100,105,,105,,,,,,105,Russia,2,
Yuriy Chepez,71,M,Raw,M_MR_7_WPC,B,73.4,75,,,,,,80,92.5,-101,,92.5,,,,,,92.5,Russia,2,
Yuriy Ustinov,39,M,Multi-ply,M_OEM_WPC,D,99.6,100,,,,,,,,,,,230,260,270,,270,270,Russia,3,
Yuriy Zakharov,43,M,Wraps,M_OR_WPC,SBD,125.2,140,250,270,,,270,150,170,190,,190,250,,,,250,710,Kazakhstan,5,
Yuriy Zakharov,43,M,Raw,M_MR_1_WPC,D,124.6,125,,,,,,,,,,,270,290,302.5,,302.5,302.5,Kazakhstan,1,
Yuriy Zakrarov,43,M,Wraps,M_MR_1_WPC,SBD,125.6,140,270,290,300,,300,180,190,197.5,,197.5,272.5,285,,,285,782.5,Kazakhstan,1,
Yury Korikov,52,M,Multi-ply,M_MEM_3_WPC,B,81.8,82.5,,,,,,205,-210,-210,,205,,,,,,205,Russia,2,
Zach McVe,41,M,Wraps,M_MR_1_WPC,SBD,96.4,100,-217.5,217.5,,,217.5,145,-155,155,,155,250,260,,,260,632.5,USA,1,
