Division,WeightClassKg,Place,Name,Team,BodyweightKg,Best3SquatKg,Best3BenchKg,Best3DeadliftKg,TotalKg,Equipment,Event,Sex
Boys,51.71,1,Tommy Hession,College Station,48.99,117.93,61.23,124.74,303.91,Single-ply,SBD,M
Boys,51.71,2,Demetrius Parker,Waco La Vega,47.17,92.99,61.23,106.59,260.82,Single-ply,SBD,M
Boys,55.79,1,Caleb Burleson,College Station,54.88,136.08,95.25,147.42,378.75,Single-ply,SBD,M
Boys,55.79,2,Jonathan Flores,Mexia,52.16,92.99,70.31,102.06,265.35,Single-ply,SBD,M
Boys,59.87,1,Joseph Rangel,Cameron Yoe,59.42,156.49,83.91,176.9,417.3,Single-ply,SBD,M
Boys,59.87,2,Joshua Lopez,Cameron Yoe,58.97,147.42,95.25,161.03,403.7,Single-ply,SBD,M
Boys,59.87,3,Logan Heller,Mexia,58.51,151.95,83.91,142.88,378.75,Single-ply,SBD,M
Boys,59.87,4,Kellen Hapes,College Station,59.87,136.08,81.65,136.08,353.8,Single-ply,SBD,M
Boys,59.87,5,Jair Perez,Little River Academy,59.87,102.06,61.23,120.2,283.5,Single-ply,SBD,M
Boys,59.87,6,Mike Sheeley,Cameron Yoe,58.06,90.72,61.23,120.2,272.16,Single-ply,SBD,M
Boys,67.13,1,Treston Hudnall,Killeen Ellison,63.5,181.44,129.27,204.12,514.83,Single-ply,SBD,M
Boys,67.13,2,Stephen Leal,Taylor,64.41,215.46,104.33,192.78,512.56,Single-ply,SBD,M
Boys,67.13,3,Gavin Freeman,Little River Academy,67.13,188.24,113.4,190.51,492.15,Single-ply,SBD,M
Boys,67.13,4,Devin Jackson,Waco La Vega,65.77,183.7,108.86,188.24,480.81,Single-ply,SBD,M
Boys,67.13,5,Fabian Solomon,Cameron Yoe,64.41,147.42,86.18,170.1,403.7,Single-ply,SBD,M
Boys,67.13,6,Jakendrick Eddie,Hearne,63.5,151.95,92.99,156.49,401.43,Single-ply,SBD,M
Boys,67.13,7,Michael Pettibon,College Station,65.77,154.22,74.84,147.42,376.48,Single-ply,SBD,M
Boys,67.13,8,Daniel Strong,Killeen Ellison,65.77,129.27,79.38,165.56,374.21,Single-ply,SBD,M
Boys,67.13,9,Ethan Hall,College Station,65.32,147.42,74.84,140.61,362.87,Single-ply,SBD,M
Boys,67.13,10,Hayden Jones,Thrall,61.69,108.86,74.84,136.08,319.78,Single-ply,SBD,M
Boys,67.13,11,Andrew Chaffin,Little River Academy,60.78,102.06,68.04,127.01,297.1,Single-ply,SBD,M
Boys,74.84,1,Yakariel Young,Killeen Ellison,73.94,231.33,122.47,231.33,585.13,Single-ply,SBD,M
Boys,74.84,2,Hugh Shelton,Taylor,72.12,197.31,120.2,240.4,557.92,Single-ply,SBD,M
Boys,74.84,3,William Ehlers,Hearne,72.57,149.69,92.99,158.76,401.43,Single-ply,SBD,M
Boys,74.84,4,Dorien Armstrong,Killeen Ellison,73.03,145.15,79.38,156.49,381.02,Single-ply,SBD,M
Boys,74.84,5,Mario Mendez,Thrall,71.67,138.35,99.79,136.08,374.21,Single-ply,SBD,M
Boys,74.84,6,Marcus Stautz,Thrall,73.48,138.35,81.65,154.22,374.21,Single-ply,SBD,M
Boys,74.84,7,Coulter Hill,Thrall,71.67,102.06,79.38,136.08,317.51,Single-ply,SBD,M
Boys,74.84,8,Billy Renfro,Thrall,68.95,92.99,65.77,136.08,294.84,Single-ply,SBD,M
Boys,74.84,9,Davion Carr,Waco La Vega,74.84,,97.52,165.56,263.08,Single-ply,BD,M
Boys,74.84,10,Gabriel Ramthan,Thorndale,68.95,102.06,56.7,92.99,251.74,Single-ply,SBD,M
Boys,74.84,11,Joe Barbo,Cameron Yoe,74.39,113.4,72.57,,185.97,Single-ply,SB,M
Boys,82.1,1,Christian Yannis,Taylor,80.29,233.6,129.27,219.99,582.87,Single-ply,SBD,M
Boys,82.1,2,Jordan Morgan,Waco La Vega,79.38,195.04,111.13,204.12,510.29,Single-ply,SBD,M
Boys,82.1,3,Tyler Burt,Cameron Yoe,80.74,183.7,113.4,188.24,485.34,Single-ply,SBD,M
Boys,82.1,4,Adrien Garcia,Little River Academy,80.29,163.29,104.33,183.7,451.32,Single-ply,SBD,M
Boys,82.1,5,Gavin Wright,Mexia,78.02,165.56,111.13,158.76,435.45,Single-ply,SBD,M
Boys,82.1,6,Braden Hollomon,Cameron Yoe,80.74,167.83,72.57,156.49,396.89,Single-ply,SBD,M
Boys,82.1,7,Roston Razo,Taylor,81.19,142.88,83.91,170.1,396.89,Single-ply,SBD,M
Boys,82.1,8,Juatin Paxton,Thorndale,75.48,136.08,88.45,158.76,383.29,Single-ply,SBD,M
Boys,82.1,9,Tyler Lambert,Little River Academy,79.38,122.47,86.18,167.83,376.48,Single-ply,SBD,M
Boys,82.1,10,Kable Rowland,Thrall,78.47,120.2,68.04,154.22,342.46,Single-ply,SBD,M
Boys,82.1,11,Cade Tindol,Thrall,81.19,122.47,81.65,129.27,333.39,Single-ply,SBD,M
Boys,82.1,12,Caleb Sampson,Waco La Vega,75.75,83.91,65.77,142.88,292.57,Single-ply,SBD,M
Boys,82.1,13,Marcus Perez,Cameron Yoe,75.3,124.74,,147.42,272.16,Single-ply,SD,M
Boys,89.81,1,Sammy Segura,Giddings,88.45,229.06,151.95,201.85,582.87,Single-ply,SBD,M
Boys,89.81,2,Rene Aguirre,Taylor,89.81,208.65,136.08,197.31,542.04,Single-ply,SBD,M
Boys,89.81,3,Tanner Stone,College Station,86.64,181.44,113.4,158.76,453.59,Single-ply,SBD,M
Boys,89.81,4,Coby Smith,Giddings,86.64,174.63,95.25,174.63,444.52,Single-ply,SBD,M
Boys,89.81,5,Arik Blanco,Taylor,88.45,174.63,111.13,158.76,444.52,Single-ply,SBD,M
Boys,89.81,6,Corbin Preusse,Thorndale,87.09,183.7,83.91,165.56,433.18,Single-ply,SBD,M
Boys,89.81,7,Chris Galvan,Mexia,89.81,179.17,83.91,167.83,430.91,Single-ply,SBD,M
Boys,89.81,8,Easton Kylberg,Giddings,86.64,151.95,95.25,149.69,396.89,Single-ply,SBD,M
Boys,89.81,9,Hunter Hux,Cameron Yoe,87.09,149.69,86.18,142.88,378.75,Single-ply,SBD,M
Boys,89.81,10,Dylan Smith,Cameron Yoe,87.54,102.06,70.31,149.69,322.05,Single-ply,SBD,M
Boys,89.81,11,Claypool Dylan,Thrall,87.09,,77.11,142.88,219.99,Single-ply,BD,M
Boys,99.79,1,Mason Liles,Thorndale,98.88,208.65,111.13,201.85,521.63,Single-ply,SBD,M
Boys,99.79,2,JR Deicher,Mexia,93.89,192.78,113.4,195.04,501.22,Single-ply,SBD,M
Boys,99.79,3,Eduardo Gil,Cameron Yoe,95.25,183.7,136.08,181.44,501.22,Single-ply,SBD,M
Boys,99.79,4,Ridic Merez,Thorndale,95.71,204.12,102.06,195.04,501.22,Single-ply,SBD,M
Boys,99.79,5,Cade Mars,Cameron Yoe,97.52,204.12,106.59,181.44,492.15,Single-ply,SBD,M
Boys,99.79,6,Bra'Corey Smith,College Station,97.52,170.1,111.13,183.7,464.93,Single-ply,SBD,M
Boys,99.79,7,Ezekiel Sherridan,Killeen Ellison,94.35,147.42,92.99,195.04,435.45,Single-ply,SBD,M
Boys,99.79,8,Antonio Jones,Killeen Ellison,94.8,138.35,113.4,181.44,433.18,Single-ply,SBD,M
Boys,99.79,9,Johnny Rodriguez,Taylor,91.63,142.88,111.13,170.1,424.11,Single-ply,SBD,M
Boys,99.79,10,Le'Ron Thomas,Hearne,95.25,151.95,81.65,147.42,381.02,Single-ply,SBD,M
Boys,99.79,11,Anthony Oviedo,Cameron Yoe,95.71,138.35,83.91,142.88,365.14,Single-ply,SBD,M
Boys,99.79,12,Clayton Schroeder,Giddings,91.63,147.42,,156.49,303.91,Single-ply,SD,M
Boys,109.77,1,Chandler Strmiska,Little River Academy,106.59,251.74,204.12,249.48,705.34,Single-ply,SBD,M
Boys,109.77,2,Wyatt Gardner,Little River Academy,108.41,204.12,158.76,226.8,589.67,Single-ply,SBD,M
Boys,109.77,3,Luke Miles,College Station,106.14,217.72,127.01,213.19,557.92,Single-ply,SBD,M
Boys,109.77,4,Dominic Lewis,Cameron Yoe,107.95,204.12,133.81,204.12,542.04,Single-ply,SBD,M
Boys,109.77,5,Vernon Walker,Waco La Vega,104.78,204.12,111.13,199.58,514.83,Single-ply,SBD,M
Boys,109.77,6,Ever O'Neil,College Station,100.7,199.58,117.93,195.04,512.56,Single-ply,SBD,M
Boys,109.77,7,Isaac Almaraz,College Station,109.32,213.19,106.59,183.7,503.49,Single-ply,SBD,M
Boys,109.77,8,James Abraham,Mexia,103.42,197.31,104.33,185.97,487.61,Single-ply,SBD,M
Boys,109.77,9,Jesus Garcia,Waco La Vega,101.15,183.7,115.67,170.1,469.47,Single-ply,SBD,M
Boys,109.77,10,Gavin Bass,College Station,108.86,172.37,117.93,149.69,439.98,Single-ply,SBD,M
Boys,109.77,11,Ivan Martinez,Waco La Vega,109.32,183.7,102.06,142.88,428.64,Single-ply,SBD,M
Boys,124.74,1,James Bagget,Waco La Vega,119.75,238.14,181.44,226.8,646.37,Single-ply,SBD,M
Boys,124.74,2,D'Anthony Jackson,Giddings,122.02,215.46,127.01,181.44,523.9,Single-ply,SBD,M
Boys,124.74,3,Trace Lopez,Taylor,122.92,188.24,142.88,192.78,523.9,Single-ply,SBD,M
Boys,124.74,4,Gabriel Gongora,Waco La Vega,116.57,213.19,117.93,190.51,521.63,Single-ply,SBD,M
Boys,124.74,5,Will Scott,Cameron Yoe,124.28,185.97,99.79,183.7,469.47,Single-ply,SBD,M
Boys,124.74,6,Lance Hamm,Hearne,110.68,183.7,115.67,156.49,455.86,Single-ply,SBD,M
Boys,124.74,7,Jonah Blanco,Taylor,112.94,92.99,74.84,102.06,269.89,Single-ply,SBD,M
Boys,124.74+,1,Chris Sifuentes,Giddings,141.07,260.82,138.35,222.26,621.42,Single-ply,SBD,M
Boys,124.74+,2,Victor Killebrew,Hearne,127.01,258.55,117.93,226.8,603.28,Single-ply,SBD,M
Boys,124.74+,3,Ak Medlock,Mexia,154.67,215.46,136.08,192.78,544.31,Single-ply,SBD,M
Boys,124.74+,4,O'Campo Ryleigh,Thrall,144.7,238.14,106.59,192.78,537.51,Single-ply,SBD,M
Boys,124.74+,5,Devin Smith,Waco La Vega,125.92,206.38,120.2,192.78,519.36,Single-ply,SBD,M
Boys,124.74+,6,Keanu Ramirez,Killeen Ellison,151.5,170.1,145.15,188.24,503.49,Single-ply,SBD,M
Boys,124.74+,7,Michael Burgar,Little River Academy,132.9,113.4,65.77,122.47,301.64,Single-ply,SBD,M
Boys,,NS,C. Rowe #3,Killeen Ellison,,,,,,Single-ply,SBD,M
