WeightClassKg,Sex,Equipment,Event,Division,Name,BirthYear,BodyweightKg,Best3SquatKg,Best3BenchKg,Best3DeadliftKg,TotalKg,Place
57,F,Raw,B,FR-M2a,Ruth Kirby,1960,56.8,,45,,45,1
84+,F,Raw,B,FR-M4a,Winifred Pristell,1938,87.3,,67.5,,67.5,1
72,F,Raw,B,FR-O,Lisa Luraghi,1974,63.6,,57.5,,57.5,1
120,M,Raw,B,MR-M1a,Jerry Flatterich,,108.7,,170,,170,1
93,M,Raw,B,MR-M2a,Phil Fernandez,,86.3,,127.5,,127.5,1
105,M,Raw,B,MR-M2a,Phil Rumsey,,97.3,,140,,140,1
74,M,Raw,B,MR-M2b,Owen Arnett,1956,74,,105,,105,1
93,M,Raw,B,MR-M2b,Steve Mulvihill,1954,87.4,,,,,DQ
120,M,Raw,B,MR-M2b,Steadman Mathis,1955,105.3,,210,,210,1
105,M,Raw,B,MR-M3a,Mike Murphy,,103.2,,125,,125,1
83,M,Raw,B,MR-M3b,Jerry Kimberling,1944,74.7,,107.5,,107.5,1
83,M,Raw,B,MR-M4a,Ron White,,79.1,,80,,80,1
120,M,Raw,B,MR-O,Sean Gilliland,1977,108.6,,155,,155,1
120,M,Raw,B,MR-O,Justin Shumway,1978,113.7,,152.5,,152.5,2
93,M,Raw,B,MR-T1,Kyle Hasegawa,1997,85.9,,80,,80,1
120,M,Raw,B,MR-T1,Nathan Smith #2,1997,105.4,,90,,90,1
66,M,Raw,B,MR-T3,Jobe Ashby,1994,59.3,,67.5,,67.5,1
74,M,Raw,B,MR-T3,Kyle Iverson,1993,72.9,,112.5,,112.5,1
120+,M,Raw,B,MR-T3,James O'Neal,,138.1,,132.5,,132.5,1
83,M,Single-ply,B,M-T1,Michael Evans,1998,76.8,,117.5,,117.5,1
57,F,Raw,D,FR-M1a,Judy Badeaux,1970,54.1,,,75,75,1
74,M,Raw,D,MR-M3b,John Demco,,70.9,,,82.5,82.5,1
120,M,Raw,D,MR-O,Sean Gilliland,1977,108.6,,,227.5,227.5,1
83,M,Raw,D,MR-T1,Menia Dang,,79.8,,,165,165,1
57,F,Single-ply,SBD,F-M1a,Danna Snow,1969,54.9,125,80,155,360,1
72,F,Single-ply,SBD,F-M1a,Colleen Hansford,1968,67.5,155,75,137.5,367.5,1
84,F,Single-ply,SBD,F-M1a,Sarah Bohlen,1969,78.3,137.5,82.5,142.5,362.5,1
63,F,Single-ply,SBD,F-M1b,Cathy Belben,1967,59.7,92.5,60,117.5,270,1
84+,F,Single-ply,SBD,F-M1b,Michelle Fayant,1964,88.9,165,125,175,465,1
84+,F,Single-ply,SBD,F-O,Andrea Page,1977,118.1,227.5,115,182.5,525,1
52,F,Raw,SBD,FR-M2a,Samantha Derrington,,50.8,52.5,30,62.5,145,1
84+,F,Raw,SBD,FR-M2a,Jill Arnow,1959,88.6,140,82.5,,,DQ
84+,F,Raw,SBD,FR-M2a,Jane Chateaubriand,,93.9,125,70,150,345,1
84+,F,Raw,SBD,FR-M2b,Juanita Mangagaong,,124,120,75,157.5,352.5,1
72,F,Raw,SBD,FR-M3a,Leslie Macko,1949,71.2,55,37.5,75,167.5,1
57,F,Raw,SBD,FR-O,Danielle Sacks,1987,55.8,87.5,55,125,267.5,1
84+,F,Raw,SBD,FR-O,Francesca Mang-Brodine,,88.6,137.5,67.5,172.5,377.5,1
84+,F,Raw,SBD,FR-O,Mary Ellen Hodges,,94.4,75,60,125,260,2
57,F,Raw,SBD,FR-T2,Kylee Joslin-Horan,,53.2,60,32.5,80,172.5,1
84,F,Raw,SBD,FR-T3,Taylor Honey,1994,80.9,85,37.5,102.5,225,1
43,F,Raw,SBD,FR-Y,Reagan Lombardo,,38.5,50,27.5,67.5,145,1
52,F,Raw,SBD,FR-Y,Faith Morse,2001,51.6,62.5,25,82.5,170,1
74,M,Single-ply,SBD,M-Jr,Tyler Shepard,1991,69.6,107.5,75,150,332.5,1
105,M,Single-ply,SBD,M-M2a,John Dietz,1959,98.4,172.5,137.5,185,495,1
83,M,Single-ply,SBD,M-M2b,Leamon Woodley,1957,82.2,285,137.5,287.5,710,1
93,M,Single-ply,SBD,M-M3b,Alan Tepper,1945,86.4,182.5,,217.5,,DQ
83,M,Single-ply,SBD,M-M3b,Jack Rankin,1947,81.9,200,97.5,197.5,495,1
93,M,Single-ply,SBD,M-O,Cameron Johnson,,89.5,200,122.5,200,522.5,1
105,M,Single-ply,SBD,M-O,Mark Sonnichsen,1975,99.2,275,160,275,710,2
105,M,Single-ply,SBD,M-O,Glenn May,1981,104.4,295,190,265,750,1
74,M,Raw,SBD,MR-Jr,Charlton Smith,1991,73.4,122.5,105,145,372.5,1
93,M,Raw,SBD,MR-O,Rob Buxbaum,1988,86.5,220,130,262.5,612.5,1
93,M,Raw,SBD,MR-Jr,Chris Gilman,,88.1,222.5,125,245,592.5,2
93,M,Raw,SBD,MR-Jr,Brandon Hubbard,1990,89.9,160,152.5,202.5,515,3
93,M,Raw,SBD,MR-Jr,Israel Narvaez,1991,89.1,190,110,210,510,4
93,M,Raw,SBD,MR-Jr,Keith Dow,1991,90,167.5,95,200,462.5,5
105,M,Raw,SBD,MR-Jr,Brandon Kibler,1992,101.6,230,142.5,267.5,640,1
120,M,Raw,SBD,MR-O,David Osborn #1,1988,109.4,185,145,205,535,1
83,M,Raw,SBD,MR-Jr,Sun Ly,1991,80.8,165,125,190,480,1
120,M,Raw,SBD,MR-M1a,Eric Mott,1971,105.2,177.5,150,225,552.5,1
120,M,Raw,SBD,MR-M1a,Bob Sloss,,106.9,142.5,,182.5,,DQ
120,M,Raw,SBD,MR-M1b,Jeff Olsen,1965,107.7,217.5,157.5,245,620,1
120,M,Raw,SBD,MR-M1b,Chris Williams #4,1967,106.4,192.5,162.5,247.5,602.5,2
120,M,Raw,SBD,MR-M1b,Gary Sewell,1967,108.1,197.5,130,210,537.5,4
120,M,Raw,SBD,MR-M1b,Brett Robbins,1963,115.9,210,125,227.5,562.5,3
120,M,Raw,SBD,MR-M1b,Lance Robbins,1963,111.1,182.5,125,220,527.5,5
74,M,Raw,B,MR-M2a,Rose Pristell,,71.3,,97.5,,97.5,1
93,M,Raw,SBD,MR-M2a,Larry Hill,1960,87.9,165,127.5,227.5,520,1
120+,M,Raw,SBD,MR-M2a,Dennis Miner,1960,120.5,220,150,285,655,1
83,M,Raw,SBD,MR-M3a,Mikhail Brusser,1952,74.7,142.5,117.5,205,465,1
105,M,Raw,SBD,MR-M3a,Steve Slavens,,98.4,60,60,60,180,1
66,M,Raw,SBD,MR-M3a,Dave Higgins,,65.5,127.5,87.5,180,395,1
83,M,Raw,SBD,MR-Jr,Matthew Jones,1991,82.4,92.5,65,147.5,305,1
83,M,Raw,SBD,MR-M4b,Len Baltzer,,81.1,70,,105,,DQ
93,M,Raw,SBD,MR-O,Joseph Schlegel,1985,87.6,182.5,140,247.5,570,1
105,M,Raw,SBD,MR-O,Jesse Cardenas,1982,98.4,200,170,227.5,597.5,1
105,M,Raw,SBD,MR-O,Brent Nikolaus,1982,100,182.5,137.5,240,560,2
105,M,Raw,SBD,MR-O,Jeremiah Spangler,1977,94.2,162.5,117.5,227.5,507.5,3
120,M,Raw,SBD,MR-O,Nathaniel Fellows,1975,108.1,142.5,95,200,437.5,1
120+,M,Raw,SBD,MR-O,John Cardwell,1974,123.8,245,160,237.5,642.5,1
66,M,Raw,SBD,MR-O,Danny Tran,1986,65.9,145,120,162.5,427.5,1
66,M,Raw,SBD,MR-O,Grant Yuan,1980,66,120,100,160,380,2
83,M,Raw,SBD,MR-O,Anthony Lucas,1984,78.5,210,155,250,615,1
83,M,Raw,SBD,MR-O,Ryan Bond,1988,80.3,160,115,192.5,467.5,2
66,M,Raw,SBD,MR-T2,Kienan Valdez,1995,59.6,112.5,85,150,347.5,2
74,M,Raw,SBD,MR-T2,Camden Choate-Deeds,1996,70.9,130,55,145,330,2
93,M,Raw,SBD,MR-T2,Allen Richards,1996,88.4,140,90,185,415,1
105,M,Raw,SBD,MR-T2,Drake Donovan,1996,96.6,215,137.5,237.5,590,1
105,M,Raw,SBD,MR-T2,Tanner Barnett,1995,104.6,167.5,105,195,467.5,2
120+,M,Raw,SBD,MR-T2,Monike Failauga,,133.7,222.5,125,247.5,595,1
74,M,Raw,SBD,MR-T2,Maverick Reddaway,,67.3,150,105,162.5,417.5,1
66,M,Raw,SBD,MR-T2,Damon Lurvey,1995,64.7,127.5,102.5,147.5,377.5,1
83,M,Raw,SBD,MR-T2,Eryn Warick,,80.5,162.5,,207.5,,DQ
83,M,Raw,SBD,MR-T3,Josh Liebelt,,74.1,160,95,185,440,1
74,M,Raw,SBD,MR-T3,Hayden Fagundes,1994,73.5,125,67.5,175,367.5,2
120,M,Raw,SBD,MR-M2,Michael Davis,1956,108.8,170,117.5,190,477.5,1
74,M,Raw,SBD,MR-T3,Chase Sturmer,1994,67.3,170,102.5,187.5,460,1
83,M,Raw,SBD,MR-T3,Max Broburg,1993,79.3,145,97.5,190,432.5,2
66,M,Raw,SBD,MR-Y,Harrison Maurus,2000,59.8,150,80,155,385,1
120+,M,Single-ply,SBD,M-T3,Dalton Dimick,1994,147.8,180,85,215,480,1
